1,0.9042833116319444
2,0.9159986707899306
3,0.9106258816189237
4,0.9129519992404513
5,0.9096628824869791
6,0.9071689181857638
7,0.9094797770182291
8,0.9091389973958334
9,0.9084286159939237
10,0.9128994411892362
11,0.9140896267361112
12,0.9176466200086806
13,0.9179755316840278
14,0.9173668755425347
15,0.91802978515625
16,0.9138810899522569
17,0.9140591091579862
18,0.9137030707465278
19,0.9179907904730903
20,0.9159138997395834
21,0.9223310682508681
22,0.9167582194010416
23,0.9125128851996528
24,0.9121466742621528
25,0.9107886420355903
26,0.9145558675130209
27,0.9146491156684028
28,0.9145694308810763
29,0.9172837999131944
30,0.9122094048394097
31,0.9158426920572916
32,0.9134724934895834
33,0.9194793701171875
34,0.9170922173394097
35,0.92266845703125
36,0.923095703125
37,0.9250556098090278
38,0.9205457899305556
39,0.9200541178385416
40,0.9271070692274306
41,0.9244622124565972
42,0.9265509711371528
43,0.927001953125
44,0.9225056966145834
45,0.9246368408203125
46,0.9209713406032987
47,0.9242384168836806
48,0.9276055230034722
49,0.9256812201605903
50,0.9289669460720487
51,0.9272257486979166
52,0.9305877685546875
53,0.9280531141493056
54,0.9281751844618056
55,0.9288347032335069
56,0.92254638671875
57,0.9238789876302084
58,0.9258677164713541
59,0.9260067409939237
60,0.9277988009982638
61,0.9289432101779513
62,0.9211951361762153
63,0.923797607421875
64,0.92681884765625
65,0.9258134629991319
66,0.9278767903645834
67,0.9300825330946181
68,0.9271596272786459
69,0.9217546251085069
70,0.9276106092664931
71,0.9269951714409722
72,0.9298553466796875
73,0.9284888373480903
74,0.9294230143229166
75,0.9304453531901041
76,0.9313540988498263
77,0.9316474066840278
78,0.9350009494357638
79,0.9360588921440972
80,0.9360894097222222
81,0.9377390543619791
82,0.9323527018229166
83,0.9348856608072916
84,0.9350212944878472
85,0.9357248942057291
86,0.9321085611979166
87,0.9311438666449653
88,0.9334513346354166
89,0.9331309000651041
90,0.9357554117838541
91,0.9338514539930556
92,0.9322458902994791
93,0.9329087999131944
94,0.9346550835503472
95,0.9363335503472222
96,0.9367421468098959
97,0.9348890516493056
98,0.9361165364583334
99,0.9381171332465278
100,0.9389970567491319
101,0.9387715657552084
102,0.9399837917751737
103,0.9332105848524306
104,0.9368709988064237
105,0.9389716254340278
106,0.9380086263020834
107,0.9366031222873263
108,0.9381900363498263
109,0.9367489284939237
110,0.9391055636935763
111,0.9361894395616319
112,0.9360707600911459
113,0.9396582709418403
114,0.9396548800998263
115,0.9362606472439237
116,0.9372575547960069
117,0.9382883707682291
118,0.9366505940755209
119,0.9417334662543403
120,0.9412146674262153
121,0.9414893256293403
122,0.9416436089409722
123,0.9407806396484375
124,0.9432305230034722
125,0.943878173828125
126,0.9437086317274306
127,0.9446801079644097
128,0.9446072048611112
129,0.9429151746961806
130,0.9436679416232638
131,0.9435594346788194
132,0.9458601209852431
133,0.9454718695746528
134,0.9478912353515625
135,0.9458974202473959
136,0.9474758572048612
137,0.9466654459635416
138,0.9474572075737847
139,0.9482252332899306
140,0.949066162109375
141,0.9477301703559028
142,0.9496053059895834
143,0.9487474229600694
144,0.9514109293619791
145,0.9500834147135416
146,0.9503207736545138
147,0.9509769015842013
148,0.9495391845703125
149,0.9497290717230903
150,0.951690673828125
151,0.9493933783637153
152,0.9504920111762153
153,0.9490695529513888
154,0.9507344563802084
155,0.9513261583116319
156,0.9529096815321181
157,0.9521450466579862
158,0.9521399603949653
159,0.9543253580729166
160,0.9537709554036459
161,0.9529300265842013
162,0.9544762505425347
163,0.9544999864366319
164,0.954437255859375
165,0.9572126600477431
166,0.9559071858723959
167,0.9536302354600694
168,0.9565175374348959
169,0.9568667941623263
170,0.9567430284288194
171,0.9582451714409722
172,0.9571770562065972
173,0.9580247667100694
174,0.9567989773220487
175,0.955352783203125
176,0.9552171495225694
177,0.9564887152777778
178,0.9575127495659722
179,0.9606984456380209
180,0.9571312798394097
181,0.9576059977213541
182,0.9590318467881944
183,0.9597218831380209
184,0.9602457682291666
185,0.9596405029296875
186,0.9586825900607638
187,0.9595116509331597
188,0.9596879747178819
189,0.9612155490451388
190,0.9612647162543403
191,0.9626413981119791
192,0.9596811930338541
193,0.9606645372178819
194,0.9614393446180556
195,0.9628007676866319
196,0.9619072808159722
197,0.9637959798177084
198,0.9629431830512153
199,0.9643215603298612
200,0.9638739691840278
201,0.9643741183810763
202,0.9645589192708334
203,0.965850830078125
204,0.9655185275607638
205,0.9673139784071181
206,0.9679378933376737
207,0.9663848876953125
208,0.9671885172526041
209,0.9696078830295138
210,0.9694925944010416
211,0.9686855740017362
212,0.9698740641276041
213,0.9692230224609375
214,0.9689466688368056
215,0.9678192138671875
216,0.9686635335286459
217,0.9695858425564237
218,0.9689364963107638
219,0.9674394395616319
220,0.9685312906901041
221,0.9697909884982638
222,0.9712202284071181
223,0.9710184733072916
224,0.9704776340060763
225,0.9700469970703125
226,0.9715474446614584
227,0.9706081814236112
228,0.9706539577907987
229,0.9706030951605903
230,0.9718916151258681
231,0.9729224310980903
232,0.9730241563585069
233,0.9737260606553819
234,0.9736497667100694
235,0.9745381673177084
236,0.9742448594835069
237,0.9731462266710069
238,0.9735344780815972
239,0.972625732421875
240,0.9753451877170138
241,0.9754536946614584
242,0.9765675862630209
243,0.9737752278645834
244,0.9758843315972222
245,0.9764929877387153
246,0.974822998046875
247,0.9778628879123263
248,0.9770355224609375
249,0.977325439453125
250,0.9777662489149306
251,0.9801500108506944
252,0.9783104790581597
253,0.9797736273871528
254,0.9787258572048612
255,0.9792090521918403
256,0.97998046875
257,0.9801703559027778
258,0.9792429606119791
259,0.9804636637369791
260,0.9806705050998263
261,0.9807637532552084
262,0.9811893039279513
263,0.9807891845703125
264,0.9814961751302084
265,0.9814503987630209
266,0.9819573296440972
267,0.9814181857638888
268,0.9818589952256944
269,0.9835696750217013
270,0.9836154513888888
271,0.9853227403428819
272,0.9850684271918403
273,0.9852430555555556
274,0.9859229193793403
275,0.9852057562934028
276,0.98553466796875
277,0.9860805935329862
278,0.9853617350260416
279,0.9860772026909722
280,0.9873131646050347
281,0.9865603976779513
282,0.9876166449652778
283,0.9865027533637153
284,0.9876285129123263
285,0.9875217013888888
286,0.9880862765842013
287,0.9884914822048612
288,0.9882609049479166
289,0.9892188178168403
290,0.9894493950737847
291,0.9890187581380209
292,0.9905921088324653
293,0.9906124538845487
294,0.990234375
295,0.9908871120876737
296,0.9908345540364584
297,0.9913974338107638
298,0.9916720920138888
299,0.9920535617404513
300,0.9923672146267362
301,0.9928097195095487
302,0.9928944905598959
303,0.9930742051866319
304,0.9933912489149306
305,0.9937218560112847
306,0.9931894938151041
307,0.9945661756727431
308,0.9952460394965278
309,0.9948798285590278
310,0.9951866997612847
311,0.9951816134982638
312,0.9958733452690972
313,0.9959479437934028
314,0.9962700737847222
315,0.9966973198784722
316,0.9968397352430556
317,0.9973127577039931
318,0.9974331325954862
319,0.9978671603732638
320,0.9980909559461806
321,0.99847412109375
322,0.9987250434027778
323,0.9989234076605903
324,0.9991404215494791
325,0.9994337293836806
326,0.9997287326388888
