1,0.9842580159505209
2,0.9858974880642362
3,0.9871385362413194
4,0.9866909450954862
5,0.9848073323567709
6,0.9861043294270834
7,0.9870690239800347
8,0.9877912733289931
9,0.987060546875
10,0.9876708984375
11,0.9865010579427084
12,0.9868265787760416
13,0.9886237250434028
14,0.9869333902994791
15,0.9865349663628472
16,0.9866909450954862
17,0.9890611436631944
18,0.9880235460069444
19,0.9879811604817709
20,0.9871470133463541
21,0.9886559380425347
22,0.9877132839626737
23,0.9879319932725694
24,0.9881913926866319
25,0.9875318739149306
26,0.9862280951605903
27,0.9878150092230903
28,0.9876013861762153
29,0.9878879123263888
30,0.9849073621961806
31,0.9873674180772569
32,0.9872250027126737
33,0.98779296875
34,0.9870283338758681
35,0.9880286322699653
36,0.9864213731553819
37,0.9881015353732638
38,0.9891866048177084
39,0.9887407090928819
40,0.9899563259548612
41,0.9885796440972222
42,0.9889017740885416
43,0.9893137613932291
44,0.9896460639105903
45,0.9889967176649306
46,0.9884880913628472
47,0.9889695909288194
48,0.9888136121961806
49,0.9886559380425347
50,0.9889729817708334
51,0.9881117078993056
52,0.988189697265625
53,0.9882185194227431
54,0.9883524576822916
55,0.9891493055555556
56,0.9887305365668403
57,0.9891323513454862
58,0.9885219997829862
59,0.9888661702473959
60,0.9889509412977431
61,0.9896223280164931
62,0.9886627197265625
63,0.9881863064236112
64,0.9892205132378472
65,0.9887101915147569
66,0.9899003770616319
67,0.9898817274305556
68,0.9898783365885416
69,0.9891459147135416
70,0.9894476996527778
71,0.9894070095486112
72,0.9897664388020834
73,0.9895985921223959
74,0.9902242024739584
75,0.98944091796875
76,0.9903649224175347
77,0.9893442789713541
78,0.9900444878472222
79,0.989776611328125
80,0.9907752143012153
81,0.990966796875
82,0.9898291693793403
83,0.9890662299262153
84,0.9905158148871528
85,0.98968505859375
86,0.9908871120876737
87,0.9883439805772569
88,0.9899580213758681
89,0.9901360405815972
90,0.9901479085286459
91,0.9911482069227431
92,0.9899105495876737
93,0.9903649224175347
94,0.9908345540364584
95,0.9913211398654513
96,0.9910363091362847
97,0.9907260470920138
98,0.9909498426649306
99,0.9909990098741319
100,0.9913058810763888
101,0.9904734293619791
102,0.9912753634982638
103,0.9910990397135416
104,0.9902326795789931
105,0.9911634657118056
106,0.9911872016059028
107,0.9899037679036459
108,0.9908447265625
109,0.988739013671875
110,0.9926283094618056
111,0.9920569525824653
112,0.9920705159505209
113,0.9927927652994791
114,0.9920128716362847
115,0.9918365478515625
116,0.9914923773871528
117,0.9911346435546875
118,0.9915601942274306
119,0.9931759304470487
120,0.9925655788845487
121,0.9920840793185763
122,0.9921044243706597
123,0.9908854166666666
124,0.9921637641059028
125,0.9921366373697916
126,0.9920569525824653
127,0.9922214084201388
128,0.9921095106336806
129,0.9916839599609375
130,0.9933556450737847
131,0.9929385715060763
132,0.9925672743055556
133,0.993408203125
134,0.9929012722439237
135,0.9917873806423612
136,0.9925333658854166
137,0.9918263753255209
138,0.9925689697265625
139,0.9931844075520834
140,0.9932793511284722
141,0.9925774468315972
142,0.9934861924913194
143,0.9931199815538194
144,0.9930063883463541
145,0.9932386610243056
146,0.9917314317491319
147,0.9929368760850694
148,0.9923604329427084
149,0.9929453531901041
150,0.9928063286675347
151,0.9928063286675347
152,0.9933590359157987
153,0.9928622775607638
154,0.9931284586588541
155,0.9934912787543403
156,0.9932471381293403
157,0.9937676323784722
158,0.9936472574869791
159,0.9929606119791666
160,0.9937218560112847
161,0.9936421712239584
162,0.993377685546875
163,0.9931386311848959
164,0.993072509765625
165,0.9937150743272569
166,0.9934912787543403
167,0.9915991889105903
168,0.9934014214409722
169,0.9936930338541666
170,0.9937625461154513
171,0.9940761990017362
172,0.9936659071180556
173,0.9938134087456597
174,0.9934438069661459
175,0.9925621880425347
176,0.9934794108072916
177,0.9919789632161459
178,0.9931708441840278
179,0.9939948187934028
180,0.9939643012152778
181,0.9938439263237847
182,0.9940524631076388
183,0.9937981499565972
184,0.99462890625
185,0.9940151638454862
186,0.9937506781684028
187,0.9940880669487847
188,0.9942372639973959
189,0.9940016004774306
190,0.9939151340060763
191,0.9942609998914931
192,0.99383544921875
193,0.9944966634114584
194,0.9937049018012153
195,0.9935031467013888
196,0.9946933322482638
197,0.9946136474609375
198,0.9940812852647569
199,0.9939643012152778
200,0.9942745632595487
201,0.9939744737413194
202,0.9940456814236112
203,0.9943762885199653
204,0.9945509168836806
205,0.9948238796657987
206,0.9955664740668403
207,0.9943695068359375
208,0.9952867296006944
209,0.994781494140625
210,0.9957767062717013
211,0.9948001437717013
212,0.9955834282769097
213,0.9952155219184028
214,0.9953358968098959
215,0.99560546875
216,0.9957461886935763
217,0.9959937201605903
218,0.9954444037543403
219,0.9943593343098959
220,0.9947662353515625
221,0.9957631429036459
222,0.9955732557508681
223,0.9961632622612847
224,0.9960259331597222
225,0.9957241482204862
226,0.9959954155815972
227,0.9958326551649306
228,0.9957665337456597
229,0.9961988661024306
230,0.9961937798394097
231,0.9962870279947916
232,0.9957851833767362
233,0.9957987467447916
234,0.9961734347873263
235,0.9962666829427084
236,0.9964074028862847
237,0.9959140353732638
238,0.9956088595920138
239,0.9955393473307291
240,0.9964175754123263
241,0.9963921440972222
242,0.9970228407118056
243,0.9964633517795138
244,0.9962615966796875
245,0.9966515435112847
246,0.9964565700954862
247,0.9965582953559028
248,0.9966973198784722
249,0.996826171875
250,0.9968855116102431
251,0.9975416395399306
252,0.9968278672960069
253,0.9972347683376737
254,0.9968363444010416
255,0.9970686170789931
256,0.9971940782335069
257,0.9973212348090278
258,0.9967176649305556
259,0.9970211452907987
260,0.9973178439670138
261,0.9972483317057291
262,0.99725341796875
263,0.9973280164930556
264,0.9971889919704862
265,0.9972873263888888
266,0.9971347384982638
267,0.9968329535590278
268,0.9967973497178819
269,0.9969855414496528
270,0.9971364339192709
271,0.9971466064453125
272,0.9975433349609375
273,0.9979027642144097
274,0.9976976182725694
275,0.9977060953776041
276,0.9977400037977431
277,0.9976162380642362
278,0.9974483913845487
279,0.9972991943359375
280,0.9980519612630209
281,0.9977366129557291
282,0.9980892605251737
283,0.9978502061631944
284,0.9977688259548612
285,0.9979604085286459
286,0.9977060953776041
287,0.9980027940538194
288,0.9980333116319444
289,0.9979909261067709
290,0.9979756673177084
291,0.9983639187282987
292,0.9986436631944444
293,0.9982791476779513
294,0.9984758165147569
295,0.9981842041015625
296,0.9984317355685763
297,0.9985826280381944
298,0.998504638671875
299,0.9987114800347222
300,0.9984842936197916
301,0.9987759060329862
302,0.9987419976128472
303,0.9989573160807291
304,0.9990013970269097
305,0.9989810519748263
306,0.9987708197699653
307,0.9989895290798612
308,0.9992455376519097
309,0.9991658528645834
310,0.9992760552300347
311,0.9992167154947916
312,0.9992336697048612
313,0.9993167453342013
314,0.999298095703125
315,0.9994455973307291
316,0.9994845920138888
317,0.9995795355902778
318,0.9996083577473959
319,0.9996846516927084
320,0.9996795654296875
321,0.9996846516927084
322,0.9997880723741319
323,0.9998338487413194
324,0.9998575846354166
325,0.9999169243706597
326,0.9999627007378472
