1,0.9923451741536459
2,0.9928012424045138
3,0.9921281602647569
4,0.9925164116753472
5,0.992340087890625
6,0.9927893744574653
7,0.9926164415147569
8,0.9927910698784722
9,0.9924231635199653
10,0.9928334554036459
11,0.9927079942491319
12,0.9930759006076388
13,0.9929707845052084
14,0.9931250678168403
15,0.9930928548177084
16,0.9928402370876737
17,0.9922383626302084
18,0.9924723307291666
19,0.9930216471354166
20,0.9930470784505209
21,0.9929640028211806
22,0.9930555555555556
23,0.9929419623480903
24,0.9924858940972222
25,0.9931115044487847
26,0.9932640923394097
27,0.9930538601345487
28,0.9933437771267362
29,0.9933607313368056
30,0.9934488932291666
31,0.9936014811197916
32,0.993621826171875
33,0.9936252170138888
34,0.9938981797960069
35,0.9942474365234375
36,0.9940270317925347
37,0.9937371148003472
38,0.9936845567491319
39,0.9933844672309028
40,0.9939202202690972
41,0.9936794704861112
42,0.9935574001736112
43,0.99371337890625
44,0.9937049018012153
45,0.9936947292751737
46,0.9936201307508681
47,0.9936777750651041
48,0.9939083523220487
49,0.9939659966362847
50,0.9938269721137153
51,0.9937489827473959
52,0.9940914577907987
53,0.9943745930989584
54,0.9940914577907987
55,0.9941728379991319
56,0.9937167697482638
57,0.9935777452256944
58,0.9937116834852431
59,0.9942152235243056
60,0.9941880967881944
61,0.9943712022569444
62,0.9938829210069444
63,0.9941524929470487
64,0.9941423204210069
65,0.9944559733072916
66,0.9943288167317709
67,0.9946170383029513
68,0.9943152533637153
69,0.9942881266276041
70,0.9940032958984375
71,0.993988037109375
72,0.9941524929470487
73,0.9940812852647569
74,0.9942609998914931
75,0.9942830403645834
76,0.9941524929470487
77,0.9944661458333334
78,0.994232177734375
79,0.9942660861545138
80,0.9945424397786459
81,0.9945119222005209
82,0.9946170383029513
83,0.9948221842447916
84,0.9945390489366319
85,0.9949866400824653
86,0.9944407145182291
87,0.9944288465711806
88,0.9947068956163194
89,0.994842529296875
90,0.9948900010850694
91,0.9946526421440972
92,0.9944407145182291
93,0.9951154920789931
94,0.9948950873480903
95,0.9950646294487847
96,0.9950680202907987
97,0.9948984781901041
98,0.99517822265625
99,0.9949578179253472
100,0.9953664143880209
101,0.9953731960720487
102,0.9957241482204862
103,0.9950917561848959
104,0.995269775390625
105,0.9955800374348959
106,0.9953087700737847
107,0.9952901204427084
108,0.9954952663845487
109,0.9953223334418403
110,0.9952579074435763
111,0.9953494601779513
112,0.9950849745008681
113,0.9952239990234375
114,0.99542236328125
115,0.9953223334418403
116,0.9952799479166666
117,0.9951561821831597
118,0.9953782823350694
119,0.9954715304904513
120,0.9954020182291666
121,0.9955071343315972
122,0.9952477349175347
123,0.9951866997612847
124,0.9956953260633681
125,0.9952545166015625
126,0.9952002631293403
127,0.9953528510199653
128,0.9954698350694444
129,0.9956529405381944
130,0.9956987169053819
131,0.9955664740668403
132,0.9955563015407987
133,0.9955359564887153
134,0.9956376817491319
135,0.9954817030164931
136,0.9957665337456597
137,0.9957224527994791
138,0.9957902696397569
139,0.9955715603298612
140,0.9958580864800347
141,0.9957394070095487
142,0.9960954454210069
143,0.9957461886935763
144,0.9960649278428819
145,0.9959971110026041
146,0.9958411322699653
147,0.9960530598958334
148,0.9961208767361112
149,0.9959496392144097
150,0.9960361056857638
151,0.9959937201605903
152,0.9961123996310763
153,0.9962734646267362
154,0.9962073432074653
155,0.9960852728949653
156,0.9962514241536459
157,0.9963260226779513
158,0.9963819715711806
159,0.9964616563585069
160,0.9964311387803819
161,0.9964175754123263
162,0.9965854220920138
163,0.9964328342013888
164,0.9964430067274306
165,0.9966328938802084
166,0.9965701633029513
167,0.99658203125
168,0.9965803358289931
169,0.9964667426215278
170,0.9965481228298612
171,0.9966295030381944
172,0.9967159695095487
173,0.9967295328776041
174,0.9968278672960069
175,0.9968617757161459
176,0.9968617757161459
177,0.9969635009765625
178,0.9967227511935763
179,0.9970448811848959
180,0.9968787299262153
181,0.9968159993489584
182,0.9969363742404513
183,0.9969533284505209
184,0.9969702826605903
185,0.9968363444010416
186,0.996734619140625
187,0.9969448513454862
188,0.9968617757161459
189,0.9968804253472222
190,0.9970414903428819
191,0.9970126681857638
192,0.9969431559244791
193,0.9969482421875
194,0.9970008002387153
195,0.9969838460286459
196,0.9969584147135416
197,0.9971177842881944
198,0.9969991048177084
199,0.9972585042317709
200,0.9970635308159722
201,0.9971601698133681
202,0.9972669813368056
203,0.9972161187065972
204,0.9973856608072916
205,0.9973178439670138
206,0.9972805447048612
207,0.9974195692274306
208,0.9973246256510416
209,0.9976077609592013
210,0.9974704318576388
211,0.9973347981770834
212,0.9973975287543403
213,0.9974839952256944
214,0.9975653754340278
215,0.9975501166449653
216,0.9977383083767362
217,0.9975738525390625
218,0.9976382785373263
219,0.9975823296440972
220,0.9976586235894097
221,0.9976026746961806
222,0.9976721869574653
223,0.9977213541666666
224,0.9977535671657987
225,0.9976043701171875
226,0.9977756076388888
227,0.9978078206380209
228,0.9978569878472222
229,0.9979994032118056
230,0.9980180528428819
231,0.9977315266927084
232,0.9979739718967013
233,0.9978959825303819
234,0.9980044894748263
235,0.9980248345269097
236,0.9981401231553819
237,0.9979654947916666
238,0.9980621337890625
239,0.9981282552083334
240,0.9981367323133681
241,0.9981706407335069
242,0.9981757269965278
243,0.9981536865234375
244,0.9981706407335069
245,0.9982655843098959
246,0.9982401529947916
247,0.9982062445746528
248,0.9981926812065972
249,0.9982198079427084
250,0.9982384575737847
251,0.9983571370442709
252,0.9984317355685763
253,0.9983842637803819
254,0.9983469645182291
255,0.9984775119357638
256,0.9985300699869791
257,0.9985368516710069
258,0.9984419080946181
259,0.9985792371961806
260,0.9984842936197916
261,0.9985928005642362
262,0.9985571967230903
263,0.9985690646701388
264,0.9985673692491319
265,0.9986114501953125
266,0.9985775417751737
267,0.9986114501953125
268,0.9986250135633681
269,0.9986453586154513
270,0.9987369113498263
271,0.9987691243489584
272,0.9987979465060763
273,0.9988284640842013
274,0.9989030626085069
275,0.9988674587673612
276,0.9988386366102431
277,0.9988844129774306
278,0.9988844129774306
279,0.9988894992404513
280,0.9989234076605903
281,0.9989471435546875
282,0.9989284939236112
283,0.9990200466579862
284,0.9990522596571181
285,0.9990115695529513
286,0.9990132649739584
287,0.99908447265625
288,0.9991048177083334
289,0.9991709391276041
290,0.9991845024956597
291,0.9992218017578125
292,0.9992658827039931
293,0.9992743598090278
294,0.9992438422309028
295,0.9993133544921875
296,0.9993082682291666
297,0.999359130859375
298,0.9993252224392362
299,0.9993676079644097
300,0.9994405110677084
301,0.9994286431206597
302,0.9994845920138888
303,0.9994659423828125
304,0.9995015462239584
305,0.9995303683810763
306,0.9995269775390625
307,0.9996236165364584
308,0.9996490478515625
309,0.9996219211154513
310,0.9996168348524306
311,0.9996405707465278
312,0.9996795654296875
313,0.9996880425347222
314,0.9996812608506944
315,0.9997456868489584
316,0.9997406005859375
317,0.9997948540581597
318,0.9997982449001737
319,0.9998135036892362
320,0.9998660617404513
321,0.9998643663194444
322,0.9998931884765625
323,0.9999169243706597
324,0.9999440511067709
325,0.9999593098958334
326,0.9999864366319444
