1,0.9845174153645834
2,0.9866655137803819
3,0.9868350558810763
4,0.9874725341796875
5,0.9866875542534722
6,0.9876980251736112
7,0.9874454074435763
8,0.9869266086154513
9,0.9874233669704862
10,0.9868570963541666
11,0.9871368408203125
12,0.9877115885416666
13,0.9887169731987847
14,0.9870707194010416
15,0.9869469536675347
16,0.9869435628255209
17,0.9876437717013888
18,0.9869350857204862
19,0.9873758951822916
20,0.9858822292751737
21,0.9881201850043403
22,0.9873538547092013
23,0.9871164957682291
24,0.9878048366970487
25,0.9873928493923612
26,0.9868960910373263
27,0.9879370795355903
28,0.9869418674045138
29,0.9874250623914931
30,0.9864044189453125
31,0.9872860378689237
32,0.9870961507161459
33,0.9882558186848959
34,0.9880388047960069
35,0.9888203938802084
36,0.9887813991970487
37,0.9894476996527778
38,0.9891035291883681
39,0.9900173611111112
40,0.9906243218315972
41,0.9892289903428819
42,0.9894934760199653
43,0.9898461235894097
44,0.9895206027560763
45,0.9894392225477431
46,0.9881998697916666
47,0.9893612331814237
48,0.989471435546875
49,0.9889187282986112
50,0.9888763427734375
51,0.9884168836805556
52,0.9892578125
53,0.9888017442491319
54,0.9880320231119791
55,0.9887678358289931
56,0.9887051052517362
57,0.9893035888671875
58,0.9891832139756944
59,0.9892544216579862
60,0.9893035888671875
61,0.9894985622829862
62,0.9887915717230903
63,0.9892018636067709
64,0.9897104899088541
65,0.9891628689236112
66,0.9901597764756944
67,0.9900919596354166
68,0.9897986518012153
69,0.9885745578342013
70,0.9894002278645834
71,0.9890051947699653
72,0.9893731011284722
73,0.9889933268229166
74,0.9895104302300347
75,0.9894968668619791
76,0.9902852376302084
77,0.9895528157552084
78,0.9901648627387153
79,0.9901292588975694
80,0.9905514187282987
81,0.9906853569878472
82,0.9901190863715278
83,0.9903581407335069
84,0.9906972249348959
85,0.9901818169487847
86,0.9905344645182291
87,0.989593505859375
88,0.9904446072048612
89,0.9906870524088541
90,0.9912533230251737
91,0.9913279215494791
92,0.9912855360243056
93,0.9908209906684028
94,0.9903920491536459
95,0.9906395806206597
96,0.9906446668836806
97,0.9903411865234375
98,0.9915500217013888
99,0.9920416937934028
100,0.9919891357421875
101,0.9912668863932291
102,0.9921552870008681
103,0.991302490234375
104,0.9906056722005209
105,0.991424560546875
106,0.9918178982204862
107,0.9915415445963541
108,0.9913092719184028
109,0.9913177490234375
110,0.9921485053168403
111,0.9917822943793403
112,0.9914923773871528
113,0.9922214084201388
114,0.9917772081163194
115,0.9915076361762153
116,0.9915211995442709
117,0.9918568929036459
118,0.9915601942274306
119,0.9924825032552084
120,0.9928504096137153
121,0.9924875895182291
122,0.9921841091579862
123,0.9922841389973959
124,0.9924977620442709
125,0.9930640326605903
126,0.9928809271918403
127,0.9926367865668403
128,0.9928029378255209
129,0.9924672444661459
130,0.9924858940972222
131,0.9925248887803819
132,0.9923655192057291
133,0.9924706353081597
134,0.9925825330946181
135,0.9921383327907987
136,0.9924994574652778
137,0.9921417236328125
138,0.9931013319227431
139,0.9930029975043403
140,0.9938286675347222
141,0.9930470784505209
142,0.992950439453125
143,0.9932657877604166
144,0.9930199517144097
145,0.9927452935112847
146,0.9923994276258681
147,0.9930148654513888
148,0.9922841389973959
149,0.9930945502387153
150,0.9928012424045138
151,0.9932183159722222
152,0.9932420518663194
153,0.9929589165581597
154,0.9932895236545138
155,0.9930233425564237
156,0.9931216769748263
157,0.9935794406467013
158,0.9932454427083334
159,0.9932742648654513
160,0.9929283989800347
161,0.9929233127170138
162,0.9928148057725694
163,0.9929368760850694
164,0.9930182562934028
165,0.9938100179036459
166,0.9933454725477431
167,0.9931962754991319
168,0.9938235812717013
169,0.993560791015625
170,0.9934878879123263
171,0.9938846164279513
172,0.9939761691623263
173,0.9941575792100694
174,0.9940829806857638
175,0.9933827718098959
176,0.9937082926432291
177,0.9931250678168403
178,0.9935845269097222
179,0.9944474962022569
180,0.9938744439019097
181,0.9940016004774306
182,0.9939168294270834
183,0.9938286675347222
184,0.9945831298828125
185,0.9944186740451388
186,0.9939948187934028
187,0.9938557942708334
188,0.9937778049045138
189,0.9939812554253472
190,0.9941321478949653
191,0.9946102566189237
192,0.9937998453776041
193,0.9944627549913194
194,0.9942593044704862
195,0.9942491319444444
196,0.9942898220486112
197,0.9948170979817709
198,0.9946695963541666
199,0.99456787109375
200,0.994964599609375
201,0.9948577880859375
202,0.9948289659288194
203,0.9946255154079862
204,0.99493408203125
205,0.9949917263454862
206,0.9952579074435763
207,0.9950663248697916
208,0.9952392578125
209,0.9952782524956597
210,0.9952884250217013
211,0.9952969021267362
212,0.9956631130642362
213,0.9955919053819444
214,0.9955105251736112
215,0.9954681396484375
216,0.9955851236979166
217,0.9954579671223959
218,0.9955902099609375
219,0.9956495496961806
220,0.9955037434895834
221,0.9958597819010416
222,0.995635986328125
223,0.9959632025824653
224,0.9960174560546875
225,0.9959394666883681
226,0.9961090087890625
227,0.9960259331597222
228,0.9957038031684028
229,0.9960598415798612
230,0.9961123996310763
231,0.9962531195746528
232,0.9962022569444444
233,0.9959496392144097
234,0.9960089789496528
235,0.9962802463107638
236,0.9962819417317709
237,0.9962005615234375
238,0.9959309895833334
239,0.9961530897352431
240,0.9964243570963541
241,0.9967990451388888
242,0.9969295925564237
243,0.9961717393663194
244,0.9966549343532987
245,0.9967888726128472
246,0.9968244764539931
247,0.9967702229817709
248,0.9969109429253472
249,0.9968346489800347
250,0.9971330430772569
251,0.9974009195963541
252,0.9969753689236112
253,0.997222900390625
254,0.9973398844401041
255,0.9971805148654513
256,0.9972296820746528
257,0.9971364339192709
258,0.9970753987630209
259,0.9974721272786459
260,0.9971550835503472
261,0.9972178141276041
262,0.9971889919704862
263,0.9974382188585069
264,0.9973381890190972
265,0.9974755181206597
266,0.9973788791232638
267,0.9974348280164931
268,0.9971533881293403
269,0.9976247151692709
270,0.9975314670138888
271,0.9978179931640625
272,0.9979214138454862
273,0.9979112413194444
274,0.9980858696831597
275,0.9978756374782987
276,0.9978688557942709
277,0.9978824191623263
278,0.9978722466362847
279,0.9979909261067709
280,0.9982486300998263
281,0.9978722466362847
282,0.9981163872612847
283,0.9980638292100694
284,0.998260498046875
285,0.9981825086805556
286,0.9981146918402778
287,0.9983961317274306
288,0.9983791775173612
289,0.9983774820963541
290,0.9984724256727431
291,0.9984215630425347
292,0.99871826171875
293,0.9985232883029513
294,0.9985487196180556
295,0.9987199571397569
296,0.9985215928819444
297,0.9987470838758681
298,0.9987216525607638
299,0.9988115098741319
300,0.9988521999782987
301,0.9989098442925347
302,0.9989912245008681
303,0.9990743001302084
304,0.9991031222873263
305,0.9990810818142362
306,0.9990912543402778
307,0.9991709391276041
308,0.9992574055989584
309,0.9993082682291666
310,0.9993303087022569
311,0.9993489583333334
312,0.9993828667534722
313,0.9994049072265625
314,0.99945068359375
315,0.9995185004340278
316,0.9995235866970487
317,0.9996524386935763
318,0.9996626112196181
319,0.9996676974826388
320,0.9997134738498263
321,0.9997473822699653
322,0.9997914632161459
323,0.9998202853732638
324,0.9998592800564237
325,0.9998965793185763
326,0.9999559190538194
