1,0.9922604031032987
2,0.9931810167100694
3,0.9929996066623263
4,0.9931216769748263
5,0.9931928846571181
6,0.9935319688585069
7,0.9935557047526041
8,0.9934370252821181
9,0.9936336941189237
10,0.9936659071180556
11,0.9934743245442709
12,0.9936947292751737
13,0.9936286078559028
14,0.9935455322265625
15,0.9935184054904513
16,0.9933285183376737
17,0.9934658474392362
18,0.9934115939670138
19,0.9938167995876737
20,0.9933369954427084
21,0.9936692979600694
22,0.9932946099175347
23,0.9932725694444444
24,0.9931962754991319
25,0.9934251573350694
26,0.9935692681206597
27,0.9937625461154513
28,0.9937523735894097
29,0.9938303629557291
30,0.9933997260199653
31,0.9936608208550347
32,0.9936404758029513
33,0.9939439561631944
34,0.9939795600043403
35,0.9941982693142362
36,0.9943762885199653
37,0.9946526421440972
38,0.994415283203125
39,0.9945322672526041
40,0.9947136773003472
41,0.9943678114149306
42,0.9948933919270834
43,0.9947119818793403
44,0.9945509168836806
45,0.9945407443576388
46,0.9942440456814237
47,0.9946882459852431
48,0.9946865505642362
49,0.9945034450954862
50,0.9946577284071181
51,0.9947645399305556
52,0.9951188829210069
53,0.9947340223524306
54,0.9944441053602431
55,0.9945610894097222
56,0.9944237603081597
57,0.9945712619357638
58,0.9945458306206597
59,0.9945407443576388
60,0.9945763481987847
61,0.9947713216145834
62,0.9943728976779513
63,0.9944542778862847
64,0.9946458604600694
65,0.9949289957682291
66,0.9949256049262153
67,0.9950663248697916
68,0.9946051703559028
69,0.9942118326822916
70,0.9941982693142362
71,0.9943559434678819
72,0.9946136474609375
73,0.9946204291449653
74,0.9949442545572916
75,0.9947035047743056
76,0.9951205783420138
77,0.9947797987196181
78,0.9947679307725694
79,0.9947153727213541
80,0.9950663248697916
81,0.9951646592881944
82,0.9949425591362847
83,0.9952545166015625
84,0.9953850640190972
85,0.9953189425998263
86,0.9950697157118056
87,0.9948391384548612
88,0.9951290554470487
89,0.9951883951822916
90,0.99517822265625
91,0.9951968722873263
92,0.9951205783420138
93,0.9951663547092013
94,0.9950714111328125
95,0.9951765272352431
96,0.9950849745008681
97,0.9951494004991319
98,0.9953257242838541
99,0.9956580268012153
100,0.9958869086371528
101,0.99554443359375
102,0.9957173665364584
103,0.9951833089192709
104,0.9952918158637153
105,0.9953867594401041
106,0.9956698947482638
107,0.9957088894314237
108,0.9957190619574653
109,0.9953952365451388
110,0.9955529106987847
111,0.9951239691840278
112,0.9952850341796875
113,0.9953647189670138
114,0.9958919949001737
115,0.9954647488064237
116,0.99560546875
117,0.9955512152777778
118,0.9953206380208334
119,0.9958530002170138
120,0.9957275390625
121,0.9956122504340278
122,0.9957461886935763
123,0.9956868489583334
124,0.9957902696397569
125,0.9958123101128472
126,0.9957834879557291
127,0.99578857421875
128,0.9957512749565972
129,0.9957224527994791
130,0.9958750406901041
131,0.9958902994791666
132,0.9957682291666666
133,0.9957546657986112
134,0.9959496392144097
135,0.99578857421875
136,0.9960191514756944
137,0.9956427680121528
138,0.9961022271050347
139,0.9962022569444444
140,0.9964107937282987
141,0.9961988661024306
142,0.9962938096788194
143,0.9962480333116319
144,0.9963090684678819
145,0.9962819417317709
146,0.9961988661024306
147,0.9961971706814237
148,0.9961090087890625
149,0.9961581759982638
150,0.9962327745225694
151,0.9962497287326388
152,0.9962887234157987
153,0.9962700737847222
154,0.9964074028862847
155,0.99639892578125
156,0.9965142144097222
157,0.9966295030381944
158,0.9965786404079862
159,0.9965905083550347
160,0.9966040717230903
161,0.9965362548828125
162,0.9965379503038194
163,0.9965532090928819
164,0.9966210259331597
165,0.9968651665581597
166,0.9966142442491319
167,0.9969295925564237
168,0.9968431260850694
169,0.9968143039279513
170,0.9967837863498263
171,0.99700927734375
172,0.9968702528211806
173,0.9968312581380209
174,0.9969363742404513
175,0.9968431260850694
176,0.9966481526692709
177,0.9967464870876737
178,0.9968499077690972
179,0.99713134765625
180,0.9969245062934028
181,0.9969651963975694
182,0.9968041314019097
183,0.9968787299262153
184,0.9971211751302084
185,0.9970448811848959
186,0.9970720079210069
187,0.9971296522352431
188,0.9969651963975694
189,0.9970330132378472
190,0.9971330430772569
191,0.9971889919704862
192,0.9968363444010416
193,0.99700927734375
194,0.9971415201822916
195,0.9972195095486112
196,0.9972025553385416
197,0.9972907172309028
198,0.9973517523871528
199,0.9973093668619791
200,0.9973534478081597
201,0.9974229600694444
202,0.9974144829644097
203,0.9974924723307291
204,0.9973534478081597
205,0.9974314371744791
206,0.9975908067491319
207,0.9975602891710069
208,0.9975484212239584
209,0.9977400037977431
210,0.9976416693793403
211,0.9976569281684028
212,0.9976433648003472
213,0.9977552625868056
214,0.9976908365885416
215,0.9976586235894097
216,0.9977586534288194
217,0.9978790283203125
218,0.9977789984809028
219,0.9977637396918403
220,0.9975857204861112
221,0.9979214138454862
222,0.9978620741102431
223,0.9979281955295138
224,0.997802734375
225,0.9979773627387153
226,0.9978875054253472
227,0.9979587131076388
228,0.9978196885850694
229,0.9978095160590278
230,0.9979892306857638
231,0.9980451795789931
232,0.9980350070529513
233,0.9981350368923612
234,0.9981316460503472
235,0.9981452094184028
236,0.9981469048394097
237,0.9981486002604166
238,0.9981045193142362
239,0.9980655246310763
240,0.9981875949435763
241,0.9983334011501737
242,0.9983486599392362
243,0.9980858696831597
244,0.9982621934678819
245,0.9983283148871528
246,0.99822998046875
247,0.9984351264105903
248,0.9984300401475694
249,0.9982215033637153
250,0.9983571370442709
251,0.9985521104600694
252,0.9983571370442709
253,0.9983486599392362
254,0.9985114203559028
255,0.99859619140625
256,0.9985809326171875
257,0.9984758165147569
258,0.9984910753038194
259,0.998565673828125
260,0.9984825981987847
261,0.9986216227213541
262,0.9985165066189237
263,0.9986792670355903
264,0.9985944959852431
265,0.9986317952473959
266,0.998687744140625
267,0.9986284044053819
268,0.9985741509331597
269,0.9986741807725694
270,0.9986894395616319
271,0.9988911946614584
272,0.9988674587673612
273,0.9989166259765625
274,0.9990098741319444
275,0.9989522298177084
276,0.9989573160807291
277,0.9989674886067709
278,0.9989657931857638
279,0.9990081787109375
280,0.9990776909722222
281,0.9989420572916666
282,0.9990319146050347
283,0.9990827772352431
284,0.9991845024956597
285,0.9991861979166666
286,0.9991675482855903
287,0.9991658528645834
288,0.9991336398654513
289,0.9991488986545138
290,0.9993252224392362
291,0.9992150200737847
292,0.9992896185980903
293,0.9992896185980903
294,0.9993489583333334
295,0.9993964301215278
296,0.9992760552300347
297,0.9994049072265625
298,0.9993947347005209
299,0.9994116889105903
300,0.9994252522786459
301,0.9994642469618056
302,0.9994642469618056
303,0.9995625813802084
304,0.9995642768012153
305,0.9995337592230903
306,0.9995744493272569
307,0.9995998806423612
308,0.9996609157986112
309,0.9996134440104166
310,0.9996490478515625
311,0.9996812608506944
312,0.9996931287977431
313,0.9996982150607638
314,0.9997151692708334
315,0.9997490776909722
316,0.999786376953125
317,0.9997982449001737
318,0.9998067220052084
319,0.9998355441623263
320,0.9998660617404513
321,0.9998779296875
322,0.9998965793185763
323,0.9999338785807291
324,0.9999321831597222
325,0.9999677870008681
326,0.9999847412109375
