1,0.9833221435546875
2,0.9833814832899306
3,0.9835696750217013
4,0.9843156602647569
5,0.9838918050130209
6,0.9851786295572916
7,0.9847378200954862
8,0.9860195583767362
9,0.9851633707682291
10,0.9854617648654513
11,0.9849785698784722
12,0.9852854410807291
13,0.9844462076822916
14,0.9855143229166666
15,0.9858940972222222
16,0.9849378797743056
17,0.9853939480251737
18,0.9853752983940972
19,0.9854600694444444
20,0.9854787190755209
21,0.9864722357855903
22,0.9859466552734375
23,0.9860110812717013
24,0.9863026936848959
25,0.9862467447916666
26,0.9858415391710069
27,0.9866129557291666
28,0.9868587917751737
29,0.9867468939887153
30,0.9866383870442709
31,0.9864349365234375
32,0.9863535563151041
33,0.98675537109375
34,0.9862399631076388
35,0.9868740505642362
36,0.9868418375651041
37,0.98712158203125
38,0.9866434733072916
39,0.9863094753689237
40,0.9867841932508681
41,0.9860704210069444
42,0.9867841932508681
43,0.9870418972439237
44,0.9858635796440972
45,0.9861195882161459
46,0.9865993923611112
47,0.9871673583984375
48,0.9869384765625
49,0.9872097439236112
50,0.9861992730034722
51,0.9871402316623263
52,0.9879930284288194
53,0.9875691731770834
54,0.9876149495442709
55,0.9874233669704862
56,0.9873809814453125
57,0.9880201551649306
58,0.9879574245876737
59,0.9885898166232638
60,0.9878048366970487
61,0.9884863959418403
62,0.9883626302083334
63,0.9880337185329862
64,0.9885084364149306
65,0.9881490071614584
66,0.9882693820529513
67,0.9886389838324653
68,0.98883056640625
69,0.9886305067274306
70,0.9885219997829862
71,0.9889882405598959
72,0.9889916314019097
73,0.9885898166232638
74,0.9884880913628472
75,0.9890374077690972
76,0.9885643853081597
77,0.9889577229817709
78,0.9896291097005209
79,0.9897410074869791
80,0.9892408582899306
81,0.9881354437934028
82,0.9894239637586806
83,0.9897376166449653
84,0.9891950819227431
85,0.9893358018663194
86,0.9890950520833334
87,0.9892628987630209
88,0.9891306559244791
89,0.9894561767578125
90,0.9887661404079862
91,0.9887068006727431
92,0.9889153374565972
93,0.9899173312717013
94,0.9894934760199653
95,0.9894985622829862
96,0.9898732503255209
97,0.9892188178168403
98,0.9897816975911459
99,0.9892222086588541
100,0.9895765516493056
101,0.9899885389539931
102,0.9894578721788194
103,0.9895341661241319
104,0.9895172119140625
105,0.9896291097005209
106,0.98944091796875
107,0.9897477891710069
108,0.9898088243272569
109,0.9903140597873263
110,0.990386962890625
111,0.9902818467881944
112,0.9901801215277778
113,0.9903310139973959
114,0.9902275933159722
115,0.9905056423611112
116,0.9904869927300347
117,0.989959716796875
118,0.9902428521050347
119,0.9898969862196181
120,0.9901190863715278
121,0.98980712890625
122,0.9905412462022569
123,0.9906107584635416
124,0.989898681640625
125,0.9905802408854166
126,0.9906209309895834
127,0.9901089138454862
128,0.9898834228515625
129,0.9905683729383681
130,0.9904395209418403
131,0.9902971055772569
132,0.9906327989366319
133,0.9906785753038194
134,0.9907667371961806
135,0.9905073377821181
136,0.9909430609809028
137,0.9907786051432291
138,0.9907175699869791
139,0.9910091824001737
140,0.9911261664496528
141,0.9910396999782987
142,0.9911532931857638
143,0.9912821451822916
144,0.9912448459201388
145,0.9914228651258681
146,0.9911346435546875
147,0.9915076361762153
148,0.99169921875
149,0.9913431803385416
150,0.9917941623263888
151,0.9918128119574653
152,0.9918772379557291
153,0.9918975830078125
154,0.991973876953125
155,0.9924943712022569
156,0.9918484157986112
157,0.9918128119574653
158,0.9920789930555556
159,0.9915296766493056
160,0.9919026692708334
161,0.9916398790147569
162,0.9918348524305556
163,0.99188232421875
164,0.9920891655815972
165,0.9922807481553819
166,0.9921281602647569
167,0.9924163818359375
168,0.9926673041449653
169,0.992523193359375
170,0.9924418131510416
171,0.9926910400390625
172,0.9923790825737847
173,0.9927656385633681
174,0.9924197726779513
175,0.9929402669270834
176,0.9930843777126737
177,0.9928843180338541
178,0.9930097791883681
179,0.9928707546657987
180,0.9932284884982638
181,0.9931623670789931
182,0.993408203125
183,0.9932420518663194
184,0.9935641818576388
185,0.9935946994357638
186,0.9936031765407987
187,0.9937286376953125
188,0.9933607313368056
189,0.9935336642795138
190,0.9938846164279513
191,0.9937608506944444
192,0.9938083224826388
193,0.9940863715277778
194,0.9937761094835069
195,0.9939829508463541
196,0.9943118625217013
197,0.9939236111111112
198,0.9943457709418403
199,0.9940032958984375
200,0.9943474663628472
201,0.9948170979817709
202,0.9945949978298612
203,0.9943525526258681
204,0.9943949381510416
205,0.9946272108289931
206,0.9944729275173612
207,0.9947221544053819
208,0.9946560329861112
209,0.9946390787760416
210,0.9945288764105903
211,0.9944864908854166
212,0.9951341417100694
213,0.9948747422960069
214,0.9949001736111112
215,0.9948069254557291
216,0.9949713812934028
217,0.9947153727213541
218,0.9952223036024306
219,0.9953850640190972
220,0.9952680799696181
221,0.9955630832248263
222,0.9953528510199653
223,0.9952680799696181
224,0.9950646294487847
225,0.9956122504340278
226,0.9954918755425347
227,0.9956139458550347
228,0.9957343207465278
229,0.9957970513237847
230,0.9956410725911459
231,0.9958852132161459
232,0.9958309597439237
233,0.9955393473307291
234,0.9959496392144097
235,0.9960361056857638
236,0.9956376817491319
237,0.9961174858940972
238,0.9959750705295138
239,0.9960683186848959
240,0.9961869981553819
241,0.9960276285807291
242,0.9963124593098959
243,0.9962819417317709
244,0.9961395263671875
245,0.9962344699435763
246,0.9962090386284722
247,0.9962259928385416
248,0.9965294731987847
249,0.9965549045138888
250,0.9966668023003472
251,0.9964853922526041
252,0.9968617757161459
253,0.9965464274088541
254,0.9968922932942709
255,0.9966939290364584
256,0.9968617757161459
257,0.9971059163411459
258,0.9966905381944444
259,0.9968787299262153
260,0.9970906575520834
261,0.9970974392361112
262,0.9969516330295138
263,0.9972466362847222
264,0.9971686469184028
265,0.9971516927083334
266,0.9972941080729166
267,0.9974517822265625
268,0.9972500271267362
269,0.9973229302300347
270,0.9973924424913194
271,0.9977433946397569
272,0.997406005859375
273,0.9975128173828125
274,0.9972568088107638
275,0.9977637396918403
276,0.99755859375
277,0.9977196587456597
278,0.997711181640625
279,0.9979298909505209
280,0.9978552924262153
281,0.9978112114800347
282,0.99798583984375
283,0.9980434841579862
284,0.9979960123697916
285,0.9981774224175347
286,0.9981401231553819
287,0.9981536865234375
288,0.9982452392578125
289,0.9982689751519097
290,0.9983893500434028
291,0.9984469943576388
292,0.9983554416232638
293,0.9985758463541666
294,0.9984927707248263
295,0.9986368815104166
296,0.9986724853515625
297,0.9986996120876737
298,0.9986860487196181
299,0.9987419976128472
300,0.9987453884548612
301,0.9987979465060763
302,0.9988725450303819
303,0.9989386664496528
304,0.9989505343967013
305,0.9989471435546875
306,0.9990488688151041
307,0.9990658230251737
308,0.9991556803385416
309,0.9991997612847222
310,0.9992184109157987
311,0.9992828369140625
312,0.9993065728081597
313,0.9993709988064237
314,0.9993506537543403
315,0.9994947645399306
316,0.9995201958550347
317,0.9995303683810763
318,0.9995608859592013
319,0.9996693929036459
320,0.9996931287977431
321,0.9997422960069444
322,0.9997795952690972
323,0.9998389350043403
324,0.9998711480034722
325,0.9999135335286459
326,0.9999576144748263
