1,0.9922400580512153
2,0.9932420518663194
3,0.9930538601345487
4,0.9934438069661459
5,0.9931047227647569
6,0.9934743245442709
7,0.9934268527560763
8,0.9934438069661459
9,0.9932810465494791
10,0.9930996365017362
11,0.9926537407769097
12,0.9934573703342013
13,0.9943033854166666
14,0.9933268229166666
15,0.9932878282335069
16,0.9932759602864584
17,0.9933742947048612
18,0.9930657280815972
19,0.9935777452256944
20,0.9929877387152778
21,0.9936540391710069
22,0.9932810465494791
23,0.9931148952907987
24,0.9935760498046875
25,0.9933725992838541
26,0.9933488633897569
27,0.9935184054904513
28,0.9932386610243056
29,0.9933878580729166
30,0.9928165011935763
31,0.9934912787543403
32,0.9933369954427084
33,0.9937252468532987
34,0.9936947292751737
35,0.9940609402126737
36,0.9940304226345487
37,0.9945644802517362
38,0.9941575792100694
39,0.9947747124565972
40,0.9948204888237847
41,0.9945695665147569
42,0.99462890625
43,0.9950358072916666
44,0.9948187934027778
45,0.9943118625217013
46,0.9941304524739584
47,0.99420166015625
48,0.9946119520399306
49,0.9942559136284722
50,0.9942220052083334
51,0.9939388699001737
52,0.9943576388888888
53,0.9942508273654513
54,0.9940236409505209
55,0.9940643310546875
56,0.9941134982638888
57,0.9945305718315972
58,0.9943372938368056
59,0.9945136176215278
60,0.9947085910373263
61,0.9947408040364584
62,0.9942559136284722
63,0.9944017198350694
64,0.9947153727213541
65,0.9945695665147569
66,0.995147705078125
67,0.9949866400824653
68,0.9947950575086806
69,0.9939999050564237
70,0.9941982693142362
71,0.994476318359375
72,0.9946458604600694
73,0.9945220947265625
74,0.9947899712456597
75,0.9946814643012153
76,0.9951595730251737
77,0.9946679009331597
78,0.9948764377170138
79,0.9949510362413194
80,0.9953409830729166
81,0.9954037136501737
82,0.9951290554470487
83,0.9950748019748263
84,0.9952867296006944
85,0.9948357476128472
86,0.9951409233940972
87,0.9944898817274306
88,0.9949510362413194
89,0.9951019287109375
90,0.9954800075954862
91,0.9954545762803819
92,0.9953019883897569
93,0.9951307508680556
94,0.9949917263454862
95,0.9951816134982638
96,0.9951883951822916
97,0.9949866400824653
98,0.9955308702256944
99,0.9959292941623263
100,0.9958462185329862
101,0.99542236328125
102,0.9959140353732638
103,0.9955410427517362
104,0.9952155219184028
105,0.9955223931206597
106,0.9958106146918403
107,0.9956105550130209
108,0.9956885443793403
109,0.9957309299045138
110,0.9961361355251737
111,0.9958665635850694
112,0.9957411024305556
113,0.9960971408420138
114,0.9959191216362847
115,0.9957902696397569
116,0.9957004123263888
117,0.9957936604817709
118,0.9957258436414931
119,0.9961564805772569
120,0.9963514539930556
121,0.9961717393663194
122,0.9960971408420138
123,0.9961581759982638
124,0.9961056179470487
125,0.9962887234157987
126,0.9962429470486112
127,0.9962921142578125
128,0.9965430365668403
129,0.996337890625
130,0.9961310492621528
131,0.9962107340494791
132,0.9961480034722222
133,0.9962429470486112
134,0.9960581461588541
135,0.9960513644748263
136,0.9962259928385416
137,0.9958479139539931
138,0.9963734944661459
139,0.9963582356770834
140,0.9966820610894097
141,0.9964379204644097
142,0.9965057373046875
143,0.9966244167751737
144,0.9964277479383681
145,0.9963056776258681
146,0.9962327745225694
147,0.9964989556206597
148,0.996124267578125
149,0.9964870876736112
150,0.9962988959418403
151,0.9964023166232638
152,0.9965193006727431
153,0.9964090983072916
154,0.9965430365668403
155,0.9964040120442709
156,0.9964820014105903
157,0.99664306640625
158,0.9965650770399306
159,0.99658203125
160,0.9964497884114584
161,0.9962785508897569
162,0.9963599310980903
163,0.9962073432074653
164,0.9962955050998263
165,0.9968685574001737
166,0.9965379503038194
167,0.9967888726128472
168,0.9967854817708334
169,0.9967007107204862
170,0.9967583550347222
171,0.9969719780815972
172,0.9969499376085069
173,0.996978759765625
174,0.9969753689236112
175,0.9965752495659722
176,0.9968583848741319
177,0.9965718587239584
178,0.9968058268229166
179,0.9971686469184028
180,0.9969719780815972
181,0.9970770941840278
182,0.9968956841362847
183,0.9969448513454862
184,0.9973178439670138
185,0.9971788194444444
186,0.99700927734375
187,0.9969058566623263
188,0.9969872368706597
189,0.9970211452907987
190,0.9970347086588541
191,0.9972008599175347
192,0.9968753390842013
193,0.9971635606553819
194,0.9970330132378472
195,0.9970126681857638
196,0.9970143636067709
197,0.9973585340711806
198,0.9973687065972222
199,0.9972652859157987
200,0.997406005859375
201,0.9973805745442709
202,0.9974382188585069
203,0.9973687065972222
204,0.9974907769097222
205,0.9974093967013888
206,0.9975535074869791
207,0.9974297417534722
208,0.9975636800130209
209,0.9976772732204862
210,0.9975365532769097
211,0.9975501166449653
212,0.9977467854817709
213,0.9977603488498263
214,0.9976111518012153
215,0.9976552327473959
216,0.9977891710069444
217,0.9976671006944444
218,0.9976857503255209
219,0.9977773030598959
220,0.9977094862196181
221,0.9979078504774306
222,0.9977162679036459
223,0.9979943169487847
224,0.9979892306857638
225,0.9979366726345487
226,0.9980621337890625
227,0.9979485405815972
228,0.9977637396918403
229,0.9979570176866319
230,0.9980926513671875
231,0.998077392578125
232,0.9980248345269097
233,0.9979807535807291
234,0.9980790879991319
235,0.9981096055772569
236,0.9981452094184028
237,0.9980672200520834
238,0.9979434543185763
239,0.998046875
240,0.9982401529947916
241,0.9983317057291666
242,0.9983367919921875
243,0.9980824788411459
244,0.9982808430989584
245,0.9983808729383681
246,0.9983334011501737
247,0.9983842637803819
248,0.9983859592013888
249,0.9982757568359375
250,0.9984724256727431
251,0.9986199273003472
252,0.9984334309895834
253,0.9984724256727431
254,0.9985707600911459
255,0.9985521104600694
256,0.9985521104600694
257,0.9985487196180556
258,0.9984893798828125
259,0.9986572265625
260,0.9985809326171875
261,0.9985911051432291
262,0.9986385769314237
263,0.9986538357204862
264,0.9985843234592013
265,0.9986334906684028
266,0.9986368815104166
267,0.9985741509331597
268,0.9984792073567709
269,0.9986758761935763
270,0.9986792670355903
271,0.9987979465060763
272,0.9988793267144097
273,0.9988284640842013
274,0.9988742404513888
275,0.9988505045572916
276,0.9988928900824653
277,0.9988657633463541
278,0.9989115397135416
279,0.9988471137152778
280,0.9990183512369791
281,0.9988844129774306
282,0.9989488389756944
283,0.9989725748697916
284,0.9990590413411459
285,0.9990692138671875
286,0.9990302191840278
287,0.9991438123914931
288,0.9990946451822916
289,0.9992167154947916
290,0.9991353352864584
291,0.9991777208116319
292,0.9992540147569444
293,0.999237060546875
294,0.9992506239149306
295,0.9992285834418403
296,0.9992641872829862
297,0.9993540445963541
298,0.9993404812282987
299,0.9993489583333334
300,0.9993981255425347
301,0.9994388156467013
302,0.9994727240668403
303,0.9994625515407987
304,0.9995185004340278
305,0.9994676378038194
306,0.9994964599609375
307,0.9995354546440972
308,0.9995930989583334
309,0.9995880126953125
310,0.9996320936414931
311,0.9996524386935763
312,0.9996829562717013
313,0.9996931287977431
314,0.9996982150607638
315,0.9997287326388888
316,0.9997524685329862
317,0.9997965494791666
318,0.9998253716362847
319,0.9998592800564237
320,0.9998677571614584
321,0.9998677571614584
322,0.9999152289496528
323,0.9999321831597222
324,0.9999406602647569
325,0.9999627007378472
326,0.9999864366319444
