1,0.9913957383897569
2,0.9916161431206597
3,0.9918924967447916
4,0.9922044542100694
5,0.9921027289496528
6,0.9926130506727431
7,0.9923909505208334
8,0.9931047227647569
9,0.9926706949869791
10,0.9926537407769097
11,0.9926367865668403
12,0.9926198323567709
13,0.9924265543619791
14,0.9927707248263888
15,0.9929911295572916
16,0.9926910400390625
17,0.9928029378255209
18,0.9927249484592013
19,0.9928707546657987
20,0.9927690294053819
21,0.9930453830295138
22,0.9932471381293403
23,0.9930945502387153
24,0.9931471082899306
25,0.9930097791883681
26,0.9929606119791666
27,0.9932878282335069
28,0.9936082628038194
29,0.9934285481770834
30,0.9932132297092013
31,0.9932980007595487
32,0.9931454128689237
33,0.9933234320746528
34,0.9931081136067709
35,0.9933895534939237
36,0.9934421115451388
37,0.9937167697482638
38,0.9931894938151041
39,0.9930979410807291
40,0.9934912787543403
41,0.9931589762369791
42,0.9933844672309028
43,0.9933759901258681
44,0.9930521647135416
45,0.9931267632378472
46,0.9932437472873263
47,0.9935743543836806
48,0.9934302435980903
49,0.9937845865885416
50,0.9931979709201388
51,0.9935184054904513
52,0.9938693576388888
53,0.9936913384331597
54,0.9937574598524306
55,0.99371337890625
56,0.9937625461154513
57,0.9939727783203125
58,0.9937625461154513
59,0.9941372341579862
60,0.9937795003255209
61,0.9938100179036459
62,0.9939693874782987
63,0.9938761393229166
64,0.9941864013671875
65,0.9940321180555556
66,0.9940388997395834
67,0.9939761691623263
68,0.9942559136284722
69,0.9942203097873263
70,0.9941931830512153
71,0.9942067464192709
72,0.9943440755208334
73,0.9942050509982638
74,0.9943084716796875
75,0.9942457411024306
76,0.9940405951605903
77,0.9945661756727431
78,0.9946119520399306
79,0.9947170681423612
80,0.99444580078125
81,0.9939592149522569
82,0.9944390190972222
83,0.9944051106770834
84,0.9943779839409722
85,0.9944339328342013
86,0.9941965738932291
87,0.9942406548394097
88,0.9943389892578125
89,0.9943406846788194
90,0.9940439860026041
91,0.9940863715277778
92,0.9941321478949653
93,0.9945254855685763
94,0.9944729275173612
95,0.99444580078125
96,0.9945187038845487
97,0.9942711724175347
98,0.9946679009331597
99,0.9945203993055556
100,0.9946560329861112
101,0.9947221544053819
102,0.9946916368272569
103,0.9943118625217013
104,0.9943661159939237
105,0.9943440755208334
106,0.9944085015190972
107,0.9944339328342013
108,0.9946475558810763
109,0.9949256049262153
110,0.9948255750868056
111,0.9946695963541666
112,0.9947628445095487
113,0.9947984483506944
114,0.9948357476128472
115,0.9949917263454862
116,0.9951968722873263
117,0.9948255750868056
118,0.9948798285590278
119,0.9947119818793403
120,0.9947730170355903
121,0.9947306315104166
122,0.9950917561848959
123,0.9950035942925347
124,0.9947408040364584
125,0.9950341118706597
126,0.9952206081814237
127,0.9947391086154513
128,0.9948374430338541
129,0.9950358072916666
130,0.9948493109809028
131,0.9949018690321181
132,0.9951900906032987
133,0.9949662950303819
134,0.9951460096571181
135,0.9949713812934028
136,0.9952324761284722
137,0.9951731363932291
138,0.9951714409722222
139,0.9952663845486112
140,0.9954003228081597
141,0.9952545166015625
142,0.9953291151258681
143,0.9955698649088541
144,0.9954104953342013
145,0.9955088297526041
146,0.9955037434895834
147,0.9956800672743056
148,0.9956410725911459
149,0.9955393473307291
150,0.9958682590060763
151,0.9957054985894097
152,0.9958224826388888
153,0.9958411322699653
154,0.99560546875
155,0.9961005316840278
156,0.995819091796875
157,0.9959733751085069
158,0.9959140353732638
159,0.9954511854383681
160,0.9958445231119791
161,0.9955952962239584
162,0.9956563313802084
163,0.9958072238498263
164,0.9960293240017362
165,0.9959208170572916
166,0.9960089789496528
167,0.9961107042100694
168,0.9962192111545138
169,0.9959784613715278
170,0.9960683186848959
171,0.9961785210503472
172,0.9961988661024306
173,0.996337890625
174,0.9962480333116319
175,0.9963565402560763
176,0.9965752495659722
177,0.9964243570963541
178,0.9964565700954862
179,0.9963446723090278
180,0.9964803059895834
181,0.9964769151475694
182,0.9966328938802084
183,0.996551513671875
184,0.9966820610894097
185,0.9966278076171875
186,0.9966820610894097
187,0.9965701633029513
188,0.9964887830946181
189,0.9965955946180556
190,0.9967481825086806
191,0.9967312282986112
192,0.9967261420355903
193,0.9969618055555556
194,0.9967973497178819
195,0.9969397650824653
196,0.9971126980251737
197,0.9969126383463541
198,0.9970550537109375
199,0.9969618055555556
200,0.9970296223958334
201,0.9973856608072916
202,0.9973025851779513
203,0.9971364339192709
204,0.9970041910807291
205,0.9972703721788194
206,0.9972076416015625
207,0.9972907172309028
208,0.9971923828125
209,0.9972432454427084
210,0.9972890218098959
211,0.9973347981770834
212,0.9974687364366319
213,0.9974450005425347
214,0.9974212646484375
215,0.9974144829644097
216,0.9974822998046875
217,0.9973602294921875
218,0.9975687662760416
219,0.9975806342230903
220,0.9976603190104166
221,0.9977315266927084
222,0.9976671006944444
223,0.9977145724826388
224,0.9975636800130209
225,0.9976840549045138
226,0.9976772732204862
227,0.9977857801649306
228,0.9977433946397569
229,0.9978586832682291
230,0.9978535970052084
231,0.997955322265625
232,0.9977654351128472
233,0.9977756076388888
234,0.997955322265625
235,0.9980824788411459
236,0.9977213541666666
237,0.9979943169487847
238,0.9979977077907987
239,0.9979417588975694
240,0.9980943467881944
241,0.9980824788411459
242,0.9980604383680556
243,0.9981655544704862
244,0.9979892306857638
245,0.9981197781032987
246,0.9980299207899306
247,0.9980858696831597
248,0.9982367621527778
249,0.9982452392578125
250,0.9982316758897569
251,0.9982537163628472
252,0.9984809027777778
253,0.9982689751519097
254,0.9984486897786459
255,0.9983418782552084
256,0.9984893798828125
257,0.9985707600911459
258,0.9982961018880209
259,0.9984096950954862
260,0.9985877143012153
261,0.9985622829861112
262,0.9984792073567709
263,0.9986029730902778
264,0.9985775417751737
265,0.9986080593532987
266,0.9985792371961806
267,0.9986707899305556
268,0.9986673990885416
269,0.9986623128255209
270,0.9987030029296875
271,0.9988521999782987
272,0.9987386067708334
273,0.9988657633463541
274,0.9987403021918403
275,0.9989064534505209
276,0.9988911946614584
277,0.9988742404513888
278,0.9988742404513888
279,0.9989471435546875
280,0.998931884765625
281,0.9989454481336806
282,0.9990878634982638
283,0.9990641276041666
284,0.9989963107638888
285,0.999176025390625
286,0.9991319444444444
287,0.9990759955512153
288,0.9991251627604166
289,0.9991353352864584
290,0.9990827772352431
291,0.9992099338107638
292,0.9991878933376737
293,0.9992285834418403
294,0.9992794460720487
295,0.9993370903862847
296,0.9993218315972222
297,0.9993387858072916
298,0.9993099636501737
299,0.9993726942274306
300,0.9993981255425347
301,0.9993964301215278
302,0.9994472927517362
303,0.9994557698567709
304,0.9994116889105903
305,0.9994557698567709
306,0.9994913736979166
307,0.9995439317491319
308,0.9995795355902778
309,0.9996083577473959
310,0.9996185302734375
311,0.9996507432725694
312,0.9996931287977431
313,0.9996846516927084
314,0.99969482421875
315,0.999755859375
316,0.9997507731119791
317,0.9997880723741319
318,0.9997982449001737
319,0.9998423258463541
320,0.9998660617404513
321,0.9998728434244791
322,0.9998881022135416
323,0.9999016655815972
324,0.9999406602647569
325,0.9999627007378472
326,0.9999779595269097
