1,0.9920637342664931
2,0.9929029676649306
3,0.9935963948567709
4,0.9931148952907987
5,0.9923468695746528
6,0.9929453531901041
7,0.9934522840711806
8,0.9940999348958334
9,0.9935540093315972
10,0.9937303331163194
11,0.9932539198133681
12,0.9934149848090278
13,0.9942779541015625
14,0.9934726291232638
15,0.9931606716579862
16,0.9933759901258681
17,0.9945017496744791
18,0.9939931233723959
19,0.9941084120008681
20,0.99359130859375
21,0.9942881266276041
22,0.9938540988498263
23,0.9938540988498263
24,0.9940999348958334
25,0.9938201904296875
26,0.9931081136067709
27,0.9939761691623263
28,0.9938574896918403
29,0.9939354790581597
30,0.9924892849392362
31,0.9937659369574653
32,0.9935777452256944
33,0.9938574896918403
34,0.9936370849609375
35,0.9939846462673612
36,0.9931250678168403
37,0.9941185845269097
38,0.9945763481987847
39,0.9943508572048612
40,0.9949951171875
41,0.9943661159939237
42,0.9944101969401041
43,0.9946984185112847
44,0.9948289659288194
45,0.9944915771484375
46,0.9943152533637153
47,0.9943915473090278
48,0.9944729275173612
49,0.994354248046875
50,0.9944169786241319
51,0.9939507378472222
52,0.9940728081597222
53,0.9940270317925347
54,0.9939999050564237
55,0.9945153130425347
56,0.9943084716796875
57,0.9945644802517362
58,0.9941219753689237
59,0.9943644205729166
60,0.9945153130425347
61,0.994720458984375
62,0.9943983289930556
63,0.9940948486328125
64,0.9946051703559028
65,0.9943525526258681
66,0.9949595133463541
67,0.9950578477647569
68,0.9949578179253472
69,0.9947424994574653
70,0.9948238796657987
71,0.9947391086154513
72,0.9948289659288194
73,0.9947408040364584
74,0.9952155219184028
75,0.994720458984375
76,0.9951324462890625
77,0.9947068956163194
78,0.9950154622395834
79,0.9948713514539931
80,0.9954240587022569
81,0.9955647786458334
82,0.9949679904513888
83,0.9945407443576388
84,0.9952663845486112
85,0.994873046875
86,0.9954308403862847
87,0.9941457112630209
88,0.9949544270833334
89,0.9951188829210069
90,0.9950086805555556
91,0.9955664740668403
92,0.9949103461371528
93,0.9952680799696181
94,0.9955342610677084
95,0.9957224527994791
96,0.9955613878038194
97,0.9953833685980903
98,0.9955088297526041
99,0.9954817030164931
100,0.9955885145399306
101,0.9951036241319444
102,0.9956122504340278
103,0.9955240885416666
104,0.9950849745008681
105,0.9956224229600694
106,0.9956224229600694
107,0.9950002034505209
108,0.9953782823350694
109,0.9943457709418403
110,0.9963429768880209
111,0.99603271484375
112,0.9959937201605903
113,0.9963667127821181
114,0.9959360758463541
115,0.9959089491102431
116,0.9957512749565972
117,0.9956376817491319
118,0.9957682291666666
119,0.9966244167751737
120,0.9962870279947916
121,0.9960751003689237
122,0.9959699842664931
123,0.9954155815972222
124,0.9960598415798612
125,0.9961327446831597
126,0.9961463080512153
127,0.9961446126302084
128,0.996063232421875
129,0.9958428276909722
130,0.9966701931423612
131,0.9964786105685763
132,0.9963311089409722
133,0.9966328938802084
134,0.9965176052517362
135,0.9958987765842013
136,0.9962446424696181
137,0.9958970811631944
138,0.9963446723090278
139,0.9967024061414931
140,0.9966769748263888
141,0.9963633219401041
142,0.9967142740885416
143,0.9966668023003472
144,0.9963633219401041
145,0.9965938991970487
146,0.9958462185329862
147,0.9964718288845487
148,0.9962022569444444
149,0.9964718288845487
150,0.9964565700954862
151,0.9964328342013888
152,0.9967481825086806
153,0.9964972601996528
154,0.9964447021484375
155,0.9966837565104166
156,0.9966769748263888
157,0.9968346489800347
158,0.9968956841362847
159,0.9964616563585069
160,0.9968397352430556
161,0.9968041314019097
162,0.9966464572482638
163,0.9965735541449653
164,0.9966227213541666
165,0.9968363444010416
166,0.9966871473524306
167,0.9957987467447916
168,0.9966905381944444
169,0.9967481825086806
170,0.9968905978732638
171,0.9970923529730903
172,0.996856689453125
173,0.9968448215060763
174,0.99664306640625
175,0.9963107638888888
176,0.9967736138237847
177,0.9960123697916666
178,0.9966379801432291
179,0.9969821506076388
180,0.9969804551866319
181,0.996917724609375
182,0.9970804850260416
183,0.9969092475043403
184,0.99737548828125
185,0.9971042209201388
186,0.9968549940321181
187,0.9971143934461806
188,0.9971466064453125
189,0.9969991048177084
190,0.9970211452907987
191,0.9972195095486112
192,0.9969295925564237
193,0.9972212049696181
194,0.9968702528211806
195,0.9968041314019097
196,0.9973246256510416
197,0.9973737928602431
198,0.9970601399739584
199,0.9969092475043403
200,0.9971415201822916
201,0.9970143636067709
202,0.9970075819227431
203,0.9971788194444444
204,0.9972601996527778
205,0.9974636501736112
206,0.9977789984809028
207,0.9972466362847222
208,0.9977060953776041
209,0.9973992241753472
210,0.997955322265625
211,0.9974365234375
212,0.9977959526909722
213,0.9976298014322916
214,0.9976840549045138
215,0.9978552924262153
216,0.9978925916883681
217,0.9979604085286459
218,0.9977773030598959
219,0.9971686469184028
220,0.9973924424913194
221,0.9979519314236112
222,0.9977840847439237
223,0.9980790879991319
224,0.9980214436848959
225,0.9978993733723959
226,0.9979434543185763
227,0.9979197184244791
228,0.9979349772135416
229,0.9981367323133681
230,0.9980655246310763
231,0.9981231689453125
232,0.9978688557942709
233,0.9979366726345487
234,0.9980367024739584
235,0.9981469048394097
236,0.9982164171006944
237,0.9979960123697916
238,0.9977925618489584
239,0.9977671305338541
240,0.9982147216796875
241,0.9981435139973959
242,0.9984809027777778
243,0.9982062445746528
244,0.9981282552083334
245,0.9983147515190972
246,0.9982520209418403
247,0.9982350667317709
248,0.9983283148871528
249,0.9983622233072916
250,0.9984588623046875
251,0.9987386067708334
252,0.9984215630425347
253,0.9985639784071181
254,0.9984113905164931
255,0.9984758165147569
256,0.9985758463541666
257,0.9985944959852431
258,0.9983266194661459
259,0.9985131157769097
260,0.9986504448784722
261,0.9985877143012153
262,0.9985436333550347
263,0.9986046685112847
264,0.9985588921440972
265,0.9986114501953125
266,0.9985232883029513
267,0.9983554416232638
268,0.9983876546223959
269,0.9984351264105903
270,0.9985741509331597
271,0.9985385470920138
272,0.9987470838758681
273,0.9988793267144097
274,0.9988691541883681
275,0.9988776312934028
276,0.9988657633463541
277,0.9987640380859375
278,0.9987250434027778
279,0.9986063639322916
280,0.9990437825520834
281,0.9988284640842013
282,0.9990166558159722
283,0.9988827175564237
284,0.9989183213975694
285,0.9989420572916666
286,0.9988674587673612
287,0.9989725748697916
288,0.9989963107638888
289,0.9989369710286459
290,0.9989251030815972
291,0.9991455078125
292,0.9993184407552084
293,0.9991099039713541
294,0.9992624918619791
295,0.999053955078125
296,0.9992116292317709
297,0.9992811414930556
298,0.9992184109157987
299,0.9993523491753472
300,0.9992557101779513
301,0.9993709988064237
302,0.9993896484375
303,0.9994896782769097
304,0.999542236328125
305,0.9995032416449653
306,0.9993557400173612
307,0.9994947645399306
308,0.9995947943793403
309,0.9995490180121528
310,0.9996660020616319
311,0.9996270073784722
312,0.9996270073784722
313,0.9997033013237847
314,0.9996710883246528
315,0.9997372097439237
316,0.9997728135850694
317,0.9998151991102431
318,0.9998050265842013
319,0.9998406304253472
320,0.9998524983723959
321,0.9998575846354166
322,0.9999101426866319
323,0.9999135335286459
324,0.9999237060546875
325,0.9999610053168403
326,0.9999796549479166
