1,0.9014960394965278
2,0.9089558919270834
3,0.9025370279947916
4,0.9066212972005209
5,0.9075520833333334
6,0.9116566975911459
7,0.9149186876085069
8,0.9141472710503472
9,0.9115837944878472
10,0.9150068495008681
11,0.9120127360026041
12,0.9153866238064237
13,0.9106784396701388
14,0.9131096733940972
15,0.9119483100043403
16,0.9096798366970487
17,0.9095679389105903
18,0.9063754611545138
19,0.9108327229817709
20,0.9128790961371528
21,0.9171668158637153
22,0.9186130099826388
23,0.9135640462239584
24,0.9115922715928819
25,0.9143795437282987
26,0.9150865342881944
27,0.9147847493489584
28,0.9170108371310763
29,0.9170583089192709
30,0.9145677354600694
31,0.9198455810546875
32,0.9200880262586806
33,0.9216342502170138
34,0.9208797878689237
35,0.9261305067274306
36,0.92498779296875
37,0.9299045138888888
38,0.9259270562065972
39,0.9271426730685763
40,0.9291314019097222
41,0.9256812201605903
42,0.9233669704861112
43,0.9202880859375
44,0.92218017578125
45,0.92303466796875
46,0.9203440348307291
47,0.9235144721137153
48,0.9313795301649306
49,0.9334445529513888
50,0.9321695963541666
51,0.9306216769748263
52,0.9326900906032987
53,0.9308030870225694
54,0.930023193359375
55,0.9304640028211806
56,0.9266018337673612
57,0.9224531385633681
58,0.9235365125868056
59,0.9254116482204862
60,0.9292992485894097
61,0.9293908013237847
62,0.9254709879557291
63,0.9308573404947916
64,0.9333665635850694
65,0.9299180772569444
66,0.9309404161241319
67,0.9351569281684028
68,0.9313863118489584
69,0.9294755723741319
70,0.9302724202473959
71,0.9302486843532987
72,0.9285074869791666
73,0.9289906819661459
74,0.9300198025173612
75,0.9271240234375
76,0.92926025390625
77,0.9304656982421875
78,0.9305945502387153
79,0.9290754530164931
80,0.9304233127170138
81,0.9339430067274306
82,0.9283260769314237
83,0.9325748019748263
84,0.9340769449869791
85,0.9339938693576388
86,0.9269646538628472
87,0.9316185845269097
88,0.9321119520399306
89,0.9326019287109375
90,0.9322781032986112
91,0.9333479139539931
92,0.93206787109375
93,0.9317355685763888
94,0.9332309299045138
95,0.9343532986111112
96,0.9357757568359375
97,0.9331681993272569
98,0.9380832248263888
99,0.9400041368272569
100,0.9382765028211806
101,0.9377373589409722
102,0.9420572916666666
103,0.9339531792534722
104,0.9417148166232638
105,0.9443206787109375
106,0.9433932834201388
107,0.9402652316623263
108,0.9405059814453125
109,0.9379119873046875
110,0.9379357231987847
111,0.9386020236545138
112,0.9389360215928819
113,0.9406026204427084
114,0.9431491427951388
115,0.9394276936848959
116,0.9370490180121528
117,0.9385850694444444
118,0.9394768608940972
119,0.9410485161675347
120,0.9417928059895834
121,0.9416419135199653
122,0.9409840901692709
123,0.9387478298611112
124,0.9416520860460069
125,0.9432033962673612
126,0.942779541015625
127,0.9458296034071181
128,0.9452226426866319
129,0.9434712727864584
130,0.9434458414713541
131,0.9439239501953125
132,0.9422641330295138
133,0.9426913791232638
134,0.9444546169704862
135,0.9437815348307291
136,0.9444732666015625
137,0.9452904595269097
138,0.9453854031032987
139,0.9466993543836806
140,0.9465179443359375
141,0.9465230305989584
142,0.9479285346137153
143,0.9475046793619791
144,0.9502190483940972
145,0.9491628011067709
146,0.9482625325520834
147,0.9492289225260416
148,0.9483540852864584
149,0.9492662217881944
150,0.9521247016059028
151,0.9483896891276041
152,0.9510938856336806
153,0.9495951334635416
154,0.9515194363064237
155,0.9497697618272569
156,0.9509328206380209
157,0.9515516493055556
158,0.9516957600911459
159,0.9534589979383681
160,0.9531775580512153
161,0.9526723225911459
162,0.954833984375
163,0.9542134602864584
164,0.9533742268880209
165,0.9553595648871528
166,0.9535098605685763
167,0.9534047444661459
168,0.9543016221788194
169,0.9554629855685763
170,0.9558275010850694
171,0.9568532307942709
172,0.9572075737847222
173,0.9569651285807291
174,0.9572380913628472
175,0.9572262234157987
176,0.9569430881076388
177,0.9579264322916666
178,0.9585130479600694
179,0.9608612060546875
180,0.9581807454427084
181,0.9583621554904513
182,0.9568820529513888
183,0.960052490234375
184,0.9596591525607638
185,0.9603661431206597
186,0.9576331244574653
187,0.9612850613064237
188,0.9596794976128472
189,0.9610934787326388
190,0.9612002902560763
191,0.9627600775824653
192,0.9613444010416666
193,0.9619361029730903
194,0.9637179904513888
195,0.9637722439236112
196,0.9632025824652778
197,0.9641960991753472
198,0.96356201171875
199,0.9653795030381944
200,0.9647708468967013
201,0.9641231960720487
202,0.9652625189887153
203,0.9655219184027778
204,0.9650149875217013
205,0.9666120741102431
206,0.9663967556423612
207,0.9684939914279513
208,0.9663662380642362
209,0.9691026475694444
210,0.9683736165364584
211,0.9681243896484375
212,0.9698350694444444
213,0.9697892930772569
214,0.9697045220269097
215,0.9689483642578125
216,0.9692450629340278
217,0.9705183241102431
218,0.9692959255642362
219,0.9684838189019097
220,0.9689093695746528
221,0.9696587456597222
222,0.9711625840928819
223,0.9717491997612847
224,0.9714033338758681
225,0.9716525607638888
226,0.9716406928168403
227,0.9716610378689237
228,0.9726698133680556
229,0.9725918240017362
230,0.9726969401041666
231,0.9734039306640625
232,0.972625732421875
233,0.9747094048394097
234,0.9756384955512153
235,0.9743771023220487
236,0.9750450981987847
237,0.9741990831163194
238,0.9747806125217013
239,0.97381591796875
240,0.9750586615668403
241,0.9765065511067709
242,0.9759962293836806
243,0.9748908148871528
244,0.9761081271701388
245,0.9769626193576388
246,0.9753231472439237
247,0.9782307942708334
248,0.9776238335503472
249,0.9775967068142362
250,0.978424072265625
251,0.9800465901692709
252,0.9788801405164931
253,0.9799279106987847
254,0.9790462917751737
255,0.9803670247395834
256,0.9803653293185763
257,0.9802398681640625
258,0.9795684814453125
259,0.98089599609375
260,0.9808468288845487
261,0.9815639919704862
262,0.9813385009765625
263,0.9811893039279513
264,0.9820658365885416
265,0.9821116129557291
266,0.9821065266927084
267,0.9815758599175347
268,0.9829881456163194
269,0.9839528401692709
270,0.9835696750217013
271,0.9851921929253472
272,0.9851260715060763
273,0.9862247043185763
274,0.9859144422743056
275,0.9856075710720487
276,0.9856838650173612
277,0.9859636094835069
278,0.9858296712239584
279,0.9861636691623263
280,0.9869571261935763
281,0.9865587022569444
282,0.9874284532335069
283,0.9872826470269097
284,0.9876386854383681
285,0.9880235460069444
286,0.9882490370008681
287,0.9887305365668403
288,0.9881761338975694
289,0.9891730414496528
290,0.9894748263888888
291,0.9889034695095487
292,0.9901360405815972
293,0.9907904730902778
294,0.9903496636284722
295,0.9911583794487847
296,0.9907158745659722
297,0.9917229546440972
298,0.9917975531684028
299,0.9919569227430556
300,0.9925096299913194
301,0.9929589165581597
302,0.9931115044487847
303,0.9929928249782987
304,0.9932098388671875
305,0.9937557644314237
306,0.9935082329644097
307,0.9945509168836806
308,0.9948408338758681
309,0.9947730170355903
310,0.9949612087673612
311,0.9954511854383681
312,0.9958716498480903
313,0.9959123399522569
314,0.9962259928385416
315,0.9966820610894097
316,0.996856689453125
317,0.9970872667100694
318,0.9972313774956597
319,0.9977620442708334
320,0.998046875
321,0.9982520209418403
322,0.9986029730902778
323,0.9988030327690972
324,0.9990776909722222
325,0.9993828667534722
326,0.9997185601128472
