1,0.8336537679036459
2,0.8452334933810763
3,0.8708360460069444
4,0.8681165907118056
5,0.8715176052517362
6,0.8750881618923612
7,0.8784569634331597
8,0.88165283203125
9,0.8802812364366319
10,0.8824123806423612
11,0.8834211561414931
12,0.8765157063802084
13,0.8765343560112847
14,0.8799184163411459
15,0.8786722819010416
16,0.8826073540581597
17,0.8843265109592013
18,0.8889651828342013
19,0.8903401692708334
20,0.8866865370008681
21,0.88323974609375
22,0.8881615532769097
23,0.8841790093315972
24,0.8847978379991319
25,0.8838840060763888
26,0.8850928412543403
27,0.8871832953559028
28,0.8873986138237847
29,0.8876444498697916
30,0.8801659478081597
31,0.8772379557291666
32,0.8841434054904513
33,0.8839111328125
34,0.8802897135416666
35,0.8802642822265625
36,0.8809865315755209
37,0.8832550048828125
38,0.8837602403428819
39,0.8893059624565972
40,0.8927985297309028
41,0.8872968885633681
42,0.8865220811631944
43,0.8887227376302084
44,0.8922492133246528
45,0.9023030598958334
46,0.9009908040364584
47,0.8983883327907987
48,0.8930274115668403
49,0.8958485921223959
50,0.891326904296875
51,0.8968878851996528
52,0.8970896402994791
53,0.8935004340277778
54,0.8927629258897569
55,0.8916998969184028
56,0.8914574517144097
57,0.8915337456597222
58,0.8937496609157987
59,0.8890923394097222
60,0.8913777669270834
61,0.8940717909071181
62,0.8981255425347222
63,0.8927137586805556
64,0.8923407660590278
65,0.8904435899522569
66,0.8895670572916666
67,0.8873867458767362
68,0.8890923394097222
69,0.8867323133680556
70,0.8917117648654513
71,0.8944634331597222
72,0.8948788113064237
73,0.8918473985460069
74,0.8958468967013888
75,0.9029829237196181
76,0.8977762858072916
77,0.8961385091145834
78,0.8996836344401041
79,0.8883175320095487
80,0.8904859754774306
81,0.89276123046875
82,0.8918999565972222
83,0.8946448432074653
84,0.8939904106987847
85,0.8961978488498263
86,0.8936564127604166
87,0.8920423719618056
88,0.8929578993055556
89,0.8946533203125
90,0.8942633734809028
91,0.8932003445095487
92,0.8912150065104166
93,0.8883277045355903
94,0.8968370225694444
95,0.8955044216579862
96,0.8988545735677084
97,0.8968624538845487
98,0.8969014485677084
99,0.9004092746310763
100,0.8998853895399306
101,0.8960588243272569
102,0.9010416666666666
103,0.8953128390842013
104,0.8990037706163194
105,0.8968878851996528
106,0.8953687879774306
107,0.8983629014756944
108,0.9018571641710069
109,0.8959164089626737
110,0.8942548963758681
111,0.8994174533420138
112,0.9026319715711806
113,0.9047410753038194
114,0.9054311116536459
115,0.9048394097222222
116,0.9040001763237847
117,0.9070604112413194
118,0.9097781711154513
119,0.9087999131944444
120,0.9109107123480903
121,0.9062127007378472
122,0.9040018717447916
123,0.9085032145182291
124,0.9046698676215278
125,0.907928466796875
126,0.9027760823567709
127,0.9058261447482638
128,0.9083777533637153
129,0.9048665364583334
130,0.903961181640625
131,0.9084370930989584
132,0.9118771023220487
133,0.9088541666666666
134,0.9095442030164931
135,0.9078877766927084
136,0.9119839138454862
137,0.9095018174913194
138,0.9103936089409722
139,0.9070197211371528
140,0.9070604112413194
141,0.9099222819010416
142,0.9077131483289931
143,0.9078640407986112
144,0.9129825168185763
145,0.9118516710069444
146,0.9146677652994791
147,0.9132588704427084
148,0.9163326687282987
149,0.9140557183159722
150,0.9092288547092013
151,0.9139862060546875
152,0.9103410508897569
153,0.9096747504340278
154,0.9087982177734375
155,0.9103037516276041
156,0.9122568766276041
157,0.9096391465928819
158,0.9114091661241319
159,0.9115176730685763
160,0.9115278455946181
161,0.9124077690972222
162,0.9112667507595487
163,0.9129435221354166
164,0.9134707980685763
165,0.9179144965277778
166,0.9146542019314237
167,0.9140150282118056
168,0.9169684516059028
169,0.9175906711154513
170,0.9196828206380209
171,0.9209103054470487
172,0.9177313910590278
173,0.9182315402560763
174,0.9214901394314237
175,0.9201727973090278
176,0.91815185546875
177,0.9202846950954862
178,0.9199744330512153
179,0.9227532280815972
180,0.9228244357638888
181,0.9194471571180556
182,0.9222225613064237
183,0.9237060546875
184,0.9229515923394097
185,0.9227345784505209
186,0.9198896620008681
187,0.9201524522569444
188,0.9186943901909722
189,0.9194217258029513
190,0.9203575981987847
191,0.9218207465277778
192,0.918121337890625
193,0.9209577772352431
194,0.9183230929904513
195,0.9208763970269097
196,0.9231889512803819
197,0.9238382975260416
198,0.9178992377387153
199,0.9216545952690972
200,0.9218410915798612
201,0.9206983778211806
202,0.9206882052951388
203,0.9208323160807291
204,0.9192420111762153
205,0.9200880262586806
206,0.9261050754123263
207,0.9179772271050347
208,0.9204203287760416
209,0.92340087890625
210,0.9262135823567709
211,0.9254235161675347
212,0.9267662896050347
213,0.9249148898654513
214,0.9266103108723959
215,0.9246656629774306
216,0.9258287217881944
217,0.9259507921006944
218,0.9273800320095487
219,0.9254913330078125
220,0.9281141493055556
221,0.9280039469401041
222,0.9298265245225694
223,0.9313608805338541
224,0.9281073676215278
225,0.9286210801866319
226,0.9293908013237847
227,0.9267035590277778
228,0.9301537407769097
229,0.9301876491970487
230,0.9268205430772569
231,0.9242892795138888
232,0.9298790825737847
233,0.9305063883463541
234,0.9315338134765625
235,0.9314507378472222
236,0.9281667073567709
237,0.9331902398003472
238,0.9325900607638888
239,0.9344262017144097
240,0.933990478515625
241,0.9342380099826388
242,0.9340091281467013
243,0.9371287027994791
244,0.9362080891927084
245,0.9344906277126737
246,0.9323306613498263
247,0.9353213840060763
248,0.9334581163194444
249,0.9361487494574653
250,0.9364895290798612
251,0.9349466959635416
252,0.9349755181206597
253,0.9370083279079862
254,0.9353739420572916
255,0.9359639485677084
256,0.9360826280381944
257,0.9376593695746528
258,0.9379374186197916
259,0.9388902452256944
260,0.9382883707682291
261,0.9392784966362847
262,0.9394989013671875
263,0.9386461046006944
264,0.9402296278211806
265,0.9361504448784722
266,0.9381883409288194
267,0.9370676676432291
268,0.9393717447916666
269,0.94140625
270,0.9402516682942709
271,0.9407823350694444
272,0.9406009250217013
273,0.9393870035807291
274,0.9401838514539931
275,0.9417724609375
276,0.9418097601996528
277,0.9448004828559028
278,0.9437730577256944
279,0.9426778157552084
280,0.9446224636501737
281,0.9468163384331597
282,0.9467688666449653
283,0.9478318956163194
284,0.9455905490451388
285,0.9446089002821181
286,0.9444647894965278
287,0.9466383192274306
288,0.9449785020616319
289,0.9451209174262153
290,0.9446038140190972
291,0.9490831163194444
292,0.9472181532118056
293,0.9511888292100694
294,0.9496002197265625
295,0.9480506049262153
296,0.9502851698133681
297,0.9519026014539931
298,0.9508802625868056
299,0.9515736897786459
300,0.9503190782335069
301,0.9511498345269097
302,0.9504072401258681
303,0.9524417453342013
304,0.9500817192925347
305,0.9504581027560763
306,0.9501274956597222
307,0.9500664605034722
308,0.9515245225694444
309,0.9497256808810763
310,0.9485541449652778
311,0.9499749077690972
312,0.9504326714409722
313,0.9505174424913194
314,0.9520501030815972
315,0.9505411783854166
316,0.9513295491536459
317,0.95281982421875
318,0.9516669379340278
319,0.9556850857204862
320,0.9531606038411459
321,0.9543558756510416
322,0.9552815755208334
323,0.9560953776041666
324,0.9558783637152778
325,0.9564666748046875
326,0.9569057888454862
327,0.9548255072699653
328,0.9559377034505209
329,0.9566853841145834
330,0.9555206298828125
331,0.9562055799696181
332,0.9548221164279513
333,0.9573872884114584
334,0.9571719699435763
335,0.9585656060112847
336,0.9581112331814237
337,0.9576890733506944
338,0.9588996039496528
339,0.9578823513454862
340,0.9586910671657987
341,0.9595438639322916
342,0.9602169460720487
343,0.9605560302734375
344,0.9583299424913194
345,0.9603610568576388
346,0.9616767035590278
347,0.9606611463758681
348,0.9605475531684028
349,0.9620378282335069
350,0.9626278347439237
351,0.9621819390190972
352,0.9601609971788194
353,0.9624922010633681
354,0.9630635579427084
355,0.9626515706380209
356,0.9639807807074653
357,0.9635230170355903
358,0.9628651936848959
359,0.9621734619140625
360,0.9645555284288194
361,0.9638417561848959
362,0.9651472303602431
363,0.9639875623914931
364,0.9650472005208334
365,0.9642266167534722
366,0.9643995496961806
367,0.9656575520833334
368,0.9648454454210069
369,0.9659627278645834
370,0.9670783148871528
371,0.9657321506076388
372,0.9680294460720487
373,0.9674919976128472
374,0.9669511583116319
375,0.9684516059027778
376,0.9690823025173612
377,0.9686516655815972
378,0.9708658854166666
379,0.9700758192274306
380,0.9696926540798612
381,0.9706929524739584
382,0.9693400065104166
383,0.9706743028428819
384,0.9710184733072916
385,0.9720611572265625
386,0.9708150227864584
387,0.9724714491102431
388,0.9719950358072916
389,0.9719356960720487
390,0.9717644585503472
391,0.9733751085069444
392,0.9731428358289931
393,0.9739718967013888
394,0.9743669297960069
395,0.9740481906467013
396,0.9747212727864584
397,0.9751078287760416
398,0.9754486083984375
399,0.9759724934895834
400,0.9759165445963541
401,0.9761759440104166
402,0.9770965576171875
403,0.9763403998480903
404,0.9769202338324653
405,0.9772796630859375
406,0.9773847791883681
407,0.97711181640625
408,0.9773610432942709
409,0.9785919189453125
410,0.9789547390407987
411,0.9785817464192709
412,0.978515625
413,0.9790564643012153
414,0.978729248046875
415,0.97943115234375
416,0.9801025390625
417,0.9796006944444444
418,0.9809790717230903
419,0.9815046522352431
420,0.9817420111762153
421,0.9815487331814237
422,0.9817979600694444
423,0.9826168484157987
424,0.9822625054253472
425,0.9815249972873263
426,0.9824981689453125
427,0.9831271701388888
428,0.9839189317491319
429,0.9833730061848959
430,0.9838477240668403
431,0.9839765760633681
432,0.9844004313151041
433,0.9845818413628472
434,0.9843936496310763
435,0.9847751193576388
436,0.9854295518663194
437,0.9855668809678819
438,0.9859110514322916
439,0.9859619140625
440,0.986053466796875
441,0.9865315755208334
442,0.9864739312065972
443,0.9874945746527778
444,0.9874013264973959
445,0.9877336290147569
446,0.9879116482204862
447,0.9884779188368056
448,0.9886101616753472
449,0.9887983534071181
450,0.9891696506076388
451,0.9893425835503472
452,0.9897918701171875
453,0.9893917507595487
454,0.9904208713107638
455,0.9905768500434028
456,0.9904513888888888
457,0.9912397596571181
458,0.9910261366102431
459,0.9912668863932291
460,0.9915025499131944
461,0.9921162923177084
462,0.9922875298394097
463,0.9924112955729166
464,0.9928046332465278
465,0.9929351806640625
466,0.9934658474392362
467,0.9938625759548612
468,0.9937981499565972
469,0.9941948784722222
470,0.9942559136284722
471,0.99481201171875
472,0.99493408203125
473,0.9950968424479166
474,0.9954477945963541
475,0.9957682291666666
476,0.9958648681640625
477,0.9964345296223959
478,0.9965362548828125
479,0.9968702528211806
480,0.9968532986111112
481,0.9972958034939237
482,0.9976416693793403
483,0.9978230794270834
484,0.9980214436848959
485,0.9983927408854166
486,0.9986775716145834
487,0.9990302191840278
488,0.9991845024956597
489,0.9994167751736112
490,0.9996897379557291
1,0.8336537679036459
2,0.8452334933810763
3,0.8708360460069444
4,0.8681165907118056
5,0.8715176052517362
6,0.8750881618923612
7,0.8784569634331597
8,0.88165283203125
9,0.8802812364366319
10,0.8824123806423612
11,0.8834211561414931
12,0.8765157063802084
13,0.8765343560112847
14,0.8799184163411459
15,0.8786722819010416
16,0.8826073540581597
17,0.8843265109592013
18,0.8889651828342013
19,0.8903401692708334
20,0.8866865370008681
21,0.88323974609375
22,0.8881615532769097
23,0.8841790093315972
24,0.8847978379991319
25,0.8838840060763888
26,0.8850928412543403
27,0.8871832953559028
28,0.8873986138237847
29,0.8876444498697916
30,0.8801659478081597
31,0.8772379557291666
32,0.8841434054904513
33,0.8839111328125
34,0.8802897135416666
35,0.8802642822265625
36,0.8809865315755209
37,0.8832550048828125
38,0.8837602403428819
39,0.8893059624565972
40,0.8927985297309028
41,0.8872968885633681
42,0.8865220811631944
43,0.8887227376302084
44,0.8922492133246528
45,0.9023030598958334
46,0.9009908040364584
47,0.8983883327907987
48,0.8930274115668403
49,0.8958485921223959
