1,0.9627516004774306
2,0.9623904758029513
3,0.9627855088975694
4,0.9663068983289931
5,0.9658626980251737
6,0.9661220974392362
7,0.9671105278862847
8,0.9674886067708334
9,0.9676310221354166
10,0.9686821831597222
11,0.9689246283637153
12,0.9693874782986112
13,0.9695570203993056
14,0.9694179958767362
15,0.9704640706380209
16,0.9701521131727431
17,0.9689246283637153
18,0.9697316487630209
19,0.9702623155381944
20,0.9708540174696181
21,0.9702046712239584
22,0.97003173828125
23,0.9705980088975694
24,0.9715050591362847
25,0.9698147243923612
26,0.9721764458550347
27,0.9689195421006944
28,0.9707319471571181
29,0.9705132378472222
30,0.9723527696397569
31,0.9704962836371528
32,0.9707421196831597
33,0.9704996744791666
34,0.9712948269314237
35,0.9705352783203125
36,0.9704674614800347
37,0.9712812635633681
38,0.9718237982855903
39,0.9729580349392362
40,0.9698079427083334
41,0.9721866183810763
42,0.9719289143880209
43,0.9715474446614584
44,0.9718610975477431
45,0.9714152018229166
46,0.9705776638454862
47,0.9705149332682291
48,0.9720899793836806
49,0.9706098768446181
50,0.9713321261935763
51,0.9725290934244791
52,0.9719306098090278
53,0.9713456895616319
54,0.9719492594401041
55,0.9733259412977431
56,0.971893310546875
57,0.9735226101345487
58,0.972442626953125
59,0.9726494683159722
60,0.9716339111328125
61,0.9727037217881944
62,0.9737057156032987
63,0.9727121988932291
64,0.9723239474826388
65,0.9716542561848959
66,0.9727054172092013
67,0.9715864393446181
68,0.9738583034939237
69,0.9720255533854166
70,0.9727274576822916
71,0.9723019070095487
72,0.9729732937282987
73,0.97247314453125
74,0.9728224012586806
75,0.9734157986111112
76,0.9735531277126737
77,0.9735633002387153
78,0.9726579454210069
79,0.9737158881293403
80,0.9737667507595487
81,0.9734920925564237
82,0.9726748996310763
83,0.9734463161892362
84,0.9742635091145834
85,0.9741634792751737
86,0.9753570556640625
87,0.9743448893229166
88,0.9737158881293403
89,0.9740108913845487
90,0.9746280246310763
91,0.9735276963975694
92,0.9738277859157987
93,0.9744127061631944
94,0.9745602077907987
95,0.9738091362847222
96,0.9750196668836806
97,0.974945068359375
98,0.9746568467881944
99,0.9755299886067709
100,0.9752044677734375
101,0.9747094048394097
102,0.9738650851779513
103,0.9746754964192709
104,0.9752061631944444
105,0.9745093451605903
106,0.9756011962890625
107,0.9758029513888888
108,0.9757300482855903
109,0.9749891493055556
110,0.9757012261284722
111,0.9747907850477431
112,0.97454833984375
113,0.9757453070746528
114,0.9762234157986112
115,0.9762301974826388
116,0.9753180609809028
117,0.9763658311631944
118,0.9774576822916666
119,0.9767846001519097
120,0.9770931667751737
121,0.9768337673611112
122,0.9760453965928819
123,0.9764845106336806
124,0.9768727620442709
125,0.9764353434244791
126,0.9756215413411459
127,0.9767015245225694
128,0.9767032199435763
129,0.9768914116753472
130,0.9768659803602431
131,0.9761098225911459
132,0.9765658908420138
133,0.9761115180121528
134,0.9768117268880209
135,0.9777560763888888
136,0.9768964979383681
137,0.9768625895182291
138,0.9771999782986112
139,0.9770100911458334
140,0.9777035183376737
141,0.9782799614800347
142,0.9774407280815972
143,0.9780256483289931
144,0.9780866834852431
145,0.9766743977864584
146,0.9785749647352431
147,0.9782138400607638
148,0.9778527153862847
149,0.9776814778645834
150,0.9783003065321181
151,0.9775068495008681
152,0.9777187771267362
153,0.9788309733072916
154,0.9787139892578125
155,0.9779747856987847
156,0.97845458984375
157,0.9788564046223959
158,0.9781833224826388
159,0.9786224365234375
160,0.9791293674045138
161,0.9795684814453125
162,0.9792819552951388
163,0.9787207709418403
164,0.9780832926432291
165,0.9780714246961806
166,0.9780188666449653
167,0.979644775390625
168,0.9795413547092013
169,0.9794277615017362
170,0.9787258572048612
171,0.9786088731553819
172,0.9788140190972222
173,0.9804331461588541
174,0.9792327880859375
175,0.9791768391927084
176,0.9801398383246528
177,0.9798770480685763
178,0.9800228542751737
179,0.9790225558810763
180,0.9802890353732638
181,0.9807145860460069
182,0.9798329671223959
183,0.9797804090711806
184,0.9806196424696181
185,0.980438232421875
186,0.9804399278428819
187,0.9807230631510416
188,0.980316162109375
189,0.9798940022786459
190,0.9803178575303819
191,0.9802415635850694
192,0.9808247884114584
193,0.9802890353732638
194,0.9809756808810763
195,0.9809943305121528
196,0.9808841281467013
197,0.9809451633029513
198,0.9814097086588541
199,0.9813910590277778
200,0.9810468885633681
201,0.9813571506076388
202,0.9818183051215278
203,0.9822065565321181
204,0.9819352891710069
205,0.9813808865017362
206,0.9799940321180556
207,0.9817979600694444
208,0.9820726182725694
209,0.9818810356987847
210,0.9816538492838541
211,0.9824133978949653
212,0.9818301730685763
213,0.9821438259548612
214,0.9820590549045138
215,0.9830271402994791
216,0.9825219048394097
217,0.9830118815104166
218,0.9827219645182291
219,0.9821624755859375
220,0.9828355577256944
221,0.9829203287760416
222,0.9834187825520834
223,0.9833543565538194
224,0.9831983778211806
225,0.982879638671875
226,0.9834764268663194
227,0.9836510552300347
228,0.9832882351345487
229,0.9836222330729166
230,0.9835289849175347
231,0.9840443929036459
232,0.9839104546440972
233,0.9835527208116319
234,0.9830390082465278
235,0.9833984375
236,0.9846818712022569
237,0.9837849934895834
238,0.9841342502170138
239,0.9839816623263888
240,0.9839104546440972
241,0.983978271484375
242,0.9837002224392362
243,0.9842902289496528
244,0.9840087890625
245,0.9842936197916666
246,0.9842207166883681
247,0.9848158094618056
248,0.9855940077039931
249,0.9843512641059028
250,0.9850107828776041
251,0.9841698540581597
252,0.9846530490451388
253,0.9846564398871528
254,0.9850413004557291
255,0.9847632514105903
256,0.9851888020833334
257,0.9854871961805556
258,0.9846293131510416
259,0.9845038519965278
260,0.9854787190755209
261,0.9850006103515625
262,0.985626220703125
263,0.9853346082899306
264,0.9845343695746528
265,0.9864162868923612
266,0.9846683078342013
267,0.9859568277994791
268,0.9853057861328125
269,0.9857618543836806
270,0.9851701524522569
271,0.9856821695963541
272,0.9863688151041666
273,0.9857957628038194
274,0.985748291015625
275,0.9859907362196181
276,0.9856889512803819
277,0.9859110514322916
278,0.9855736626519097
279,0.9863976372612847
280,0.9864213731553819
281,0.9859195285373263
282,0.9866858588324653
283,0.9863976372612847
284,0.9863264295789931
285,0.987030029296875
286,0.9867841932508681
287,0.9864095052083334
288,0.986846923828125
289,0.9867112901475694
290,0.9878709581163194
291,0.9868994818793403
292,0.9872029622395834
293,0.9860161675347222
294,0.98651123046875
295,0.9875132242838541
296,0.9866129557291666
297,0.9876369900173612
298,0.9875471327039931
299,0.9868418375651041
300,0.9873623318142362
301,0.9879099527994791
302,0.9877387152777778
303,0.9874386257595487
304,0.9884423149956597
305,0.9878489176432291
306,0.9880828857421875
307,0.9878251817491319
308,0.9882998996310763
309,0.9882286919487847
310,0.9887881808810763
311,0.9882829454210069
312,0.9888543023003472
313,0.9883778889973959
314,0.9887101915147569
315,0.9881100124782987
316,0.9882558186848959
317,0.9883694118923612
318,0.9887220594618056
319,0.9887763129340278
320,0.9893222384982638
321,0.9889289008246528
322,0.9891204833984375
323,0.9889322916666666
324,0.9891340467664931
325,0.9891933865017362
326,0.9892645941840278
327,0.9893832736545138
328,0.9898817274305556
329,0.9896748860677084
330,0.9894917805989584
331,0.9892391628689237
332,0.9893900553385416
333,0.9896647135416666
334,0.9893697102864584
335,0.9892425537109375
336,0.9901258680555556
337,0.9899071587456597
338,0.9900275336371528
339,0.9903750949435763
340,0.9905344645182291
341,0.9898291693793403
342,0.9903683132595487
343,0.9903462727864584
344,0.9906056722005209
345,0.9908243815104166
346,0.9898410373263888
347,0.9906751844618056
348,0.9905666775173612
349,0.9906700981987847
350,0.9906056722005209
351,0.9904022216796875
352,0.9908837212456597
353,0.9908040364583334
354,0.9910210503472222
355,0.9910464816623263
356,0.9909074571397569
357,0.9914330376519097
358,0.9909023708767362
359,0.9909600151909722
360,0.9912821451822916
361,0.9914771185980903
362,0.9914364284939237
363,0.9913482666015625
364,0.9916890462239584
365,0.9916178385416666
366,0.9918077256944444
367,0.992218017578125
368,0.9921654595269097
369,0.9920026991102431
370,0.9921417236328125
371,0.9920620388454862
372,0.9925893147786459
373,0.9925503200954862
374,0.9925740559895834
375,0.9926079644097222
376,0.9924519856770834
377,0.992919921875
378,0.9926062689887153
379,0.9928436279296875
380,0.9928758409288194
381,0.9927724202473959
382,0.9928097195095487
383,0.9930097791883681
384,0.9924774169921875
385,0.9929470486111112
386,0.9929707845052084
387,0.9931352403428819
388,0.9934200710720487
389,0.9931674533420138
390,0.993377685546875
391,0.993316650390625
392,0.9934539794921875
393,0.9933183458116319
394,0.9934370252821181
395,0.9934709337022569
396,0.9936472574869791
397,0.9936048719618056
398,0.9937744140625
399,0.9937608506944444
400,0.9938540988498263
401,0.9939541286892362
402,0.9939965142144097
403,0.9941745334201388
404,0.9941541883680556
405,0.9937930636935763
406,0.9942355685763888
407,0.9943508572048612
408,0.9943796793619791
409,0.9945441351996528
410,0.9946000840928819
411,0.9945356580946181
412,0.9946662055121528
413,0.9946797688802084
414,0.9946085611979166
415,0.9949289957682291
416,0.9948560926649306
417,0.9949154324001737
418,0.9949764675564237
419,0.994873046875
420,0.9951765272352431
421,0.9952799479166666
422,0.9952528211805556
423,0.9954274495442709
424,0.9955257839626737
425,0.9956461588541666
426,0.9956851535373263
427,0.9957529703776041
428,0.9955274793836806
429,0.9958597819010416
430,0.9957326253255209
431,0.9959852430555556
432,0.9958377414279513
433,0.9961090087890625
434,0.9962226019965278
435,0.9962192111545138
436,0.9963582356770834
437,0.9964650472005209
438,0.9964650472005209
439,0.9965481228298612
440,0.9966295030381944
441,0.9966668023003472
442,0.9967685275607638
443,0.9967210557725694
444,0.996795654296875
445,0.9969770643446181
446,0.9968804253472222
447,0.9970109727647569
448,0.9971059163411459
449,0.9971160888671875
450,0.9972364637586806
451,0.9972076416015625
452,0.9973619249131944
453,0.9975111219618056
454,0.9975687662760416
455,0.9975908067491319
456,0.9977467854817709
457,0.9976450602213541
458,0.9977603488498263
459,0.9977688259548612
460,0.9978976779513888
461,0.9979044596354166
462,0.9980400933159722
463,0.9981757269965278
464,0.9981062147352431
465,0.9982791476779513
466,0.9983249240451388
467,0.9984215630425347
468,0.9984215630425347
469,0.9984520806206597
470,0.9985724555121528
471,0.9986487494574653
472,0.9987080891927084
473,0.9988030327690972
474,0.9988030327690972
475,0.9988996717664931
476,0.9990030924479166
477,0.9990471733940972
478,0.9991455078125
479,0.9991675482855903
480,0.9992557101779513
481,0.9992472330729166
482,0.9993998209635416
483,0.9994540744357638
484,0.9995218912760416
485,0.999603271484375
486,0.9996676974826388
487,0.9996914333767362
488,0.9997829861111112
489,0.9998813205295138
490,0.9999186197916666
1,0.9627516004774306
2,0.9623904758029513
3,0.9627855088975694
4,0.9663068983289931
5,0.9658626980251737
6,0.9661220974392362
7,0.9671105278862847
8,0.9674886067708334
9,0.9676310221354166
10,0.9686821831597222
11,0.9689246283637153
12,0.9693874782986112
13,0.9695570203993056
14,0.9694179958767362
15,0.9704640706380209
16,0.9701521131727431
17,0.9689246283637153
18,0.9697316487630209
19,0.9702623155381944
20,0.9708540174696181
21,0.9702046712239584
22,0.97003173828125
23,0.9705980088975694
24,0.9715050591362847
25,0.9698147243923612
26,0.9721764458550347
27,0.9689195421006944
28,0.9707319471571181
29,0.9705132378472222
30,0.9723527696397569
31,0.9704962836371528
32,0.9707421196831597
33,0.9704996744791666
34,0.9712948269314237
35,0.9705352783203125
36,0.9704674614800347
37,0.9712812635633681
38,0.9718237982855903
39,0.9729580349392362
40,0.9698079427083334
41,0.9721866183810763
42,0.9719289143880209
43,0.9715474446614584
44,0.9718610975477431
45,0.9714152018229166
46,0.9705776638454862
47,0.9705149332682291
48,0.9720899793836806
49,0.9706098768446181
