1,0.9630703396267362
2,0.9661882188585069
3,0.9725104437934028
4,0.9716898600260416
5,0.9725341796875
6,0.9733937581380209
7,0.9740922715928819
8,0.9747840033637153
9,0.9746551513671875
10,0.974884033203125
11,0.9755299886067709
12,0.9734022352430556
13,0.9735344780815972
14,0.9743737114800347
15,0.9742787679036459
16,0.9750823974609375
17,0.9754418267144097
18,0.9765370686848959
19,0.9768642849392362
20,0.9761284722222222
21,0.9751146104600694
22,0.9765353732638888
23,0.9756910536024306
24,0.9754672580295138
25,0.9755961100260416
26,0.9755113389756944
27,0.9757453070746528
28,0.9763692220052084
29,0.9760589599609375
30,0.9746551513671875
31,0.9738972981770834
32,0.9752417670355903
33,0.9756181504991319
34,0.9746670193142362
35,0.9747551812065972
36,0.9750128851996528
37,0.9754367404513888
38,0.9755995008680556
39,0.9767439100477431
40,0.97760009765625
41,0.9762810601128472
42,0.9761505126953125
43,0.9765336778428819
44,0.97747802734375
45,0.9796125623914931
46,0.9794413248697916
47,0.97869873046875
48,0.9777001274956597
49,0.9783664279513888
50,0.9772694905598959
51,0.9784817165798612
52,0.9785037570529513
53,0.9774678548177084
54,0.9776984320746528
55,0.9770067003038194
56,0.9773542616102431
57,0.9771847195095487
58,0.9777509901258681
59,0.976837158203125
60,0.9772169325086806
61,0.9779900444878472
62,0.9787529839409722
63,0.9776543511284722
64,0.9773271348741319
65,0.9772169325086806
66,0.9767557779947916
67,0.9765828450520834
68,0.9767252604166666
69,0.9761454264322916
70,0.9770592583550347
71,0.9781460232204862
72,0.97796630859375
73,0.9771813286675347
74,0.9781884087456597
75,0.9799702962239584
76,0.9790564643012153
77,0.9783986409505209
78,0.9791005452473959
79,0.9764116075303819
80,0.9772593180338541
81,0.9778713650173612
82,0.9774085150824653
83,0.9781409369574653
84,0.97796630859375
85,0.9783749050564237
86,0.9777272542317709
87,0.9773932562934028
88,0.9776475694444444
89,0.9785427517361112
90,0.9777238633897569
91,0.9778815375434028
92,0.9774492051866319
93,0.9764828152126737
94,0.9786834716796875
95,0.9784986707899306
96,0.9789021809895834
97,0.9784495035807291
98,0.9788224962022569
99,0.9794701470269097
100,0.9792344835069444
101,0.9782697889539931
102,0.9795277913411459
103,0.9784088134765625
104,0.9790327284071181
105,0.9784376356336806
106,0.9783494737413194
107,0.9787936740451388
108,0.9795057508680556
109,0.9782070583767362
110,0.9776441786024306
111,0.9790666368272569
112,0.9795515272352431
113,0.9803432888454862
114,0.9803314208984375
115,0.9802924262152778
116,0.9801737467447916
117,0.9805704752604166
118,0.9813452826605903
119,0.9811367458767362
120,0.9815300835503472
121,0.9804704454210069
122,0.9801008436414931
123,0.9810468885633681
124,0.9803110758463541
125,0.9810757107204862
126,0.9798651801215278
127,0.9806654188368056
128,0.9812367757161459
129,0.9804585774739584
130,0.9801500108506944
131,0.9808349609375
132,0.9819200303819444
133,0.9811214870876737
134,0.9812808566623263
135,0.9809468587239584
136,0.9817420111762153
137,0.9813401963975694
138,0.98162841796875
139,0.9807094997829862
140,0.9808756510416666
141,0.9812435574001737
142,0.9809468587239584
143,0.980682373046875
144,0.9821370442708334
145,0.9818776448567709
146,0.982513427734375
147,0.9819251166449653
148,0.9825761583116319
149,0.9823404947916666
150,0.9814215766059028
151,0.9824252658420138
152,0.9811876085069444
153,0.9813791910807291
154,0.9811079237196181
155,0.9815911187065972
156,0.9818759494357638
157,0.9811435275607638
158,0.9817318386501737
159,0.9817725287543403
160,0.9818572998046875
161,0.9821234809027778
162,0.9815945095486112
163,0.9822574191623263
164,0.9824184841579862
165,0.9832017686631944
166,0.9824964735243056
167,0.9826405843098959
168,0.9830322265625
169,0.9832085503472222
170,0.9836476643880209
171,0.9839223225911459
172,0.9829847547743056
173,0.9831814236111112
174,0.9840901692708334
175,0.9838528103298612
176,0.9832102457682291
177,0.9837595621744791
178,0.9837409125434028
179,0.9842308892144097
180,0.9841393364800347
181,0.9833611382378472
182,0.9839494493272569
183,0.9844801161024306
184,0.9842631022135416
185,0.9842444525824653
186,0.9838816324869791
187,0.9837002224392362
188,0.9834628634982638
189,0.9836205376519097
190,0.9838273790147569
191,0.9840325249565972
192,0.9831763373480903
193,0.9839070638020834
194,0.9834120008680556
195,0.9841512044270834
196,0.9846276177300347
197,0.9845920138888888
198,0.9833577473958334
199,0.9840749104817709
200,0.9843529595269097
201,0.9838358561197916
202,0.9839918348524306
203,0.9838629828559028
204,0.983489990234375
205,0.9838358561197916
206,0.9849514431423612
207,0.9832678900824653
208,0.9837205674913194
209,0.984619140625
210,0.9851006401909722
211,0.9847361246744791
212,0.9851243760850694
213,0.9847429063585069
214,0.9850752088758681
215,0.9846632215711806
216,0.9849480523003472
217,0.9848700629340278
218,0.9851430257161459
219,0.9851718478732638
220,0.9855990939670138
221,0.9853685167100694
222,0.9858127170138888
223,0.98614501953125
224,0.9854261610243056
225,0.9857381184895834
226,0.9856974283854166
227,0.9850565592447916
228,0.9859161376953125
229,0.9858279758029513
230,0.9849073621961806
231,0.9845920138888888
232,0.9857906765407987
233,0.9859551323784722
234,0.9860975477430556
235,0.9860551622178819
236,0.9856804741753472
237,0.9868248833550347
238,0.9866197374131944
239,0.9865570068359375
240,0.9867926703559028
241,0.9867570665147569
242,0.9867231580946181
243,0.9873708089192709
244,0.9870825873480903
245,0.9867129855685763
246,0.9863128662109375
247,0.9869537353515625
248,0.9866485595703125
249,0.9869299994574653
250,0.9869825575086806
251,0.9869537353515625
252,0.9867587619357638
253,0.9873911539713541
254,0.9871164957682291
255,0.9869469536675347
256,0.9871554904513888
257,0.9874708387586806
258,0.9875318739149306
259,0.9877404106987847
260,0.9875403510199653
261,0.9879150390625
262,0.9879930284288194
263,0.9877336290147569
264,0.9878862169053819
265,0.9871927897135416
266,0.9873097737630209
267,0.9873318142361112
268,0.9878929985894097
269,0.9880845811631944
270,0.9879574245876737
271,0.9880896674262153
272,0.9880879720052084
273,0.9877065022786459
274,0.9880320231119791
275,0.9882846408420138
276,0.9885677761501737
277,0.9888949924045138
278,0.9889085557725694
279,0.9884016248914931
280,0.9888102213541666
281,0.9892832438151041
282,0.9892561170789931
283,0.9895714653862847
284,0.9890458848741319
285,0.9888831244574653
286,0.9890323215060763
287,0.9893120659722222
288,0.9888644748263888
289,0.9890730116102431
290,0.9889882405598959
291,0.98974609375
292,0.9896138509114584
293,0.9900800916883681
294,0.9898003472222222
295,0.9895816379123263
296,0.9899275037977431
297,0.9901987711588541
298,0.9901479085286459
299,0.9902140299479166
300,0.9901004367404513
301,0.9903191460503472
302,0.9901546902126737
303,0.9906378851996528
304,0.9900241427951388
305,0.9900631374782987
306,0.9898596869574653
307,0.9899783664279513
308,0.9903021918402778
309,0.9900936550564237
310,0.9895528157552084
311,0.9900461832682291
312,0.9900360107421875
313,0.9901360405815972
314,0.9904547797309028
315,0.9901275634765625
316,0.9902140299479166
317,0.9905938042534722
318,0.9903445773654513
319,0.9912245008680556
320,0.9903886583116319
321,0.9909752739800347
322,0.9911278618706597
323,0.9912448459201388
324,0.9912024603949653
325,0.9913397894965278
326,0.9913669162326388
327,0.9908243815104166
328,0.9912346733940972
329,0.9914737277560763
330,0.9913482666015625
331,0.9912143283420138
332,0.9909159342447916
333,0.9916347927517362
334,0.9914042154947916
335,0.9917127821180556
336,0.9917161729600694
337,0.9915415445963541
338,0.9918467203776041
339,0.9917127821180556
340,0.9918195936414931
341,0.9919043646918403
342,0.9920366075303819
343,0.9921434190538194
344,0.9917060004340278
345,0.9922519259982638
346,0.9923010932074653
347,0.9922553168402778
348,0.9922943115234375
349,0.992462158203125
350,0.9926079644097222
351,0.9926300048828125
352,0.9920671251085069
353,0.9926028781467013
354,0.992706298828125
355,0.9925214979383681
356,0.9927317301432291
357,0.9926978217230903
358,0.9926045735677084
359,0.9923875596788194
360,0.9928622775607638
361,0.9928080240885416
362,0.9932369656032987
363,0.9927215576171875
364,0.9930877685546875
365,0.9929538302951388
366,0.9929148356119791
367,0.9932149251302084
368,0.9929334852430556
369,0.99322509765625
370,0.9933505588107638
371,0.9932759602864584
372,0.9935862223307291
373,0.99346923828125
374,0.9936896430121528
375,0.9936913384331597
376,0.9937828911675347
377,0.9937116834852431
378,0.9942203097873263
379,0.9941118028428819
380,0.9938473171657987
381,0.9941575792100694
382,0.9938201904296875
383,0.9941134982638888
384,0.9943355984157987
385,0.9943966335720487
386,0.9942169189453125
387,0.9945492214626737
388,0.9944424099392362
389,0.9944864908854166
390,0.9944678412543403
391,0.9946746826171875
392,0.994720458984375
393,0.9948849148220487
394,0.9949578179253472
395,0.9949289957682291
396,0.9948662651909722
397,0.9951036241319444
398,0.9951324462890625
399,0.9951714409722222
400,0.9952392578125
401,0.9953172471788194
402,0.9954817030164931
403,0.9953240288628472
404,0.9955156114366319
405,0.9954596625434028
406,0.9955885145399306
407,0.9954884847005209
408,0.9955529106987847
409,0.9957512749565972
410,0.9959072536892362
411,0.9957953559027778
412,0.9957258436414931
413,0.9959445529513888
414,0.9958258734809028
415,0.9960225423177084
416,0.996063232421875
417,0.9959513346354166
418,0.9961530897352431
419,0.9963158501519097
420,0.9963463677300347
421,0.9963141547309028
422,0.9963531494140625
423,0.9965413411458334
424,0.9964209662543403
425,0.9963141547309028
426,0.9965430365668403
427,0.9967007107204862
428,0.9968295627170138
429,0.9967244466145834
430,0.9968058268229166
431,0.9968549940321181
432,0.9968838161892362
433,0.9968939887152778
434,0.9968905978732638
435,0.9969821506076388
436,0.9971126980251737
437,0.9971076117621528
438,0.9972195095486112
439,0.9972212049696181
440,0.9972635904947916
441,0.9973636203342013
442,0.9973924424913194
443,0.99755859375
444,0.9974195692274306
445,0.9975772433810763
446,0.9976603190104166
447,0.9976789686414931
448,0.9977840847439237
449,0.9977993435329862
450,0.9978264702690972
451,0.9978790283203125
452,0.997955322265625
453,0.9979281955295138
454,0.9981197781032987
455,0.9980926513671875
456,0.9981367323133681
457,0.9982859293619791
458,0.9982537163628472
459,0.9982537163628472
460,0.9983418782552084
461,0.9983707004123263
462,0.9984859890407987
463,0.9984876844618056
464,0.9985690646701388
465,0.9986097547743056
466,0.9987131754557291
467,0.9987606472439237
468,0.9987318250868056
469,0.9988233778211806
470,0.9988827175564237
471,0.9989437527126737
472,0.9989946153428819
473,0.9990353054470487
474,0.9991166856553819
475,0.9991048177083334
476,0.9992031521267362
477,0.9992794460720487
478,0.9993370903862847
479,0.9994066026475694
480,0.9993913438585069
481,0.9994930691189237
482,0.9995337592230903
483,0.9995880126953125
484,0.9996236165364584
485,0.9997117784288194
486,0.9997507731119791
487,0.9998135036892362
488,0.9998541937934028
489,0.9998982747395834
490,0.9999440511067709
1,0.9630703396267362
2,0.9661882188585069
3,0.9725104437934028
4,0.9716898600260416
5,0.9725341796875
6,0.9733937581380209
7,0.9740922715928819
8,0.9747840033637153
9,0.9746551513671875
10,0.974884033203125
11,0.9755299886067709
12,0.9734022352430556
13,0.9735344780815972
14,0.9743737114800347
15,0.9742787679036459
16,0.9750823974609375
17,0.9754418267144097
18,0.9765370686848959
19,0.9768642849392362
20,0.9761284722222222
21,0.9751146104600694
22,0.9765353732638888
23,0.9756910536024306
24,0.9754672580295138
25,0.9755961100260416
26,0.9755113389756944
27,0.9757453070746528
28,0.9763692220052084
29,0.9760589599609375
30,0.9746551513671875
31,0.9738972981770834
32,0.9752417670355903
33,0.9756181504991319
34,0.9746670193142362
35,0.9747551812065972
36,0.9750128851996528
37,0.9754367404513888
38,0.9755995008680556
39,0.9767439100477431
40,0.97760009765625
41,0.9762810601128472
42,0.9761505126953125
43,0.9765336778428819
44,0.97747802734375
45,0.9796125623914931
46,0.9794413248697916
47,0.97869873046875
48,0.9777001274956597
49,0.9783664279513888
