1,0.9876420762803819
2,0.9877539740668403
3,0.9872826470269097
4,0.9883507622612847
5,0.9879625108506944
6,0.9888746473524306
7,0.9887780083550347
8,0.9892866346571181
9,0.9890051947699653
10,0.9893273247612847
11,0.9897359212239584
12,0.9898512098524306
13,0.9899461534288194
14,0.9895239935980903
15,0.9901479085286459
16,0.9900936550564237
17,0.9898156060112847
18,0.9900936550564237
19,0.9898105197482638
20,0.9902869330512153
21,0.990020751953125
22,0.9901106092664931
23,0.9901411268446181
24,0.9901496039496528
25,0.9900970458984375
26,0.9903208414713541
27,0.9900529649522569
28,0.9902581108940972
29,0.9901784261067709
30,0.990570068359375
31,0.9902428521050347
32,0.9904988606770834
33,0.9901479085286459
34,0.9903293185763888
35,0.9899664984809028
36,0.9903530544704862
37,0.9901479085286459
38,0.9905225965711806
39,0.990753173828125
40,0.9901224772135416
41,0.9904276529947916
42,0.9904632568359375
43,0.9902123345269097
44,0.9906395806206597
45,0.9902716742621528
46,0.99029541015625
47,0.9901106092664931
48,0.9904717339409722
49,0.9905056423611112
50,0.9907769097222222
51,0.9908345540364584
52,0.9908345540364584
53,0.9903428819444444
54,0.9905548095703125
55,0.9910549587673612
56,0.9902971055772569
57,0.9908226860894097
58,0.9905514187282987
59,0.9907514784071181
60,0.9904344346788194
61,0.9909922281901041
62,0.9913753933376737
63,0.9910396999782987
64,0.9909210205078125
65,0.9909515380859375
66,0.9910074869791666
67,0.9906175401475694
68,0.9910380045572916
69,0.9904768202039931
70,0.9906684027777778
71,0.9908633761935763
72,0.9911736382378472
73,0.9909447564019097
74,0.9911024305555556
75,0.9911346435546875
76,0.9911244710286459
77,0.9912024603949653
78,0.9910447862413194
79,0.9912838406032987
80,0.9911092122395834
81,0.9907006157769097
82,0.9908786349826388
83,0.9907141791449653
84,0.9912482367621528
85,0.9912397596571181
86,0.9916161431206597
87,0.9914330376519097
88,0.9912584092881944
89,0.9912651909722222
90,0.9913516574435763
91,0.9912584092881944
92,0.9912465413411459
93,0.9915551079644097
94,0.9912312825520834
95,0.9913075764973959
96,0.9914228651258681
97,0.9914516872829862
98,0.9912601047092013
99,0.9915144178602431
100,0.9918297661675347
101,0.9916703965928819
102,0.9909990098741319
103,0.9910515679253472
104,0.9916110568576388
105,0.9913974338107638
106,0.9921112060546875
107,0.99224853515625
108,0.9917941623263888
109,0.9916178385416666
110,0.9918704562717013
111,0.9917517768012153
112,0.9912465413411459
113,0.9917568630642362
114,0.9917212592230903
115,0.9921078152126737
116,0.9916873508029513
117,0.9915974934895834
118,0.9923536512586806
119,0.9922095404730903
120,0.9922993977864584
121,0.9921162923177084
122,0.9921485053168403
123,0.9920891655815972
124,0.9921891954210069
125,0.9920620388454862
126,0.9921518961588541
127,0.9920620388454862
128,0.9917873806423612
129,0.9921891954210069
130,0.9923299153645834
131,0.9920993381076388
132,0.9920908610026041
133,0.9920654296875
134,0.9921637641059028
135,0.9923095703125
136,0.9920993381076388
137,0.9916534423828125
138,0.99224853515625
139,0.9926435682508681
140,0.9924163818359375
141,0.9925452338324653
142,0.9928995768229166
143,0.99261474609375
144,0.9927435980902778
145,0.9921993679470487
146,0.9929148356119791
147,0.992767333984375
148,0.9927300347222222
149,0.9926130506727431
150,0.9927554660373263
151,0.9924146864149306
152,0.9930674235026041
153,0.9929656982421875
154,0.9928148057725694
155,0.9927825927734375
156,0.9932166205512153
157,0.9929182264539931
158,0.9928707546657987
159,0.993316650390625
160,0.9932284884982638
161,0.9933336046006944
162,0.9931182861328125
163,0.9930250379774306
164,0.9927961561414931
165,0.9927825927734375
166,0.9927198621961806
167,0.9929758707682291
168,0.9932403564453125
169,0.9934861924913194
170,0.9931691487630209
171,0.9929046630859375
172,0.9929724799262153
173,0.9935523139105903
174,0.9931437174479166
175,0.9932827419704862
176,0.9933488633897569
177,0.9932674831814237
178,0.9933624267578125
179,0.9929300944010416
180,0.9933946397569444
181,0.9935930040147569
182,0.9935217963324653
183,0.9932725694444444
184,0.9933878580729166
185,0.9935557047526041
186,0.9935404459635416
187,0.9938117133246528
188,0.9936642116970487
189,0.9933692084418403
190,0.9932691786024306
191,0.9931877983940972
192,0.9935438368055556
193,0.993804931640625
194,0.9935811360677084
195,0.9938388400607638
196,0.9937523735894097
197,0.9937337239583334
198,0.9937422010633681
199,0.9938134087456597
200,0.9938184950086806
201,0.9938863118489584
202,0.9938727484809028
203,0.9940948486328125
204,0.9940745035807291
205,0.9940151638454862
206,0.9931369357638888
207,0.9939388699001737
208,0.9939948187934028
209,0.9939931233723959
210,0.9936082628038194
211,0.9942898220486112
212,0.9942101372612847
213,0.9944441053602431
214,0.9939795600043403
215,0.9943864610460069
216,0.9942457411024306
217,0.9944322374131944
218,0.9944831000434028
219,0.9943627251519097
220,0.9944780137803819
221,0.9944644504123263
222,0.9944474962022569
223,0.9943220350477431
224,0.9943423800998263
225,0.9944186740451388
226,0.9942796495225694
227,0.9944695366753472
228,0.9945441351996528
229,0.9943644205729166
230,0.9945560031467013
231,0.9946255154079862
232,0.994598388671875
233,0.9944746229383681
234,0.9944000244140625
235,0.9945916069878472
236,0.9949205186631944
237,0.9944864908854166
238,0.9948187934027778
239,0.9946916368272569
240,0.9946916368272569
241,0.9948391384548612
242,0.9945305718315972
243,0.9946967230902778
244,0.9947119818793403
245,0.9949239095052084
246,0.9948408338758681
247,0.9949832492404513
248,0.9951443142361112
249,0.9948187934027778
250,0.9950273301866319
251,0.9948696560329862
252,0.9949154324001737
253,0.9947323269314237
254,0.9949425591362847
255,0.9950748019748263
256,0.9948442247178819
257,0.9951222737630209
258,0.9948628743489584
259,0.9947679307725694
260,0.9950883653428819
261,0.9948577880859375
262,0.9952189127604166
263,0.9951324462890625
264,0.9948916965060763
265,0.9955020480685763
266,0.9948764377170138
267,0.9954647488064237
268,0.9951663547092013
269,0.9952358669704862
270,0.9952511257595487
271,0.9952782524956597
272,0.9956241183810763
273,0.9954817030164931
274,0.9951527913411459
275,0.9954410129123263
276,0.9953664143880209
277,0.9952952067057291
278,0.9953036838107638
279,0.9955122205946181
280,0.9955579969618056
281,0.9954562717013888
282,0.9955495198567709
283,0.9953443739149306
284,0.9954511854383681
285,0.9957105848524306
286,0.9955919053819444
287,0.9954020182291666
288,0.9956953260633681
289,0.9957088894314237
290,0.9957529703776041
291,0.9955054389105903
292,0.9956207275390625
293,0.9951612684461806
294,0.9955173068576388
295,0.9957292344835069
296,0.9954783121744791
297,0.9958411322699653
298,0.9957004123263888
299,0.9951951768663194
300,0.9958089192708334
301,0.9957495795355903
302,0.9958682590060763
303,0.9957834879557291
304,0.9961463080512153
305,0.9959191216362847
306,0.9959004720052084
307,0.9958869086371528
308,0.9960378011067709
309,0.9961463080512153
310,0.99615478515625
311,0.9960581461588541
312,0.9960598415798612
313,0.9960920545789931
314,0.9961310492621528
315,0.9961378309461806
316,0.9962242974175347
317,0.9960378011067709
318,0.9963463677300347
319,0.9961005316840278
320,0.9962429470486112
321,0.9964548746744791
322,0.9963904486762153
323,0.9963158501519097
324,0.9964413113064237
325,0.9964158799913194
326,0.9962904188368056
327,0.9964345296223959
328,0.9965616861979166
329,0.9964277479383681
330,0.9964853922526041
331,0.9962531195746528
332,0.9963972303602431
333,0.9965260823567709
334,0.9964192708333334
335,0.9963870578342013
336,0.9967024061414931
337,0.9965074327256944
338,0.9964769151475694
339,0.9966634114583334
340,0.9967142740885416
341,0.9966244167751737
342,0.9965464274088541
343,0.9966464572482638
344,0.996826171875
345,0.9969041612413194
346,0.9967702229817709
347,0.9968346489800347
348,0.9968905978732638
349,0.9968956841362847
350,0.9968024359809028
351,0.9969584147135416
352,0.9968600802951388
353,0.9970787896050347
354,0.9971533881293403
355,0.9970482720269097
356,0.9970194498697916
357,0.9970431857638888
358,0.9968532986111112
359,0.9971059163411459
360,0.9971228705512153
361,0.9971364339192709
362,0.9971296522352431
363,0.9971957736545138
364,0.9972517225477431
365,0.9970652262369791
366,0.9972652859157987
367,0.9974280463324653
368,0.9974212646484375
369,0.9973500569661459
370,0.9973687065972222
371,0.9974738226996528
372,0.9975229899088541
373,0.9974704318576388
374,0.9976111518012153
375,0.9975806342230903
376,0.9974619547526041
377,0.9976247151692709
378,0.9975399441189237
379,0.9975636800130209
380,0.9976298014322916
381,0.9976467556423612
382,0.9976535373263888
383,0.9977077907986112
384,0.9974687364366319
385,0.9977400037977431
386,0.9976314968532987
387,0.9977671305338541
388,0.9977705213758681
389,0.9977179633246528
390,0.9978162977430556
391,0.9977383083767362
392,0.997772216796875
393,0.9977806939019097
394,0.9977433946397569
395,0.9978010389539931
396,0.9978739420572916
397,0.997802734375
398,0.9979078504774306
399,0.9979231092664931
400,0.9980129665798612
401,0.9979926215277778
402,0.9980044894748263
403,0.998046875
404,0.9980095757378472
405,0.9979468451605903
406,0.9981418185763888
407,0.9981757269965278
408,0.9981519911024306
409,0.9982367621527778
410,0.9982757568359375
411,0.9982503255208334
412,0.9982316758897569
413,0.9982316758897569
414,0.99835205078125
415,0.9984029134114584
416,0.9983181423611112
417,0.9984029134114584
418,0.9984893798828125
419,0.9983028835720487
420,0.9984029134114584
421,0.9984351264105903
422,0.9985402425130209
423,0.9984452989366319
424,0.9986165364583334
425,0.9986792670355903
426,0.9986300998263888
427,0.9986029730902778
428,0.99859619140625
429,0.9986317952473959
430,0.9986826578776041
431,0.9987504747178819
432,0.998748779296875
433,0.9987674289279513
434,0.9988521999782987
435,0.9988199869791666
436,0.9988691541883681
437,0.9989081488715278
438,0.9989115397135416
439,0.9988810221354166
440,0.9989183213975694
441,0.9989980061848959
442,0.9990268283420138
443,0.9989115397135416
444,0.9990234375
445,0.9990047878689237
446,0.9990624321831597
447,0.9990590413411459
448,0.9990810818142362
449,0.9991048177083334
450,0.9992031521267362
451,0.9991624620225694
452,0.9991828070746528
453,0.9992709689670138
454,0.9992387559678819
455,0.9993014865451388
456,0.9992726643880209
457,0.9993218315972222
458,0.9993048773871528
459,0.9992964002821181
460,0.9993438720703125
461,0.9993896484375
462,0.9993540445963541
463,0.999420166015625
464,0.9994269476996528
465,0.9993845621744791
466,0.99945068359375
467,0.9994761149088541
468,0.9994676378038194
469,0.9994964599609375
470,0.9995320638020834
471,0.9995914035373263
472,0.9996100531684028
473,0.9996134440104166
474,0.9996151394314237
475,0.9996371799045138
476,0.9996744791666666
477,0.999664306640625
478,0.9996473524305556
479,0.9996829562717013
480,0.9997422960069444
481,0.9997507731119791
482,0.9997778998480903
483,0.9997897677951388
484,0.9998236762152778
485,0.9998541937934028
486,0.9998694525824653
487,0.9999016655815972
488,0.9999169243706597
489,0.9999491373697916
490,0.9999660915798612
1,0.9876420762803819
2,0.9877539740668403
3,0.9872826470269097
4,0.9883507622612847
5,0.9879625108506944
6,0.9888746473524306
7,0.9887780083550347
8,0.9892866346571181
9,0.9890051947699653
10,0.9893273247612847
11,0.9897359212239584
12,0.9898512098524306
13,0.9899461534288194
14,0.9895239935980903
15,0.9901479085286459
16,0.9900936550564237
17,0.9898156060112847
18,0.9900936550564237
19,0.9898105197482638
20,0.9902869330512153
21,0.990020751953125
22,0.9901106092664931
23,0.9901411268446181
24,0.9901496039496528
25,0.9900970458984375
26,0.9903208414713541
27,0.9900529649522569
28,0.9902581108940972
29,0.9901784261067709
30,0.990570068359375
31,0.9902428521050347
32,0.9904988606770834
33,0.9901479085286459
34,0.9903293185763888
35,0.9899664984809028
36,0.9903530544704862
37,0.9901479085286459
38,0.9905225965711806
39,0.990753173828125
40,0.9901224772135416
41,0.9904276529947916
42,0.9904632568359375
43,0.9902123345269097
44,0.9906395806206597
45,0.9902716742621528
46,0.99029541015625
47,0.9901106092664931
48,0.9904717339409722
49,0.9905056423611112
