1,0.9753604465060763
2,0.9735480414496528
3,0.9742329915364584
4,0.9767930772569444
5,0.9764675564236112
6,0.9768015543619791
7,0.9777781168619791
8,0.9776051839192709
9,0.9776679144965278
10,0.9786393907335069
11,0.9784630669487847
12,0.9790835910373263
13,0.9795718722873263
14,0.9798024495442709
15,0.97955322265625
16,0.9804941813151041
17,0.9798431396484375
18,0.9798516167534722
19,0.9804399278428819
20,0.9800533718532987
21,0.9803670247395834
22,0.9803178575303819
23,0.9800533718532987
24,0.9805263943142362
25,0.9801483154296875
26,0.9806806776258681
27,0.9799855550130209
28,0.9805230034722222
29,0.9804467095269097
30,0.9815741644965278
31,0.9809078640407987
32,0.9816555447048612
33,0.9808807373046875
34,0.9815300835503472
35,0.9815300835503472
36,0.9813317192925347
37,0.9813317192925347
38,0.9813741048177084
39,0.9821811252170138
40,0.9807349310980903
41,0.9811587863498263
42,0.9815249972873263
43,0.9809485541449653
44,0.9815775553385416
45,0.9817148844401041
46,0.9806789822048612
47,0.9803585476345487
48,0.9812113444010416
49,0.9809519449869791
50,0.9812774658203125
51,0.9811520046657987
52,0.9812859429253472
53,0.9816945393880209
54,0.9819268120659722
55,0.9824269612630209
56,0.9808230929904513
57,0.9812130398220487
58,0.9813385009765625
59,0.9809248182508681
60,0.9807111952039931
61,0.9818539089626737
62,0.9823082817925347
63,0.98089599609375
64,0.981353759765625
65,0.98114013671875
66,0.9821014404296875
67,0.9813147650824653
68,0.9825693766276041
69,0.9818996853298612
70,0.9816165500217013
71,0.9821726481119791
72,0.9817352294921875
73,0.9817894829644097
74,0.9814012315538194
75,0.9825405544704862
76,0.9829338921440972
77,0.9823438856336806
78,0.9816691080729166
79,0.9823744032118056
80,0.9825456407335069
81,0.98260498046875
82,0.9817708333333334
83,0.9823506673177084
84,0.9827677408854166
85,0.9828135172526041
86,0.9835120307074653
87,0.9831458197699653
88,0.9833458794487847
89,0.9826117621527778
90,0.9826100667317709
91,0.9827490912543403
92,0.9825303819444444
93,0.9825219048394097
94,0.9834323459201388
95,0.9819810655381944
96,0.9832136366102431
97,0.9834577772352431
98,0.9826321072048612
99,0.9833340115017362
100,0.9839019775390625
101,0.9827541775173612
102,0.9818081325954862
103,0.9823879665798612
104,0.9832526312934028
105,0.9830288357204862
106,0.9832882351345487
107,0.9845598008897569
108,0.9836001925998263
109,0.9833458794487847
110,0.9832899305555556
111,0.9833899603949653
112,0.9829932318793403
113,0.9840901692708334
114,0.9836171468098959
115,0.9834221733940972
116,0.9837510850694444
117,0.9845123291015625
118,0.9848734537760416
119,0.9848971896701388
120,0.9847022162543403
121,0.9846310085720487
122,0.9846106635199653
123,0.9847852918836806
124,0.9847327338324653
125,0.9841122097439237
126,0.9849989149305556
127,0.9848666720920138
128,0.9845394558376737
129,0.9838511149088541
130,0.9843071831597222
131,0.9845021565755209
132,0.9840172661675347
133,0.9836764865451388
134,0.9846123589409722
135,0.9853481716579862
136,0.9848954942491319
137,0.9841901991102431
138,0.984283447265625
139,0.9852939181857638
140,0.9851888020833334
141,0.9850243462456597
142,0.9858432345920138
143,0.9858025444878472
144,0.9856855604383681
145,0.9845462375217013
146,0.9858211941189237
147,0.9853040907118056
148,0.9847361246744791
149,0.9849429660373263
150,0.9851294623480903
151,0.9844750298394097
152,0.9853871663411459
153,0.9855634901258681
154,0.9853481716579862
155,0.9849667019314237
156,0.9856465657552084
157,0.9858483208550347
158,0.9854617648654513
159,0.9857109917534722
160,0.9858924018012153
161,0.9861551920572916
162,0.9860415988498263
163,0.9861501057942709
164,0.9855889214409722
165,0.9852023654513888
166,0.9844529893663194
167,0.9858652750651041
168,0.9860466851128472
169,0.9859602186414931
170,0.9857262505425347
171,0.9857059054904513
172,0.9855804443359375
173,0.9865078396267362
174,0.9859500461154513
175,0.9858364529079862
176,0.9863552517361112
177,0.9858551025390625
178,0.9868910047743056
179,0.9857855902777778
180,0.9863874647352431
181,0.9864230685763888
182,0.9862806532118056
183,0.986328125
184,0.9868214925130209
185,0.9871877034505209
186,0.9861840142144097
187,0.9867045084635416
188,0.9870537651909722
189,0.9868316650390625
190,0.9866265190972222
191,0.9863552517361112
192,0.9869350857204862
193,0.9868927001953125
194,0.9870741102430556
195,0.9872911241319444
196,0.9870317247178819
197,0.9872724745008681
198,0.9875081380208334
199,0.9877641465928819
200,0.9875098334418403
201,0.9874369303385416
202,0.9880913628472222
203,0.9880405002170138
204,0.9880794949001737
205,0.9874233669704862
206,0.9871724446614584
207,0.9874487982855903
208,0.9881388346354166
209,0.9878472222222222
210,0.9877234564887153
211,0.9880201551649306
212,0.9879065619574653
213,0.9879947238498263
214,0.9881083170572916
215,0.9887068006727431
216,0.9884084065755209
217,0.9883338080512153
218,0.9890560574001737
219,0.9887152777777778
220,0.9886949327256944
221,0.9887864854600694
222,0.9887966579861112
223,0.9889356825086806
224,0.9888153076171875
225,0.9883524576822916
226,0.9887017144097222
227,0.9888543023003472
228,0.9887813991970487
229,0.9888949924045138
230,0.9892442491319444
231,0.9894290500217013
232,0.9890899658203125
233,0.9891747368706597
234,0.9886966281467013
235,0.9889763726128472
236,0.9896765814887153
237,0.9894476996527778
238,0.9895782470703125
239,0.9892391628689237
240,0.9892018636067709
241,0.9895477294921875
242,0.9891001383463541
243,0.9892968071831597
244,0.9897749159071181
245,0.9899868435329862
246,0.9900614420572916
247,0.9904513888888888
248,0.9902411566840278
249,0.9894968668619791
250,0.9900495741102431
251,0.9899275037977431
252,0.9898885091145834
253,0.9900360107421875
254,0.9901563856336806
255,0.9898596869574653
256,0.9899885389539931
257,0.9903055826822916
258,0.9899122450086806
259,0.9896647135416666
260,0.9900360107421875
261,0.9898630777994791
262,0.9904123942057291
263,0.9903733995225694
264,0.9899766710069444
265,0.9907514784071181
266,0.9898308648003472
267,0.9905022515190972
268,0.9897410074869791
269,0.9901292588975694
270,0.9901377360026041
271,0.9904971652560763
272,0.9909006754557291
273,0.9909701877170138
274,0.9903988308376737
275,0.9908667670355903
276,0.9902886284722222
277,0.9902462429470487
278,0.9905310736762153
279,0.9909040662977431
280,0.9910396999782987
281,0.9910312228732638
282,0.9911227756076388
283,0.9905819363064237
284,0.9908379448784722
285,0.9912499321831597
286,0.9912261962890625
287,0.9912312825520834
288,0.9913075764973959
289,0.9915313720703125
290,0.9919230143229166
291,0.9912482367621528
292,0.9913143581814237
293,0.9908413357204862
294,0.99114990234375
295,0.9915093315972222
296,0.9911651611328125
297,0.9917314317491319
298,0.9917280409071181
299,0.9913245307074653
300,0.9917229546440972
301,0.9916890462239584
302,0.9916754828559028
303,0.9918297661675347
304,0.992218017578125
305,0.9918924967447916
306,0.9918467203776041
307,0.9917805989583334
308,0.9919314914279513
309,0.9922841389973959
310,0.9923994276258681
311,0.9921027289496528
312,0.9922875298394097
313,0.9922502305772569
314,0.992340087890625
315,0.9925706651475694
316,0.9926045735677084
317,0.9920789930555556
318,0.9929368760850694
319,0.9923027886284722
320,0.9928080240885416
321,0.9926639133029513
322,0.9925859239366319
323,0.9926842583550347
324,0.9925367567274306
325,0.9927690294053819
326,0.9926808675130209
327,0.9930165608723959
328,0.9930792914496528
329,0.992950439453125
330,0.9928317599826388
331,0.9927486843532987
332,0.9930674235026041
333,0.9930148654513888
334,0.9930775960286459
335,0.9933081732855903
336,0.9933064778645834
337,0.9932488335503472
338,0.9934370252821181
339,0.9933064778645834
340,0.9936811659071181
341,0.993560791015625
342,0.9934217664930556
343,0.9936489529079862
344,0.9937235514322916
345,0.9938540988498263
346,0.9933827718098959
347,0.9935455322265625
348,0.9936896430121528
349,0.9937218560112847
350,0.9937811957465278
351,0.9937337239583334
352,0.9940524631076388
353,0.9939524332682291
354,0.9942609998914931
355,0.9941168891059028
356,0.9942881266276041
357,0.9942881266276041
358,0.9941423204210069
359,0.9939795600043403
360,0.9942304823133681
361,0.9942982991536459
362,0.9941304524739584
363,0.9944390190972222
364,0.9943423800998263
365,0.9944729275173612
366,0.9947289360894097
367,0.9948187934027778
368,0.9947713216145834
369,0.9948374430338541
370,0.9948713514539931
371,0.9947848849826388
372,0.9951494004991319
373,0.9950052897135416
374,0.9950815836588541
375,0.9950052897135416
376,0.9950375027126737
377,0.9953223334418403
378,0.9952256944444444
379,0.9952562120225694
380,0.9953562418619791
381,0.9952256944444444
382,0.9952731662326388
383,0.9954817030164931
384,0.9952646891276041
385,0.9954918755425347
386,0.9954308403862847
387,0.9955325656467013
388,0.9956173366970487
389,0.9956105550130209
390,0.9958275689019097
391,0.9955190022786459
392,0.9958123101128472
393,0.9957275390625
394,0.9957512749565972
395,0.9958157009548612
396,0.9958241780598959
397,0.9957902696397569
398,0.9958902994791666
399,0.9960293240017362
400,0.9960293240017362
401,0.9962209065755209
402,0.9960361056857638
403,0.9963260226779513
404,0.9961886935763888
405,0.9962022569444444
406,0.9962175157335069
407,0.9961463080512153
408,0.9961598714192709
409,0.9964090983072916
410,0.9963311089409722
411,0.9964413113064237
412,0.9963090684678819
413,0.9964684380425347
414,0.9965922037760416
415,0.9967193603515625
416,0.9966515435112847
417,0.9966973198784722
418,0.9968516031901041
419,0.9967024061414931
420,0.9967600504557291
421,0.9968583848741319
422,0.9970211452907987
423,0.9968634711371528
424,0.9970211452907987
425,0.9971771240234375
426,0.9972347683376737
427,0.9972025553385416
428,0.997100830078125
429,0.9973212348090278
430,0.9971889919704862
431,0.9973907470703125
432,0.9974093967013888
433,0.9974636501736112
434,0.9975992838541666
435,0.9975365532769097
436,0.9975399441189237
437,0.9976264105902778
438,0.9977179633246528
439,0.9977756076388888
440,0.997772216796875
441,0.9978807237413194
442,0.9978858100043403
443,0.9978535970052084
444,0.9978892008463541
445,0.9979671902126737
446,0.9979112413194444
447,0.9980316162109375
448,0.9980316162109375
449,0.9981553819444444
450,0.9982079399956597
451,0.9981706407335069
452,0.9982825385199653
453,0.9983808729383681
454,0.9983673095703125
455,0.9984910753038194
456,0.9984893798828125
457,0.9984707302517362
458,0.9985334608289931
459,0.9985707600911459
460,0.9985724555121528
461,0.9985860188802084
462,0.9986657036675347
463,0.9988301595052084
464,0.9988267686631944
465,0.9988962809244791
466,0.9988182915581597
467,0.9989064534505209
468,0.9989674886067709
469,0.9990505642361112
470,0.999053955078125
471,0.9991234673394097
472,0.9992302788628472
473,0.9991726345486112
474,0.9992658827039931
475,0.9992879231770834
476,0.9992997911241319
477,0.9993811713324653
478,0.9994066026475694
479,0.9994489881727431
480,0.9994930691189237
481,0.9995388454861112
482,0.9995795355902778
483,0.9995914035373263
484,0.9996575249565972
485,0.9997270372178819
486,0.9997456868489584
487,0.9997711181640625
488,0.9998185899522569
489,0.9999033610026041
490,0.9999457465277778
1,0.9753604465060763
2,0.9735480414496528
3,0.9742329915364584
4,0.9767930772569444
5,0.9764675564236112
6,0.9768015543619791
7,0.9777781168619791
8,0.9776051839192709
9,0.9776679144965278
10,0.9786393907335069
11,0.9784630669487847
12,0.9790835910373263
13,0.9795718722873263
14,0.9798024495442709
15,0.97955322265625
16,0.9804941813151041
17,0.9798431396484375
18,0.9798516167534722
19,0.9804399278428819
20,0.9800533718532987
21,0.9803670247395834
22,0.9803178575303819
23,0.9800533718532987
24,0.9805263943142362
25,0.9801483154296875
26,0.9806806776258681
27,0.9799855550130209
28,0.9805230034722222
29,0.9804467095269097
30,0.9815741644965278
31,0.9809078640407987
32,0.9816555447048612
33,0.9808807373046875
34,0.9815300835503472
35,0.9815300835503472
36,0.9813317192925347
37,0.9813317192925347
38,0.9813741048177084
39,0.9821811252170138
40,0.9807349310980903
41,0.9811587863498263
42,0.9815249972873263
43,0.9809485541449653
44,0.9815775553385416
45,0.9817148844401041
46,0.9806789822048612
47,0.9803585476345487
48,0.9812113444010416
49,0.9809519449869791
