1,0.9865230984157987
2,0.9873809814453125
3,0.9883609347873263
4,0.9879947238498263
5,0.9883965386284722
6,0.9880337185329862
7,0.9887288411458334
8,0.9885355631510416
9,0.9886220296223959
10,0.9889356825086806
11,0.9888966878255209
12,0.9888712565104166
13,0.9885626898871528
14,0.9891204833984375
15,0.9886508517795138
16,0.988861083984375
17,0.9887271457248263
18,0.9891798231336806
19,0.9894426133897569
20,0.9892391628689237
21,0.9896765814887153
22,0.9899020724826388
23,0.989837646484375
24,0.9900122748480903
25,0.9897545708550347
26,0.9900071885850694
27,0.9898139105902778
28,0.9898393419053819
29,0.9896562364366319
30,0.9899664984809028
31,0.9890764024522569
32,0.9895579020182291
33,0.9889339870876737
34,0.9891510009765625
35,0.9889153374565972
36,0.9891289605034722
37,0.9896121554904513
38,0.9891832139756944
39,0.989349365234375
40,0.9891984727647569
41,0.989044189453125
42,0.9898257785373263
43,0.9896579318576388
44,0.9893239339192709
45,0.990234375
46,0.990142822265625
47,0.9900258382161459
48,0.9902242024739584
49,0.9897240532769097
50,0.9895036485460069
51,0.9899427625868056
52,0.9900190565321181
53,0.9903683132595487
54,0.9902394612630209
55,0.990234375
56,0.9903971354166666
57,0.9901123046875
58,0.9900546603732638
59,0.990478515625
60,0.9905802408854166
61,0.9907565646701388
62,0.9903649224175347
63,0.9901173909505209
64,0.9905056423611112
65,0.9909735785590278
66,0.9906700981987847
67,0.9909278021918403
68,0.9908175998263888
69,0.9906582302517362
70,0.9908972846137153
71,0.9912346733940972
72,0.9908582899305556
73,0.9908921983506944
74,0.9909464518229166
75,0.9911973741319444
76,0.9912160237630209
77,0.9905768500434028
78,0.9914771185980903
79,0.9906650119357638
80,0.9910651312934028
81,0.9915042453342013
82,0.991119384765625
83,0.9912601047092013
84,0.9909396701388888
85,0.9912228054470487
86,0.9911770290798612
87,0.9910244411892362
88,0.9915686713324653
89,0.9912821451822916
90,0.9912245008680556
91,0.9912584092881944
92,0.9909108479817709
93,0.9908989800347222
94,0.9914839002821181
95,0.991119384765625
96,0.9915398491753472
97,0.9914042154947916
98,0.9913313123914931
99,0.9912075466579862
100,0.9914940728081597
101,0.9911939832899306
102,0.9912143283420138
103,0.9912838406032987
104,0.9915449354383681
105,0.9914008246527778
106,0.9913211398654513
107,0.9914364284939237
108,0.9914805094401041
109,0.9914584689670138
110,0.99151611328125
111,0.9917466905381944
112,0.9914652506510416
113,0.9918891059027778
114,0.9921891954210069
115,0.9919993082682291
116,0.991485595703125
117,0.9918246799045138
118,0.9920060899522569
119,0.9916907416449653
120,0.9919772677951388
121,0.9917822943793403
122,0.9915347629123263
123,0.9918653700086806
124,0.992095947265625
125,0.9921807183159722
126,0.9920332166883681
127,0.9921196831597222
128,0.9920484754774306
129,0.9920705159505209
130,0.9921925862630209
131,0.9922146267361112
132,0.9924350314670138
133,0.9921247694227431
134,0.9920060899522569
135,0.9919009738498263
136,0.9919704861111112
137,0.9920399983723959
138,0.9919603135850694
139,0.9918026394314237
140,0.9919365776909722
141,0.9926028781467013
142,0.9923129611545138
143,0.9926639133029513
144,0.9923977322048612
145,0.9921213785807291
146,0.9924740261501737
147,0.9923451741536459
148,0.9922875298394097
149,0.9922977023654513
150,0.9920010036892362
151,0.9920518663194444
152,0.9921688503689237
153,0.9922366672092013
154,0.9921298556857638
155,0.9921756320529513
156,0.9921824137369791
157,0.9920874701605903
158,0.9921010335286459
159,0.9924570719401041
160,0.9922366672092013
161,0.9924825032552084
162,0.9926774766710069
163,0.9928775363498263
164,0.9926808675130209
165,0.9928097195095487
166,0.9926384819878472
167,0.9927113850911459
168,0.9927266438802084
169,0.9924774169921875
170,0.9928249782986112
171,0.99285888671875
172,0.9928961859809028
173,0.9930623372395834
174,0.9932217068142362
175,0.9931555853949653
176,0.9932793511284722
177,0.9929673936631944
178,0.9932590060763888
179,0.9930623372395834
180,0.9933081732855903
181,0.9926588270399306
182,0.9932776557074653
183,0.9934726291232638
184,0.9933963351779513
185,0.9934522840711806
186,0.9930046929253472
187,0.9934031168619791
188,0.9934098985460069
189,0.9933454725477431
190,0.9933386908637153
191,0.993438720703125
192,0.993438720703125
193,0.9936489529079862
194,0.9932776557074653
195,0.9934132893880209
196,0.9935557047526041
197,0.9935319688585069
198,0.9934726291232638
199,0.9935709635416666
200,0.9934200710720487
201,0.99346923828125
202,0.9933217366536459
203,0.9933878580729166
204,0.9937710232204862
205,0.9936862521701388
206,0.9940507676866319
207,0.9936252170138888
208,0.9935048421223959
209,0.9939015706380209
210,0.9939422607421875
211,0.9939863416883681
212,0.9941389295789931
213,0.9939999050564237
214,0.9942626953125
215,0.9938422309027778
216,0.9940846761067709
217,0.9938913981119791
218,0.9937693277994791
219,0.9938981797960069
220,0.9938100179036459
221,0.9935709635416666
222,0.9940592447916666
223,0.9940439860026041
224,0.9940168592664931
225,0.9940846761067709
226,0.9941609700520834
227,0.9941033257378472
228,0.9940948486328125
229,0.9945644802517362
230,0.9940253363715278
231,0.9942525227864584
232,0.9944237603081597
233,0.9945526123046875
234,0.9945000542534722
235,0.9944831000434028
236,0.9942304823133681
237,0.9944169786241319
238,0.9941050211588541
239,0.9941423204210069
240,0.9945119222005209
241,0.9947001139322916
242,0.9944915771484375
243,0.9945763481987847
244,0.9947526719835069
245,0.9945237901475694
246,0.9943508572048612
247,0.9944797092013888
248,0.9946068657769097
249,0.9945865207248263
250,0.9948187934027778
251,0.99468994140625
252,0.9949239095052084
253,0.9950307210286459
254,0.9948866102430556
255,0.9948798285590278
256,0.9948662651909722
257,0.9948272705078125
258,0.9949306911892362
259,0.9948560926649306
260,0.9948950873480903
261,0.9948866102430556
262,0.9948408338758681
263,0.9947797987196181
264,0.9951171875
265,0.9950222439236112
266,0.9950832790798612
267,0.9949679904513888
268,0.9952799479166666
269,0.9949069552951388
270,0.9951087103949653
271,0.9952545166015625
272,0.9951900906032987
273,0.9949612087673612
274,0.9948984781901041
275,0.9950273301866319
276,0.9950578477647569
277,0.9950476752387153
278,0.9953172471788194
279,0.9951816134982638
280,0.9953528510199653
281,0.9956190321180556
282,0.9955190022786459
283,0.9952985975477431
284,0.9951799180772569
285,0.9954087999131944
286,0.9953121609157987
287,0.9955563015407987
288,0.9955936008029513
289,0.9953596327039931
290,0.9956444634331597
291,0.99554443359375
292,0.995361328125
293,0.9955274793836806
294,0.9955817328559028
295,0.9955376519097222
296,0.995513916015625
297,0.9957105848524306
298,0.9957970513237847
299,0.9958055284288194
300,0.9958394368489584
301,0.9958021375868056
302,0.9957784016927084
303,0.9957767062717013
304,0.9957326253255209
305,0.9959242078993056
306,0.9958970811631944
307,0.9960717095269097
308,0.9959869384765625
309,0.9959428575303819
310,0.9958309597439237
311,0.9960700141059028
312,0.9958987765842013
313,0.9960361056857638
314,0.9961463080512153
315,0.9961259629991319
316,0.9961259629991319
317,0.9962802463107638
318,0.9961937798394097
319,0.9962107340494791
320,0.9960903591579862
321,0.996307373046875
322,0.9964786105685763
323,0.9964023166232638
324,0.9963938395182291
325,0.9964175754123263
326,0.9962582058376737
327,0.9962870279947916
328,0.9964396158854166
329,0.9964277479383681
330,0.9964260525173612
331,0.996307373046875
332,0.9962683783637153
333,0.9966091579861112
334,0.9965176052517362
335,0.9965226915147569
336,0.9965786404079862
337,0.9966261121961806
338,0.9965905083550347
339,0.996734619140625
340,0.9967905680338541
341,0.9968549940321181
342,0.9966244167751737
343,0.9968193901909722
344,0.9965752495659722
345,0.9967464870876737
346,0.9968702528211806
347,0.9968143039279513
348,0.9968889024522569
349,0.9969550238715278
350,0.9969346788194444
351,0.9969601101345487
352,0.9968821207682291
353,0.9970567491319444
354,0.9968956841362847
355,0.9968617757161459
356,0.9969889322916666
357,0.99700927734375
358,0.9970431857638888
359,0.9970601399739584
360,0.9971211751302084
361,0.9971194797092013
362,0.9971364339192709
363,0.9971703423394097
364,0.9971330430772569
365,0.9971059163411459
366,0.9971839057074653
367,0.9972873263888888
368,0.9971432156032987
369,0.9973500569661459
370,0.9973076714409722
371,0.9973042805989584
372,0.9975145128038194
373,0.9975128173828125
374,0.99749755859375
375,0.9974907769097222
376,0.9974789089626737
377,0.9974043104383681
378,0.9975772433810763
379,0.9975229899088541
380,0.9975738525390625
381,0.9976654052734375
382,0.9975450303819444
383,0.9975806342230903
384,0.9976230197482638
385,0.9976467556423612
386,0.9977484809027778
387,0.9977400037977431
388,0.9977400037977431
389,0.9977840847439237
390,0.9976552327473959
391,0.9978671603732638
392,0.9977925618489584
393,0.9978654649522569
394,0.9978061252170138
395,0.9978485107421875
396,0.9978502061631944
397,0.9979773627387153
398,0.9979265001085069
399,0.9980723063151041
400,0.9979807535807291
401,0.9980231391059028
402,0.9980977376302084
403,0.9979875352647569
404,0.9981214735243056
405,0.9980383978949653
406,0.9980400933159722
407,0.9982316758897569
408,0.9981858995225694
409,0.9982231987847222
410,0.9981977674696181
411,0.9982588026258681
412,0.9982181125217013
413,0.9983588324652778
414,0.9983130560980903
415,0.9982350667317709
416,0.9982757568359375
417,0.9983418782552084
418,0.9983842637803819
419,0.9983740912543403
420,0.9984113905164931
421,0.9983317057291666
422,0.9984673394097222
423,0.9985995822482638
424,0.9985588921440972
425,0.9986182318793403
426,0.9985571967230903
427,0.9987013075086806
428,0.9986165364583334
429,0.9986673990885416
430,0.9985487196180556
431,0.9987284342447916
432,0.9987131754557291
433,0.9987521701388888
434,0.9986792670355903
435,0.9987759060329862
436,0.9987809922960069
437,0.9987826877170138
438,0.9987979465060763
439,0.9989132351345487
440,0.9988776312934028
441,0.9989759657118056
442,0.9989437527126737
443,0.9990047878689237
444,0.9989827473958334
445,0.9989539252387153
446,0.9990098741319444
447,0.9990963406032987
448,0.9991234673394097
449,0.9991200764973959
450,0.9990759955512153
451,0.9990793863932291
452,0.9991183810763888
453,0.9991743299696181
454,0.9992167154947916
455,0.999237060546875
456,0.9992557101779513
457,0.9992455376519097
458,0.9992794460720487
459,0.9993014865451388
460,0.9993184407552084
461,0.9993421766493056
462,0.9993235270182291
463,0.9993608262803819
464,0.999359130859375
465,0.9993726942274306
466,0.9994269476996528
467,0.9994845920138888
468,0.9994930691189237
469,0.9994879828559028
470,0.9995201958550347
471,0.9995557996961806
472,0.9995541042751737
473,0.9995795355902778
474,0.9996236165364584
475,0.9996371799045138
476,0.9996880425347222
477,0.9996846516927084
478,0.9997151692708334
479,0.9997473822699653
480,0.9997575547960069
481,0.9997846815321181
482,0.9997999403211806
483,0.9998406304253472
484,0.9998287624782987
485,0.9998660617404513
486,0.9998813205295138
487,0.9999254014756944
488,0.9999203152126737
489,0.9999440511067709
490,0.9999627007378472
1,0.9865230984157987
2,0.9873809814453125
3,0.9883609347873263
4,0.9879947238498263
5,0.9883965386284722
6,0.9880337185329862
7,0.9887288411458334
8,0.9885355631510416
9,0.9886220296223959
10,0.9889356825086806
11,0.9888966878255209
12,0.9888712565104166
13,0.9885626898871528
14,0.9891204833984375
15,0.9886508517795138
16,0.988861083984375
17,0.9887271457248263
18,0.9891798231336806
19,0.9894426133897569
20,0.9892391628689237
21,0.9896765814887153
22,0.9899020724826388
23,0.989837646484375
24,0.9900122748480903
25,0.9897545708550347
26,0.9900071885850694
27,0.9898139105902778
28,0.9898393419053819
29,0.9896562364366319
30,0.9899664984809028
31,0.9890764024522569
32,0.9895579020182291
33,0.9889339870876737
34,0.9891510009765625
35,0.9889153374565972
36,0.9891289605034722
37,0.9896121554904513
38,0.9891832139756944
39,0.989349365234375
40,0.9891984727647569
41,0.989044189453125
42,0.9898257785373263
43,0.9896579318576388
44,0.9893239339192709
45,0.990234375
46,0.990142822265625
47,0.9900258382161459
48,0.9902242024739584
49,0.9897240532769097
