1,0.9755215115017362
2,0.9803975423177084
3,0.9850006103515625
4,0.9876539442274306
5,0.9878031412760416
6,0.9873267279730903
7,0.9858856201171875
8,0.9864315456814237
9,0.9840325249565972
10,0.9813486735026041
11,0.9823421902126737
12,0.9803568522135416
13,0.9815656873914931
14,0.9829576280381944
15,0.9828355577256944
16,0.9809315999348959
17,0.9809417724609375
18,0.9825829399956597
19,0.9813690185546875
20,0.9818267822265625
21,0.9819505479600694
22,0.9829169379340278
23,0.9832034640842013
24,0.9818844265407987
25,0.9811655680338541
26,0.9807027180989584
27,0.9821997748480903
28,0.9812520345052084
29,0.9828135172526041
30,0.9817064073350694
31,0.9815317789713541
32,0.980621337890625
33,0.9835764567057291
34,0.9825998942057291
35,0.9819522433810763
36,0.9834374321831597
37,0.9825066460503472
38,0.9819318983289931
39,0.9817369249131944
40,0.9828711615668403
41,0.9824591742621528
42,0.98162841796875
43,0.9831610785590278
44,0.9842342800564237
45,0.9839952256944444
46,0.9849938286675347
47,0.9852922227647569
48,0.9850345187717013
49,0.9836798773871528
50,0.9843546549479166
51,0.9838307698567709
52,0.9831000434027778
53,0.9839426676432291
54,0.9841681586371528
55,0.9831203884548612
56,0.9842003716362847
57,0.9837849934895834
58,0.9840528700086806
59,0.9830966525607638
60,0.9835798475477431
61,0.9824506971571181
62,0.9815809461805556
63,0.9833051893446181
64,0.9828033447265625
65,0.9829321967230903
66,0.9831169976128472
67,0.983489990234375
68,0.9839291042751737
69,0.9846021864149306
70,0.9838731553819444
71,0.9834781222873263
72,0.9845343695746528
73,0.9845191107855903
74,0.9832814534505209
75,0.9835832383897569
76,0.9841088189019097
77,0.9843241373697916
78,0.9836222330729166
79,0.9832238091362847
80,0.9832187228732638
81,0.9848904079861112
82,0.9844699435763888
83,0.9844377305772569
84,0.9844106038411459
85,0.9843275282118056
86,0.9841800265842013
87,0.9845106336805556
88,0.9851260715060763
89,0.9854312472873263
90,0.9850565592447916
91,0.9858839246961806
92,0.9866553412543403
93,0.9864620632595487
94,0.9857923719618056
95,0.9853685167100694
96,0.9845971001519097
97,0.9854041205512153
98,0.9861467149522569
99,0.9859076605902778
100,0.9854007297092013
101,0.9859805636935763
102,0.9863840738932291
103,0.9858110215928819
104,0.9864824083116319
105,0.9866434733072916
106,0.9865078396267362
107,0.9860721164279513
108,0.9864603678385416
109,0.9876607259114584
110,0.9869656032986112
111,0.9869232177734375
112,0.9881167941623263
113,0.9872707790798612
114,0.9870096842447916
115,0.9867231580946181
116,0.9877048068576388
117,0.9874047173394097
118,0.9858313666449653
119,0.985748291015625
120,0.9861738416883681
121,0.9865553114149306
122,0.9872860378689237
123,0.9868028428819444
124,0.9857635498046875
125,0.9864264594184028
126,0.9855228000217013
127,0.9864434136284722
128,0.9864993625217013
129,0.9871114095052084
130,0.9867791069878472
131,0.9863518608940972
132,0.9858737521701388
133,0.9867587619357638
134,0.9871419270833334
135,0.9856855604383681
136,0.9862196180555556
137,0.9863569471571181
138,0.9866044786241319
139,0.9862535264756944
140,0.9873792860243056
141,0.9862331814236112
142,0.9857974582248263
143,0.985137939453125
144,0.9842749701605903
145,0.9850989447699653
146,0.9849989149305556
147,0.9864756266276041
148,0.9870232476128472
149,0.9870927598741319
150,0.9866570366753472
151,0.9875708685980903
152,0.9861416286892362
153,0.9867621527777778
154,0.9866841634114584
155,0.9873080783420138
156,0.987060546875
157,0.9874233669704862
158,0.9875115288628472
159,0.9873402913411459
160,0.9871978759765625
161,0.9871673583984375
162,0.9877827962239584
163,0.9873741997612847
164,0.9877709282769097
165,0.9879201253255209
166,0.987823486328125
167,0.9878997802734375
168,0.9880337185329862
169,0.9876607259114584
170,0.9872266981336806
171,0.9882659912109375
172,0.9880269368489584
173,0.9877726236979166
174,0.9884830050998263
175,0.9880303276909722
176,0.9884677463107638
177,0.9875912136501737
178,0.9872470431857638
179,0.9887542724609375
180,0.9882626003689237
181,0.9876013861762153
182,0.9879692925347222
183,0.9889780680338541
184,0.9883168538411459
185,0.9878777398003472
186,0.9879150390625
187,0.9881354437934028
188,0.9875725640190972
189,0.9883965386284722
190,0.9888170030381944
191,0.9881201850043403
192,0.9887763129340278
193,0.9886813693576388
194,0.9883083767361112
195,0.9885338677300347
196,0.9890645345052084
197,0.9886830647786459
198,0.9891679551866319
199,0.9894375271267362
200,0.9892391628689237
201,0.9891357421875
202,0.9892713758680556
203,0.9894900851779513
204,0.9896613226996528
205,0.9895782470703125
206,0.9900546603732638
207,0.9897172715928819
208,0.9895138210720487
209,0.9902682834201388
210,0.9905632866753472
211,0.9900343153211806
212,0.989990234375
213,0.9900173611111112
214,0.9897427029079862
215,0.9892764621310763
216,0.9896087646484375
217,0.9898935953776041
218,0.9892730712890625
219,0.989013671875
220,0.9896460639105903
221,0.9900919596354166
222,0.9901479085286459
223,0.9895850287543403
224,0.9893764919704862
225,0.9895595974392362
226,0.9904039171006944
227,0.9901275634765625
228,0.9904717339409722
229,0.9903683132595487
230,0.9903310139973959
231,0.9899495442708334
232,0.9899088541666666
233,0.9898630777994791
234,0.989990234375
235,0.9895409478081597
236,0.9895222981770834
237,0.9899461534288194
238,0.9896799723307291
239,0.9900987413194444
240,0.989654541015625
241,0.9896477593315972
242,0.9903632269965278
243,0.9904157850477431
244,0.990692138671875
245,0.9905582004123263
246,0.9900122748480903
247,0.9893747965494791
248,0.9893798828125
249,0.9901852077907987
250,0.9895104302300347
251,0.9896579318576388
252,0.989776611328125
253,0.9902208116319444
254,0.9903174506293403
255,0.9903055826822916
256,0.9905293782552084
257,0.9903598361545138
258,0.9910007052951388
259,0.9909227159288194
260,0.9901377360026041
261,0.99078369140625
262,0.9904056125217013
263,0.9907158745659722
264,0.9910380045572916
265,0.9902886284722222
266,0.9914923773871528
267,0.9911363389756944
268,0.9908226860894097
269,0.9910295274522569
270,0.991607666015625
271,0.9915398491753472
272,0.9911126030815972
273,0.9918551974826388
274,0.9914330376519097
275,0.9920247395833334
276,0.9917263454861112
277,0.9919925265842013
278,0.9922332763671875
279,0.9918467203776041
280,0.9915093315972222
281,0.9918178982204862
282,0.9917416042751737
283,0.9922502305772569
284,0.9918162027994791
285,0.9921807183159722
286,0.9922604031032987
287,0.9926300048828125
288,0.9921332465277778
289,0.9921841091579862
290,0.9919620090060763
291,0.9921688503689237
292,0.9921230740017362
293,0.9927808973524306
294,0.9923858642578125
295,0.9919908311631944
296,0.9927029079861112
297,0.9926232231987847
298,0.9925740559895834
299,0.9926113552517362
300,0.99267578125
301,0.9926656087239584
302,0.9926096598307291
303,0.9929521348741319
304,0.9927300347222222
305,0.9930369059244791
306,0.9928063286675347
307,0.9926605224609375
308,0.9924401177300347
309,0.9925113254123263
310,0.9931267632378472
311,0.9926774766710069
312,0.9931352403428819
313,0.9929165310329862
314,0.9932047526041666
315,0.9929928249782987
316,0.9925672743055556
317,0.9933115641276041
318,0.99267578125
319,0.9930860731336806
320,0.9931115044487847
321,0.9931471082899306
322,0.9935336642795138
323,0.9929928249782987
324,0.9934624565972222
325,0.993133544921875
326,0.9933132595486112
327,0.9935980902777778
328,0.9930182562934028
329,0.9935506184895834
330,0.9938473171657987
331,0.9938557942708334
332,0.993988037109375
333,0.993927001953125
334,0.9941660563151041
335,0.9943966335720487
336,0.9941694471571181
337,0.9942253960503472
338,0.9940253363715278
339,0.9940660264756944
340,0.9938863118489584
341,0.9943406846788194
342,0.9942372639973959
343,0.9944491916232638
344,0.9941864013671875
345,0.9940711127387153
346,0.9945882161458334
347,0.9944203694661459
348,0.994232177734375
349,0.9944661458333334
350,0.9945153130425347
351,0.9947357177734375
352,0.9943355984157987
353,0.9947475857204862
354,0.9947340223524306
355,0.9948052300347222
356,0.9947018093532987
357,0.9951019287109375
358,0.9947764078776041
359,0.9948510064019097
360,0.9950069851345487
361,0.9945509168836806
362,0.9948900010850694
363,0.9952443440755209
364,0.995208740234375
365,0.9950086805555556
366,0.9950544569227431
367,0.9948900010850694
368,0.9953579372829862
369,0.9951578776041666
370,0.9952799479166666
371,0.9950391981336806
372,0.9948493109809028
373,0.9953850640190972
374,0.9953342013888888
375,0.9956800672743056
376,0.9955206976996528
377,0.9953596327039931
378,0.9955274793836806
379,0.9955579969618056
380,0.9954189724392362
381,0.995880126953125
382,0.9955308702256944
383,0.995758056640625
384,0.9958767361111112
385,0.9957767062717013
386,0.9959004720052084
387,0.9958818223741319
388,0.9955851236979166
389,0.9960751003689237
390,0.9958021375868056
391,0.9962175157335069
392,0.9961344401041666
393,0.9962005615234375
394,0.9961700439453125
395,0.99639892578125
396,0.9964175754123263
397,0.9963344997829862
398,0.996429443359375
399,0.9962514241536459
400,0.9964141845703125
401,0.9963463677300347
402,0.9965888129340278
403,0.9965464274088541
404,0.9965277777777778
405,0.9965871175130209
406,0.9966498480902778
407,0.9967515733506944
408,0.9969397650824653
409,0.9968227810329862
410,0.9970601399739584
411,0.9970923529730903
412,0.9969380696614584
413,0.9971364339192709
414,0.9969736735026041
415,0.9969346788194444
416,0.9969550238715278
417,0.9972144232855903
418,0.9972212049696181
419,0.9972941080729166
420,0.9972771538628472
421,0.9972398546006944
422,0.9972924126519097
423,0.9973415798611112
424,0.9971974690755209
425,0.9971194797092013
426,0.9973263210720487
427,0.9974839952256944
428,0.9975111219618056
429,0.9976094563802084
430,0.9977213541666666
431,0.9976806640625
432,0.9977060953776041
433,0.9977145724826388
434,0.9977806939019097
435,0.9978858100043403
436,0.9978485107421875
437,0.9980027940538194
438,0.9980316162109375
439,0.9980875651041666
440,0.9981011284722222
441,0.9981418185763888
442,0.9980502658420138
443,0.9981706407335069
444,0.9983367919921875
445,0.9981197781032987
446,0.998260498046875
447,0.9982859293619791
448,0.9984419080946181
449,0.9984639485677084
450,0.9984622531467013
451,0.9984147813585069
452,0.9984656439887153
453,0.9984029134114584
454,0.9986080593532987
455,0.9985402425130209
456,0.9985521104600694
457,0.9986182318793403
458,0.9986758761935763
459,0.9987165662977431
460,0.9989064534505209
461,0.9988589816623263
462,0.9989420572916666
463,0.9989352756076388
464,0.9989844428168403
465,0.9989691840277778
466,0.9990658230251737
467,0.9990895589192709
468,0.9991302490234375
469,0.9991472032335069
470,0.9992184109157987
471,0.9992082383897569
472,0.9992472330729166
473,0.9992624918619791
474,0.9993794759114584
475,0.9993913438585069
476,0.9994235568576388
477,0.9994778103298612
478,0.9994981553819444
479,0.9995625813802084
480,0.9996100531684028
481,0.999664306640625
482,0.9996660020616319
483,0.9997134738498263
484,0.9997287326388888
485,0.999755859375
486,0.9998304578993056
487,0.9998508029513888
488,0.9998796251085069
489,0.9999101426866319
490,0.9999457465277778
1,0.9755215115017362
2,0.9803975423177084
3,0.9850006103515625
4,0.9876539442274306
5,0.9878031412760416
6,0.9873267279730903
7,0.9858856201171875
8,0.9864315456814237
9,0.9840325249565972
10,0.9813486735026041
11,0.9823421902126737
12,0.9803568522135416
13,0.9815656873914931
14,0.9829576280381944
15,0.9828355577256944
16,0.9809315999348959
17,0.9809417724609375
18,0.9825829399956597
19,0.9813690185546875
20,0.9818267822265625
21,0.9819505479600694
22,0.9829169379340278
23,0.9832034640842013
24,0.9818844265407987
25,0.9811655680338541
26,0.9807027180989584
27,0.9821997748480903
28,0.9812520345052084
29,0.9828135172526041
30,0.9817064073350694
31,0.9815317789713541
32,0.980621337890625
33,0.9835764567057291
34,0.9825998942057291
35,0.9819522433810763
36,0.9834374321831597
37,0.9825066460503472
38,0.9819318983289931
39,0.9817369249131944
40,0.9828711615668403
41,0.9824591742621528
42,0.98162841796875
43,0.9831610785590278
44,0.9842342800564237
45,0.9839952256944444
46,0.9849938286675347
47,0.9852922227647569
48,0.9850345187717013
49,0.9836798773871528
