1,0.9823218451605903
2,0.9847581651475694
3,0.9894510904947916
4,0.9897850884331597
5,0.9905887179904513
6,0.9894697401258681
7,0.9891645643446181
8,0.9896867540147569
9,0.9875708685980903
10,0.9862874348958334
11,0.9879116482204862
12,0.9867791069878472
13,0.9866451687282987
14,0.9859534369574653
15,0.9852023654513888
16,0.9865943060980903
17,0.9872063530815972
18,0.9872114393446181
19,0.9870876736111112
20,0.9869520399305556
21,0.9867265489366319
22,0.9881523980034722
23,0.9872114393446181
24,0.9871588812934028
25,0.9878946940104166
26,0.9876844618055556
27,0.9884965684678819
28,0.9879896375868056
29,0.9875403510199653
30,0.9876997205946181
31,0.988006591796875
32,0.9873301188151041
33,0.9884830050998263
34,0.9880337185329862
35,0.9877488878038194
36,0.9878472222222222
37,0.9873216417100694
38,0.9866434733072916
39,0.9876115587022569
40,0.988494873046875
41,0.9891679551866319
42,0.9889882405598959
43,0.9890323215060763
44,0.9896240234375
45,0.9896681043836806
46,0.9895663791232638
47,0.9894002278645834
48,0.9884474012586806
49,0.988189697265625
50,0.989166259765625
51,0.9895663791232638
52,0.9891425238715278
53,0.9893256293402778
54,0.9893578423394097
55,0.9893595377604166
56,0.9897715250651041
57,0.9891120062934028
58,0.9901784261067709
59,0.9897037082248263
60,0.9893374972873263
61,0.9892934163411459
62,0.9889492458767362
63,0.9892730712890625
64,0.9890424940321181
65,0.9891713460286459
66,0.9886728922526041
67,0.9900936550564237
68,0.9900427924262153
69,0.9906378851996528
70,0.9894019232855903
71,0.9889543321397569
72,0.9894527859157987
73,0.9889085557725694
74,0.9889119466145834
75,0.9891340467664931
76,0.9889068603515625
77,0.9897867838541666
78,0.9892222086588541
79,0.9890780978732638
80,0.9886932373046875
81,0.9885999891493056
82,0.9899800618489584
83,0.9900495741102431
84,0.9896579318576388
85,0.9896325005425347
86,0.9898156060112847
87,0.9894476996527778
88,0.989501953125
89,0.9906429714626737
90,0.9902377658420138
91,0.9894968668619791
92,0.9901156955295138
93,0.9906870524088541
94,0.9908532036675347
95,0.9913041856553819
96,0.9904852973090278
97,0.9903564453125
98,0.9899800618489584
99,0.99029541015625
100,0.9902462429470487
101,0.9905446370442709
102,0.9906565348307291
103,0.9906836615668403
104,0.9908091227213541
105,0.9905582004123263
106,0.9905480278862847
107,0.9896138509114584
108,0.9903327094184028
109,0.9906853569878472
110,0.990325927734375
111,0.9902835422092013
112,0.9905615912543403
113,0.9909176296657987
114,0.9908548990885416
115,0.9898732503255209
116,0.9906887478298612
117,0.9905005560980903
118,0.9898579915364584
119,0.9901648627387153
120,0.990234375
121,0.9898308648003472
122,0.9901089138454862
123,0.9906870524088541
124,0.9902496337890625
125,0.9911346435546875
126,0.9903361002604166
127,0.9901275634765625
128,0.9905463324652778
129,0.9900105794270834
130,0.9907379150390625
131,0.9901919894748263
132,0.9908989800347222
133,0.9917195638020834
134,0.9912872314453125
135,0.9912312825520834
136,0.9913228352864584
137,0.9911855061848959
138,0.9911922878689237
139,0.9908769395616319
140,0.9908226860894097
141,0.9906497531467013
142,0.9904649522569444
143,0.9905751546223959
144,0.9905209011501737
145,0.990631103515625
146,0.9904412163628472
147,0.9908616807725694
148,0.9912601047092013
149,0.9912329779730903
150,0.9913279215494791
151,0.9914194742838541
152,0.9908057318793403
153,0.9911515977647569
154,0.99127197265625
155,0.9917738172743056
156,0.9912584092881944
157,0.9915601942274306
158,0.9917348225911459
159,0.9917382134331597
160,0.9911346435546875
161,0.990936279296875
162,0.9911617702907987
163,0.9910617404513888
164,0.9918009440104166
165,0.9920315212673612
166,0.9922044542100694
167,0.9917721218532987
168,0.9916415744357638
169,0.9914415147569444
170,0.9918501112196181
171,0.9922434488932291
172,0.9921942816840278
173,0.992218017578125
174,0.9923451741536459
175,0.9917822943793403
176,0.9922214084201388
177,0.9918738471137153
178,0.9919009738498263
179,0.9924791124131944
180,0.9923960367838541
181,0.9919077555338541
182,0.9918602837456597
183,0.9923383924696181
184,0.9918636745876737
185,0.9918348524305556
186,0.99200439453125
187,0.9921807183159722
188,0.9924367268880209
189,0.9925706651475694
190,0.9924706353081597
191,0.9925859239366319
192,0.9922281901041666
193,0.9926164415147569
194,0.9920806884765625
195,0.9923807779947916
196,0.9927605523003472
197,0.9926740858289931
198,0.9925910101996528
199,0.9929436577690972
200,0.9923485649956597
201,0.9928927951388888
202,0.992706298828125
203,0.9927537706163194
204,0.9923672146267362
205,0.9925927056206597
206,0.9933895534939237
207,0.9928114149305556
208,0.9926571316189237
209,0.9931098090277778
210,0.9931928846571181
211,0.9929775661892362
212,0.9929707845052084
213,0.9932539198133681
214,0.9932827419704862
215,0.9929453531901041
216,0.9933573404947916
217,0.9929606119791666
218,0.9928877088758681
219,0.9928131103515625
220,0.9934370252821181
221,0.9933607313368056
222,0.9930250379774306
223,0.9930911593967013
224,0.9933929443359375
225,0.9934031168619791
226,0.9932471381293403
227,0.9929267035590278
228,0.9935675726996528
229,0.9933895534939237
230,0.9933183458116319
231,0.9931725396050347
232,0.9936150444878472
233,0.9932539198133681
234,0.9940728081597222
235,0.9938727484809028
236,0.9941457112630209
237,0.9940541585286459
238,0.9936421712239584
239,0.9939303927951388
240,0.9933454725477431
241,0.9939507378472222
242,0.9940694173177084
243,0.9936964246961806
244,0.9938320583767362
245,0.9939405653211806
246,0.9934980604383681
247,0.9934455023871528
248,0.9934048122829862
249,0.9938540988498263
250,0.9935099283854166
251,0.9936964246961806
252,0.9937896728515625
253,0.9937981499565972
254,0.9940541585286459
255,0.9940728081597222
256,0.9941728379991319
257,0.9941643608940972
258,0.9940422905815972
259,0.9942440456814237
260,0.9939219156901041
261,0.9941660563151041
262,0.993927001953125
263,0.9940253363715278
264,0.9938218858506944
265,0.9939100477430556
266,0.9945034450954862
267,0.9942999945746528
268,0.9939320882161459
269,0.9943440755208334
270,0.9944559733072916
271,0.9943203396267362
272,0.9939388699001737
273,0.9942542182074653
274,0.9941745334201388
275,0.9942220052083334
276,0.9941507975260416
277,0.9945288764105903
278,0.9942949083116319
279,0.9943881564670138
280,0.9941389295789931
281,0.9945102267795138
282,0.9943576388888888
283,0.9945831298828125
284,0.9947933620876737
285,0.9944780137803819
286,0.9950002034505209
287,0.9947730170355903
288,0.9949493408203125
289,0.994964599609375
290,0.9946628146701388
291,0.9948442247178819
292,0.9949527316623263
293,0.9953325059678819
294,0.994903564453125
295,0.9946373833550347
296,0.9950188530815972
297,0.9948204888237847
298,0.9950002034505209
299,0.9952511257595487
300,0.9952053493923612
301,0.9954257541232638
302,0.9951171875
303,0.9953596327039931
304,0.9951833089192709
305,0.9952358669704862
306,0.9950052897135416
307,0.9955156114366319
308,0.9952714708116319
309,0.9952528211805556
310,0.9954477945963541
311,0.9956478542751737
312,0.9957902696397569
313,0.9956614176432291
314,0.9957529703776041
315,0.9955054389105903
316,0.9954630533854166
317,0.9957919650607638
318,0.9955681694878472
319,0.9956698947482638
320,0.9955223931206597
321,0.9953426784939237
322,0.9954749213324653
323,0.9955919053819444
324,0.9958682590060763
325,0.9957767062717013
326,0.9958563910590278
327,0.9958852132161459
328,0.9954189724392362
329,0.9958157009548612
330,0.9958682590060763
331,0.9957682291666666
332,0.9959055582682291
333,0.9959699842664931
334,0.9960259331597222
335,0.9962819417317709
336,0.9958953857421875
337,0.9960089789496528
338,0.9962446424696181
339,0.9962853325737847
340,0.9961378309461806
341,0.9962615966796875
342,0.9962717692057291
343,0.9961785210503472
344,0.9962649875217013
345,0.9961259629991319
346,0.9964277479383681
347,0.9961395263671875
348,0.9962056477864584
349,0.9964667426215278
350,0.9966108534071181
351,0.9966668023003472
352,0.9964226616753472
353,0.9965582953559028
354,0.9967159695095487
355,0.9968143039279513
356,0.9965074327256944
357,0.9967295328776041
358,0.99658203125
359,0.9966447618272569
360,0.9968143039279513
361,0.9967193603515625
362,0.9968600802951388
363,0.9970262315538194
364,0.9968617757161459
365,0.9967905680338541
366,0.9967380099826388
367,0.9968058268229166
368,0.9967736138237847
369,0.9966752794053819
370,0.9969855414496528
371,0.9970160590277778
372,0.9968939887152778
373,0.9968702528211806
374,0.9969194200303819
375,0.9971567789713541
376,0.9971584743923612
377,0.9970143636067709
378,0.9971754286024306
379,0.9971076117621528
380,0.9970024956597222
381,0.9972279866536459
382,0.9971126980251737
383,0.9974195692274306
384,0.9973042805989584
385,0.9972669813368056
386,0.9975263807508681
387,0.9973636203342013
388,0.9973517523871528
389,0.9975246853298612
390,0.9973042805989584
391,0.9973551432291666
392,0.9976247151692709
393,0.9975348578559028
394,0.9976331922743056
395,0.9976806640625
396,0.9975857204861112
397,0.9974568684895834
398,0.9977247450086806
399,0.9976721869574653
400,0.9975772433810763
401,0.9975568983289931
402,0.9976247151692709
403,0.9977518717447916
404,0.9977976481119791
405,0.9978841145833334
406,0.9978468153211806
407,0.9978095160590278
408,0.9978959825303819
409,0.9979010687934028
410,0.9979671902126737
411,0.9980400933159722
412,0.9980723063151041
413,0.9981943766276041
414,0.9979654947916666
415,0.9981282552083334
416,0.9979994032118056
417,0.9980943467881944
418,0.9980926513671875
419,0.9983791775173612
420,0.9982367621527778
421,0.9982503255208334
422,0.9982418484157987
423,0.9984198676215278
424,0.9981960720486112
425,0.9981435139973959
426,0.9982893202039931
427,0.9983334011501737
428,0.9983723958333334
429,0.9983554416232638
430,0.9984978569878472
431,0.9984944661458334
432,0.9984588623046875
433,0.9985131157769097
434,0.9985283745659722
435,0.9985266791449653
436,0.9985385470920138
437,0.9987097846137153
438,0.9986419677734375
439,0.9987013075086806
440,0.9987165662977431
441,0.9987640380859375
442,0.9987436930338541
443,0.9987860785590278
444,0.9988725450303819
445,0.9988894992404513
446,0.9988962809244791
447,0.9989064534505209
448,0.9989437527126737
449,0.9989539252387153
450,0.9989386664496528
451,0.9989895290798612
452,0.9990081787109375
453,0.998992919921875
454,0.9990437825520834
455,0.9990471733940972
456,0.9990370008680556
457,0.9990556504991319
458,0.9991319444444444
459,0.9991285536024306
460,0.9992201063368056
461,0.9992150200737847
462,0.9992607964409722
463,0.9992879231770834
464,0.9993201361762153
465,0.9993659125434028
466,0.9993031819661459
467,0.9993913438585069
468,0.9994439019097222
469,0.9994337293836806
470,0.9994845920138888
471,0.99951171875
472,0.9995337592230903
473,0.9995134141710069
474,0.9995761447482638
475,0.9996049669053819
476,0.9996592203776041
477,0.9996575249565972
478,0.9996541341145834
479,0.99969482421875
480,0.9997304280598959
481,0.9997389051649306
482,0.9997490776909722
483,0.9997778998480903
484,0.9998050265842013
485,0.9998321533203125
486,0.9998524983723959
487,0.9998830159505209
488,0.9998965793185763
489,0.9999338785807291
490,0.9999525282118056
1,0.9823218451605903
2,0.9847581651475694
3,0.9894510904947916
4,0.9897850884331597
5,0.9905887179904513
6,0.9894697401258681
7,0.9891645643446181
8,0.9896867540147569
9,0.9875708685980903
10,0.9862874348958334
11,0.9879116482204862
12,0.9867791069878472
13,0.9866451687282987
14,0.9859534369574653
15,0.9852023654513888
16,0.9865943060980903
17,0.9872063530815972
18,0.9872114393446181
19,0.9870876736111112
20,0.9869520399305556
21,0.9867265489366319
22,0.9881523980034722
23,0.9872114393446181
24,0.9871588812934028
25,0.9878946940104166
26,0.9876844618055556
27,0.9884965684678819
28,0.9879896375868056
29,0.9875403510199653
30,0.9876997205946181
31,0.988006591796875
32,0.9873301188151041
33,0.9884830050998263
34,0.9880337185329862
35,0.9877488878038194
36,0.9878472222222222
37,0.9873216417100694
38,0.9866434733072916
39,0.9876115587022569
40,0.988494873046875
41,0.9891679551866319
42,0.9889882405598959
43,0.9890323215060763
44,0.9896240234375
45,0.9896681043836806
46,0.9895663791232638
47,0.9894002278645834
48,0.9884474012586806
49,0.988189697265625
