1,0.9865824381510416
2,0.98919677734375
3,0.9915534125434028
4,0.9912160237630209
5,0.991668701171875
6,0.9908989800347222
7,0.9913703070746528
8,0.9917992485894097
9,0.9907023111979166
10,0.9902682834201388
11,0.9909006754557291
12,0.9899427625868056
13,0.9894748263888888
14,0.9899885389539931
15,0.9896002875434028
16,0.9892103407118056
17,0.9896308051215278
18,0.9900987413194444
19,0.9896036783854166
20,0.9900631374782987
21,0.9896799723307291
22,0.9908447265625
23,0.9908006456163194
24,0.9903411865234375
25,0.9902920193142362
26,0.9904869927300347
27,0.9910871717664931
28,0.9906039767795138
29,0.9907735188802084
30,0.9907853868272569
31,0.9906429714626737
32,0.990325927734375
33,0.9910515679253472
34,0.9907396104600694
35,0.9903123643663194
36,0.9903700086805556
37,0.9898156060112847
38,0.9893561469184028
39,0.9899156358506944
40,0.99005126953125
41,0.990478515625
42,0.9908972846137153
43,0.9906209309895834
44,0.9911431206597222
45,0.9909125434027778
46,0.9910634358723959
47,0.9910498725043403
48,0.9905276828342013
49,0.9905175103081597
50,0.9906378851996528
51,0.9904344346788194
52,0.9905361599392362
53,0.9908209906684028
54,0.9911973741319444
55,0.9913618299696181
56,0.9916178385416666
57,0.9910600450303819
58,0.9914381239149306
59,0.9916771782769097
60,0.9912550184461806
61,0.9908718532986112
62,0.9903004964192709
63,0.9910939534505209
64,0.9911532931857638
65,0.9912194146050347
66,0.9910447862413194
67,0.9919569227430556
68,0.9917789035373263
69,0.992156982421875
70,0.9916144476996528
71,0.9913516574435763
72,0.9913753933376737
73,0.9909176296657987
74,0.9912550184461806
75,0.99114990234375
76,0.9913279215494791
77,0.9917076958550347
78,0.9914686414930556
79,0.9913872612847222
80,0.9903700086805556
81,0.9911431206597222
82,0.9915568033854166
83,0.9918178982204862
84,0.9914906819661459
85,0.9916432698567709
86,0.9915669759114584
87,0.9916890462239584
88,0.9918043348524306
89,0.9922705756293403
90,0.9922960069444444
91,0.9920874701605903
92,0.9919586181640625
93,0.9925181070963541
94,0.9924231635199653
95,0.9925248887803819
96,0.9921773274739584
97,0.9922960069444444
98,0.9914957682291666
99,0.9917941623263888
100,0.9919501410590278
101,0.9923366970486112
102,0.9922214084201388
103,0.9925350613064237
104,0.9924994574652778
105,0.9925299750434028
106,0.9917619493272569
107,0.9914482964409722
108,0.9922281901041666
109,0.9922892252604166
110,0.9923536512586806
111,0.99224853515625
112,0.9925638834635416
113,0.9922587076822916
114,0.9923926459418403
115,0.9919535319010416
116,0.9927893744574653
117,0.9925062391493056
118,0.9918331570095487
119,0.9923180474175347
120,0.9927419026692709
121,0.9919840494791666
122,0.9924774169921875
123,0.9925859239366319
124,0.9920383029513888
125,0.9923468695746528
126,0.9922909206814237
127,0.9926774766710069
128,0.9922502305772569
129,0.9924214680989584
130,0.9926842583550347
131,0.9924977620442709
132,0.9931182861328125
133,0.9930691189236112
134,0.9920756022135416
135,0.9925435384114584
136,0.9926418728298612
137,0.9927164713541666
138,0.9927842881944444
139,0.9925604926215278
140,0.9925960964626737
141,0.9921891954210069
142,0.9927588568793403
143,0.9924401177300347
144,0.9924841986762153
145,0.9924350314670138
146,0.992279052734375
147,0.9926266140407987
148,0.9930708143446181
149,0.9927995469835069
150,0.9924485948350694
151,0.9932217068142362
152,0.9925486246744791
153,0.9926283094618056
154,0.9927825927734375
155,0.9930284288194444
156,0.9931267632378472
157,0.9931301540798612
158,0.9931267632378472
159,0.9933759901258681
160,0.9931877983940972
161,0.9931064181857638
162,0.9929741753472222
163,0.9931606716579862
164,0.9934794108072916
165,0.9933183458116319
166,0.9937116834852431
167,0.9935828314887153
168,0.9934115939670138
169,0.9932200113932291
170,0.9937252468532987
171,0.9935489230685763
172,0.9934048122829862
173,0.9931454128689237
174,0.9937574598524306
175,0.9935963948567709
176,0.9936625162760416
177,0.9935997856987847
178,0.9934777153862847
179,0.9936252170138888
180,0.9937964545355903
181,0.9933861626519097
182,0.9937082926432291
183,0.9940931532118056
184,0.9935438368055556
185,0.9933607313368056
186,0.9936031765407987
187,0.9941033257378472
188,0.9939643012152778
189,0.9939931233723959
190,0.9940846761067709
191,0.9940456814236112
192,0.9937659369574653
193,0.9940083821614584
194,0.9939931233723959
195,0.9939032660590278
196,0.9942270914713541
197,0.9941982693142362
198,0.9944203694661459
199,0.9945271809895834
200,0.9944661458333334
201,0.9945610894097222
202,0.9942220052083334
203,0.9942966037326388
204,0.9941253662109375
205,0.9940761990017362
206,0.9949239095052084
207,0.9943762885199653
208,0.9942626953125
209,0.9946339925130209
210,0.9946848551432291
211,0.9944797092013888
212,0.9945288764105903
213,0.9944085015190972
214,0.9946356879340278
215,0.9944593641493056
216,0.9947170681423612
217,0.9945933024088541
218,0.9939100477430556
219,0.9944186740451388
220,0.9946831597222222
221,0.9946000840928819
222,0.9943695068359375
223,0.9945526123046875
224,0.994842529296875
225,0.9949001736111112
226,0.9948849148220487
227,0.9945187038845487
228,0.9948798285590278
229,0.9950035942925347
230,0.9949510362413194
231,0.9949510362413194
232,0.9952782524956597
233,0.9949171278211806
234,0.9951324462890625
235,0.9949561225043403
236,0.9950018988715278
237,0.9950154622395834
238,0.9948645697699653
239,0.9950086805555556
240,0.9951002332899306
241,0.9951629638671875
242,0.9949561225043403
243,0.9951816134982638
244,0.9952053493923612
245,0.9950493706597222
246,0.9947781032986112
247,0.9944508870442709
248,0.9944322374131944
249,0.9948459201388888
250,0.9946611192491319
251,0.9948781331380209
252,0.9949289957682291
253,0.9949696858723959
254,0.9949815538194444
255,0.9952969021267362
256,0.9951883951822916
257,0.9949222140842013
258,0.9952392578125
259,0.9952358669704862
260,0.9951256646050347
261,0.9951697455512153
262,0.9950035942925347
263,0.9950120713975694
264,0.995330810546875
265,0.9950103759765625
266,0.9952256944444444
267,0.9951680501302084
268,0.9952782524956597
269,0.9954071044921875
270,0.9955868191189237
271,0.9954291449652778
272,0.9951273600260416
273,0.99542236328125
274,0.9955529106987847
275,0.9951358371310763
276,0.9955630832248263
277,0.9955596923828125
278,0.9955834282769097
279,0.9956461588541666
280,0.9956003824869791
281,0.9957563612196181
282,0.9955681694878472
283,0.9957275390625
284,0.9959055582682291
285,0.9956987169053819
286,0.9958614773220487
287,0.9959225124782987
288,0.9958530002170138
289,0.9957868787977431
290,0.9957936604817709
291,0.9959343804253472
292,0.9958869086371528
293,0.9961191813151041
294,0.9961785210503472
295,0.9960344102647569
296,0.9960666232638888
297,0.9958648681640625
298,0.9960378011067709
299,0.9963395860460069
300,0.9962548149956597
301,0.9962988959418403
302,0.9960496690538194
303,0.9962615966796875
304,0.9958309597439237
305,0.9961480034722222
306,0.9961564805772569
307,0.9963141547309028
308,0.9963768853081597
309,0.9960717095269097
310,0.9962785508897569
311,0.9965057373046875
312,0.9966956244574653
313,0.9964616563585069
314,0.9964870876736112
315,0.9966617160373263
316,0.9964667426215278
317,0.9966159396701388
318,0.9963819715711806
319,0.9965701633029513
320,0.9965549045138888
321,0.9965667724609375
322,0.9967430962456597
323,0.9965396457248263
324,0.9967091878255209
325,0.9966091579861112
326,0.9968193901909722
327,0.9967193603515625
328,0.9966701931423612
329,0.99676513671875
330,0.99676513671875
331,0.9968024359809028
332,0.9967736138237847
333,0.9965837266710069
334,0.99688720703125
335,0.9971110026041666
336,0.9967973497178819
337,0.9967600504557291
338,0.9970364040798612
339,0.9969719780815972
340,0.9970516628689237
341,0.9970804850260416
342,0.9969109429253472
343,0.9971567789713541
344,0.9969635009765625
345,0.9969058566623263
346,0.9970838758680556
347,0.9971211751302084
348,0.9972042507595487
349,0.9972245958116319
350,0.9973483615451388
351,0.9972890218098959
352,0.9972483317057291
353,0.9973415798611112
354,0.9974026150173612
355,0.997344970703125
356,0.9973229302300347
357,0.9973466661241319
358,0.9974365234375
359,0.9974416097005209
360,0.9976281060112847
361,0.9974653455946181
362,0.9976331922743056
363,0.9976145426432291
364,0.9975518120659722
365,0.9974263509114584
366,0.9975026448567709
367,0.9975145128038194
368,0.9975568983289931
369,0.9974568684895834
370,0.9976721869574653
371,0.9976230197482638
372,0.9976552327473959
373,0.9975806342230903
374,0.9975535074869791
375,0.9976738823784722
376,0.9977298312717013
377,0.9975670708550347
378,0.9976908365885416
379,0.9976416693793403
380,0.9976620144314237
381,0.9977823893229166
382,0.9977366129557291
383,0.9978858100043403
384,0.9979654947916666
385,0.9978807237413194
386,0.9980621337890625
387,0.9978790283203125
388,0.9980214436848959
389,0.99798583984375
390,0.9978146023220487
391,0.9980672200520834
392,0.9980112711588541
393,0.9980451795789931
394,0.9979926215277778
395,0.998046875
396,0.9981858995225694
397,0.9980892605251737
398,0.9982621934678819
399,0.9980231391059028
400,0.9981689453125
401,0.9981197781032987
402,0.9981926812065972
403,0.9982181125217013
404,0.9983266194661459
405,0.9982757568359375
406,0.9982791476779513
407,0.9984503851996528
408,0.9983893500434028
409,0.9983283148871528
410,0.9984792073567709
411,0.9985097249348959
412,0.9984876844618056
413,0.9985504150390625
414,0.9985283745659722
415,0.9985080295138888
416,0.9986589219835069
417,0.9984825981987847
418,0.9986114501953125
419,0.9987691243489584
420,0.9986453586154513
421,0.9986707899305556
422,0.9986538357204862
423,0.9987996419270834
424,0.9987250434027778
425,0.9987250434027778
426,0.9987369113498263
427,0.9987860785590278
428,0.9987623426649306
429,0.9987589518229166
430,0.9987911648220487
431,0.998809814453125
432,0.9988301595052084
433,0.9988437228732638
434,0.9988199869791666
435,0.9989081488715278
436,0.9989471435546875
437,0.9989115397135416
438,0.9990098741319444
439,0.9989895290798612
440,0.9989607069227431
441,0.9990183512369791
442,0.9990132649739584
443,0.99908447265625
444,0.9990658230251737
445,0.9991082085503472
446,0.9991421169704862
447,0.9991268581814237
448,0.9991811116536459
449,0.9992268880208334
450,0.9991132948133681
451,0.999237060546875
452,0.9992540147569444
453,0.9991912841796875
454,0.999267578125
455,0.9992879231770834
456,0.9992709689670138
457,0.9993133544921875
458,0.9993252224392362
459,0.9993523491753472
460,0.9993845621744791
461,0.9993523491753472
462,0.9994150797526041
463,0.9994896782769097
464,0.9994337293836806
465,0.9994727240668403
466,0.9994879828559028
467,0.9995235866970487
468,0.9995405409071181
469,0.9995286729600694
470,0.9995744493272569
471,0.9995964898003472
472,0.9996575249565972
473,0.9996439615885416
474,0.9996541341145834
475,0.9996914333767362
476,0.9997202555338541
477,0.9997270372178819
478,0.9997100830078125
479,0.9997575547960069
480,0.9997795952690972
481,0.9998135036892362
482,0.9998202853732638
483,0.9998575846354166
484,0.9998745388454862
485,0.9998897976345487
486,0.9999101426866319
487,0.9999203152126737
488,0.9999321831597222
489,0.9999525282118056
490,0.9999745686848959
1,0.9865824381510416
2,0.98919677734375
3,0.9915534125434028
4,0.9912160237630209
5,0.991668701171875
6,0.9908989800347222
7,0.9913703070746528
8,0.9917992485894097
9,0.9907023111979166
10,0.9902682834201388
11,0.9909006754557291
12,0.9899427625868056
13,0.9894748263888888
14,0.9899885389539931
15,0.9896002875434028
16,0.9892103407118056
17,0.9896308051215278
18,0.9900987413194444
19,0.9896036783854166
20,0.9900631374782987
21,0.9896799723307291
22,0.9908447265625
23,0.9908006456163194
24,0.9903411865234375
25,0.9902920193142362
26,0.9904869927300347
27,0.9910871717664931
28,0.9906039767795138
29,0.9907735188802084
30,0.9907853868272569
31,0.9906429714626737
32,0.990325927734375
33,0.9910515679253472
34,0.9907396104600694
35,0.9903123643663194
36,0.9903700086805556
37,0.9898156060112847
38,0.9893561469184028
39,0.9899156358506944
40,0.99005126953125
41,0.990478515625
42,0.9908972846137153
43,0.9906209309895834
44,0.9911431206597222
45,0.9909125434027778
46,0.9910634358723959
47,0.9910498725043403
48,0.9905276828342013
49,0.9905175103081597
