1,0.9598829481336806
2,0.9647301567925347
3,0.9745771620008681
4,0.9761132134331597
5,0.9739498562282987
6,0.9736972384982638
7,0.9748145209418403
8,0.9766455756293403
9,0.9762963189019097
10,0.9737582736545138
11,0.9748467339409722
12,0.9738989935980903
13,0.972259521484375
14,0.9725358751085069
15,0.9754469129774306
16,0.9736073811848959
17,0.9735989040798612
18,0.9735683865017362
19,0.9745161268446181
20,0.9748314751519097
21,0.9745907253689237
22,0.9763692220052084
23,0.9766116672092013
24,0.9749060736762153
25,0.9745110405815972
26,0.9741600884331597
27,0.9755859375
28,0.9757792154947916
29,0.9752638075086806
30,0.9748331705729166
31,0.9749281141493056
32,0.9763675265842013
33,0.9772610134548612
34,0.9757741292317709
35,0.9745635986328125
36,0.9744754367404513
37,0.9743533664279513
38,0.9735565185546875
39,0.9760453965928819
40,0.9772593180338541
41,0.9756520589192709
42,0.9754265679253472
43,0.9763370090060763
44,0.9759453667534722
45,0.9754994710286459
46,0.9755113389756944
47,0.9758063422309028
48,0.9742312961154513
49,0.9748043484157987
50,0.9738718668619791
51,0.9747144911024306
52,0.9743194580078125
53,0.974334716796875
54,0.9755723741319444
55,0.9761098225911459
56,0.9756062825520834
57,0.9739312065972222
58,0.9764777289496528
59,0.9755723741319444
60,0.9764675564236112
61,0.9759233262803819
62,0.9750688340928819
63,0.9755774603949653
64,0.976531982421875
65,0.97784423828125
66,0.9780459933810763
67,0.9776780870225694
68,0.9767371283637153
69,0.9774729410807291
70,0.9779476589626737
71,0.9772101508246528
72,0.9776509602864584
73,0.9780815972222222
74,0.9785715738932291
75,0.9790293375651041
76,0.9782443576388888
77,0.9775187174479166
78,0.9785546196831597
79,0.9783477783203125
80,0.9775441487630209
81,0.978118896484375
82,0.9786393907335069
83,0.9784172905815972
84,0.9782358805338541
85,0.9785580105251737
86,0.9779001871744791
87,0.9779696994357638
88,0.9762742784288194
89,0.9790174696180556
90,0.9770914713541666
91,0.9763810899522569
92,0.9772983127170138
93,0.9800652398003472
94,0.9795684814453125
95,0.9794565836588541
96,0.9790462917751737
97,0.9776950412326388
98,0.9784122043185763
99,0.9784376356336806
100,0.9780866834852431
101,0.9786326090494791
102,0.9797448052300347
103,0.9787767198350694
104,0.9793158637152778
105,0.9794175889756944
106,0.9779391818576388
107,0.9786546495225694
108,0.9800550672743056
109,0.980194091796875
110,0.9792429606119791
111,0.9786173502604166
112,0.9792446560329862
113,0.9790988498263888
114,0.9788818359375
115,0.9788733588324653
116,0.9802042643229166
117,0.9797532823350694
118,0.9787885877821181
119,0.9791361490885416
120,0.9794091118706597
121,0.9799380832248263
122,0.9800262451171875
123,0.9819352891710069
124,0.9801974826388888
125,0.9812249077690972
126,0.9802178276909722
127,0.9804094102647569
128,0.9810146755642362
129,0.9803059895833334
130,0.9800889756944444
131,0.9799719916449653
132,0.9813385009765625
133,0.9814724392361112
134,0.9803755018446181
135,0.9796702067057291
136,0.9804144965277778
137,0.9811265733506944
138,0.9812571207682291
139,0.9806094699435763
140,0.9814944797092013
141,0.9817843967013888
142,0.9804043240017362
143,0.9808705647786459
144,0.9810333251953125
145,0.9811994764539931
146,0.9805128309461806
147,0.9818810356987847
148,0.9824981689453125
149,0.9822862413194444
150,0.9815962049696181
151,0.9832034640842013
152,0.9817725287543403
153,0.9804670545789931
154,0.9811723497178819
155,0.9824269612630209
156,0.9820471869574653
157,0.9811757405598959
158,0.9817420111762153
159,0.9816775851779513
160,0.9811638726128472
161,0.9812520345052084
162,0.9815351698133681
163,0.9811350504557291
164,0.9819929334852431
165,0.9827660454644097
166,0.9824083116319444
167,0.9826134575737847
168,0.9820590549045138
169,0.9822269015842013
170,0.9820793999565972
171,0.9830000135633681
172,0.9835747612847222
173,0.9828542073567709
174,0.9827728271484375
175,0.9826643202039931
176,0.9830966525607638
177,0.9833831787109375
178,0.9825185139973959
179,0.9832509358723959
180,0.9835951063368056
181,0.9825676812065972
182,0.9834170871310763
183,0.9839731852213541
184,0.9833340115017362
185,0.9833034939236112
186,0.9829288058810763
187,0.9831102159288194
188,0.9833763970269097
189,0.9840749104817709
190,0.9844631618923612
191,0.9842410617404513
192,0.9829440646701388
193,0.9838239881727431
194,0.9825422498914931
195,0.9830593532986112
196,0.9845954047309028
197,0.9843343098958334
198,0.9839274088541666
199,0.9842698838975694
200,0.9837290445963541
201,0.9848107231987847
202,0.9838968912760416
203,0.9843766954210069
204,0.9841545952690972
205,0.9840003119574653
206,0.9856007893880209
207,0.9844868977864584
208,0.9842139350043403
209,0.9844682481553819
210,0.9853685167100694
211,0.9843495686848959
212,0.98388671875
213,0.9832119411892362
214,0.9840715196397569
215,0.9827389187282987
216,0.9839833577473959
217,0.9835018581814237
218,0.9837137858072916
219,0.9836510552300347
220,0.9848531087239584
221,0.9846649169921875
222,0.9848836263020834
223,0.9847819010416666
224,0.9849514431423612
225,0.9852040608723959
226,0.9859907362196181
227,0.9849192301432291
228,0.9856703016493056
229,0.9853668212890625
230,0.9843004014756944
231,0.9849107530381944
232,0.9851752387152778
233,0.9849463568793403
234,0.9859178331163194
235,0.9854092068142362
236,0.9855906168619791
237,0.9861297607421875
238,0.9862196180555556
239,0.9862348768446181
240,0.9858567979600694
241,0.9866485595703125
242,0.9863959418402778
243,0.98626708984375
244,0.9860788981119791
245,0.9862959120008681
246,0.9859110514322916
247,0.9862111409505209
248,0.986297607421875
249,0.9876268174913194
250,0.9858924018012153
251,0.9864010281032987
252,0.9865264892578125
253,0.9869944254557291
254,0.9864264594184028
255,0.9865841335720487
256,0.9866722954644097
257,0.9871826171875
258,0.9873809814453125
259,0.9872945149739584
260,0.987152099609375
261,0.9878387451171875
262,0.986907958984375
263,0.9872012668185763
264,0.98681640625
265,0.9859093560112847
266,0.9865383572048612
267,0.9868859185112847
268,0.9871249728732638
269,0.987762451171875
270,0.9880913628472222
271,0.9877149793836806
272,0.9872555202907987
273,0.9872809516059028
274,0.9875132242838541
275,0.9876234266493056
276,0.9876725938585069
277,0.9882015652126737
278,0.9880761040581597
279,0.9884406195746528
280,0.9881930881076388
281,0.9883541531032987
282,0.9879523383246528
283,0.9881591796875
284,0.9884982638888888
285,0.9880421956380209
286,0.988739013671875
287,0.9890543619791666
288,0.9889848497178819
289,0.9888407389322916
290,0.9887746175130209
291,0.9889475504557291
292,0.9888559977213541
293,0.9899156358506944
294,0.9897901746961806
295,0.988922119140625
296,0.9894544813368056
297,0.9891984727647569
298,0.9900054931640625
299,0.9900597466362847
300,0.9898461235894097
301,0.9898342556423612
302,0.9899207221137153
303,0.9902428521050347
304,0.9898902045355903
305,0.989837646484375
306,0.9898851182725694
307,0.9903649224175347
308,0.9898834228515625
309,0.9895579020182291
310,0.9902225070529513
311,0.9898800320095487
312,0.9902394612630209
313,0.9900783962673612
314,0.9907311333550347
315,0.9896392822265625
316,0.9901512993706597
317,0.9905531141493056
318,0.9902615017361112
319,0.9906277126736112
320,0.9905751546223959
321,0.9903462727864584
322,0.990264892578125
323,0.990142822265625
324,0.9904734293619791
325,0.9906565348307291
326,0.9905175103081597
327,0.9901801215277778
328,0.9902682834201388
329,0.9907413058810763
330,0.9908311631944444
331,0.9908362494574653
332,0.9909566243489584
333,0.991302490234375
334,0.9909481472439237
335,0.9917060004340278
336,0.9913991292317709
337,0.9913618299696181
338,0.9915262858072916
339,0.9915974934895834
340,0.9913228352864584
341,0.9916212293836806
342,0.9916195339626737
343,0.9919331868489584
344,0.9915754530164931
345,0.99176025390625
346,0.9920739067925347
347,0.9919535319010416
348,0.9917568630642362
349,0.9919925265842013
350,0.9923044840494791
351,0.9922671847873263
352,0.9920857747395834
353,0.9924689398871528
354,0.9923638237847222
355,0.9924519856770834
356,0.9923451741536459
357,0.9924858940972222
358,0.9924638536241319
359,0.9928521050347222
360,0.9929521348741319
361,0.9925604926215278
362,0.9926435682508681
363,0.9932149251302084
364,0.9929131401909722
365,0.9930911593967013
366,0.9931267632378472
367,0.9930911593967013
368,0.9930233425564237
369,0.9930809868706597
370,0.9933810763888888
371,0.9932607014973959
372,0.9932234022352431
373,0.9932725694444444
374,0.9931165907118056
375,0.9936777750651041
376,0.9935828314887153
377,0.9934895833333334
378,0.9940032958984375
379,0.9936319986979166
380,0.9935879177517362
381,0.9938507080078125
382,0.9937879774305556
383,0.9939592149522569
384,0.9939795600043403
385,0.9939643012152778
386,0.9941219753689237
387,0.9940914577907987
388,0.9941355387369791
389,0.9943050808376737
390,0.9942728678385416
391,0.9944559733072916
392,0.9943864610460069
393,0.9945526123046875
394,0.9947747124565972
395,0.9945475260416666
396,0.9946780734592013
397,0.9945441351996528
398,0.9947424994574653
399,0.9948459201388888
400,0.9946441650390625
401,0.9949188232421875
402,0.9950815836588541
403,0.9949900309244791
404,0.995086669921875
405,0.9952375623914931
406,0.9950748019748263
407,0.9951137966579862
408,0.9952646891276041
409,0.9952375623914931
410,0.9955291748046875
411,0.9954291449652778
412,0.9956173366970487
413,0.9957054985894097
414,0.9955393473307291
415,0.995758056640625
416,0.9958173963758681
417,0.9959174262152778
418,0.9956902398003472
419,0.9960801866319444
420,0.9960666232638888
421,0.9958055284288194
422,0.9959547254774306
423,0.9961717393663194
424,0.9961683485243056
425,0.9960208468967013
426,0.9962666829427084
427,0.9965057373046875
428,0.9964158799913194
429,0.9963870578342013
430,0.9965888129340278
431,0.9966091579861112
432,0.9966600206163194
433,0.9967634412977431
434,0.9966956244574653
435,0.9966515435112847
436,0.9969584147135416
437,0.9968278672960069
438,0.9970957438151041
439,0.9971516927083334
440,0.9970296223958334
441,0.9972127278645834
442,0.9970635308159722
443,0.9973415798611112
444,0.9975077311197916
445,0.9973517523871528
446,0.9974789089626737
447,0.997528076171875
448,0.9975840250651041
449,0.9975738525390625
450,0.9976959228515625
451,0.9978230794270834
452,0.9978790283203125
453,0.9978281656901041
454,0.9979180230034722
455,0.9978688557942709
456,0.9980519612630209
457,0.9980994330512153
458,0.9979909261067709
459,0.9980926513671875
460,0.9981621636284722
461,0.9982062445746528
462,0.9983418782552084
463,0.9983927408854166
464,0.9984046088324653
465,0.9985063340928819
466,0.9985063340928819
467,0.9987131754557291
468,0.9986928304036459
469,0.9987419976128472
470,0.9988657633463541
471,0.9988589816623263
472,0.9989064534505209
473,0.9989132351345487
474,0.9989997016059028
475,0.9990878634982638
476,0.9991031222873263
477,0.9992234971788194
478,0.9992472330729166
479,0.9993506537543403
480,0.9993438720703125
481,0.9994540744357638
482,0.9994896782769097
483,0.9995608859592013
484,0.999603271484375
485,0.9996388753255209
486,0.9997202555338541
487,0.9997745090060763
488,0.9998185899522569
489,0.9998897976345487
490,0.9999423556857638
1,0.9598829481336806
2,0.9647301567925347
3,0.9745771620008681
4,0.9761132134331597
5,0.9739498562282987
6,0.9736972384982638
7,0.9748145209418403
8,0.9766455756293403
9,0.9762963189019097
10,0.9737582736545138
11,0.9748467339409722
12,0.9738989935980903
13,0.972259521484375
14,0.9725358751085069
15,0.9754469129774306
16,0.9736073811848959
17,0.9735989040798612
18,0.9735683865017362
19,0.9745161268446181
20,0.9748314751519097
21,0.9745907253689237
22,0.9763692220052084
23,0.9766116672092013
24,0.9749060736762153
25,0.9745110405815972
26,0.9741600884331597
27,0.9755859375
28,0.9757792154947916
29,0.9752638075086806
30,0.9748331705729166
31,0.9749281141493056
32,0.9763675265842013
33,0.9772610134548612
34,0.9757741292317709
35,0.9745635986328125
36,0.9744754367404513
37,0.9743533664279513
38,0.9735565185546875
39,0.9760453965928819
40,0.9772593180338541
41,0.9756520589192709
42,0.9754265679253472
43,0.9763370090060763
44,0.9759453667534722
45,0.9754994710286459
46,0.9755113389756944
47,0.9758063422309028
48,0.9742312961154513
49,0.9748043484157987
