1,0.83447265625
2,0.8328772650824653
3,0.8338792588975694
4,0.8474104139539931
5,0.8457777235243056
6,0.8473036024305556
7,0.8509419759114584
8,0.8518880208333334
9,0.8518337673611112
10,0.8566945393880209
11,0.8572133382161459
12,0.8598124186197916
13,0.8607601589626737
14,0.8586273193359375
15,0.8636695014105903
16,0.8611501057942709
17,0.8571760389539931
18,0.8606363932291666
19,0.8634779188368056
20,0.8657243516710069
21,0.8614857991536459
22,0.8614434136284722
23,0.8640255398220487
24,0.8670874701605903
25,0.8615044487847222
26,0.8702239990234375
27,0.8583611382378472
28,0.8624233669704862
29,0.8645460340711806
30,0.8702884250217013
31,0.8637983534071181
32,0.8644680447048612
33,0.8631795247395834
34,0.8669416639539931
35,0.8638288709852431
36,0.8622996012369791
37,0.8661295572916666
38,0.8692355685763888
39,0.8727654351128472
40,0.8618079291449653
41,0.8700917561848959
42,0.8679402669270834
43,0.8676401774088541
44,0.8685302734375
45,0.86846923828125
46,0.8643561469184028
47,0.8637780083550347
48,0.8701171875
49,0.8638695610894097
50,0.8670535617404513
51,0.8723229302300347
52,0.8695780436197916
53,0.8680809868706597
54,0.8698476155598959
55,0.8740912543402778
56,0.8684031168619791
57,0.8749796549479166
58,0.8716278076171875
59,0.8721805148654513
60,0.8687896728515625
61,0.8735860188802084
62,0.8772260877821181
63,0.8728298611111112
64,0.8710462782118056
65,0.8702375623914931
66,0.8722805447048612
67,0.8690507676866319
68,0.8759833441840278
69,0.8702731662326388
70,0.8725145128038194
71,0.8717803955078125
72,0.8733740912543403
73,0.8719228108723959
74,0.8737284342447916
75,0.876251220703125
76,0.8758375379774306
77,0.8759121365017362
78,0.8731604682074653
79,0.8777737087673612
80,0.8773057725694444
81,0.8756849500868056
82,0.8731977674696181
83,0.8758409288194444
84,0.8791554768880209
85,0.8794606526692709
86,0.8826412624782987
87,0.8788096110026041
88,0.8776753743489584
89,0.8779822455512153
90,0.8806508382161459
91,0.8775787353515625
92,0.8766530354817709
93,0.8797776963975694
94,0.8807796902126737
95,0.8763410780164931
96,0.8819630940755209
97,0.8825056287977431
98,0.8792605929904513
99,0.8845893012152778
100,0.8836619059244791
101,0.8808678521050347
102,0.8771379258897569
103,0.8804524739583334
104,0.8828497992621528
105,0.8793080647786459
106,0.8841518825954862
107,0.8877003987630209
108,0.8856370713975694
109,0.8824140760633681
110,0.8847554524739584
111,0.8815375434027778
112,0.8802524142795138
113,0.8855539957682291
114,0.8876088460286459
115,0.8866543240017362
116,0.8844248453776041
117,0.8871086968315972
118,0.8920762803819444
119,0.8891262478298612
120,0.8905927870008681
121,0.88934326171875
122,0.8875800238715278
123,0.8886328803168403
124,0.8908369276258681
125,0.8882480197482638
126,0.885284423828125
127,0.8893686930338541
128,0.8890279134114584
129,0.8905029296875
130,0.8908589680989584
131,0.8869476318359375
132,0.8893280029296875
133,0.8874494764539931
134,0.8897671169704862
135,0.8939988878038194
136,0.8897569444444444
137,0.8902774386935763
138,0.8912302652994791
139,0.8915947808159722
140,0.894134521484375
141,0.8958604600694444
142,0.8926340738932291
143,0.8953772650824653
144,0.8970472547743056
145,0.8890584309895834
146,0.8977610270182291
147,0.8959282769097222
148,0.8933071560329862
149,0.8938717312282987
150,0.8959435356987847
151,0.8936869303385416
152,0.8944176567925347
153,0.8990817599826388
154,0.8973676893446181
155,0.894622802734375
156,0.8992072211371528
157,0.89892578125
158,0.8954060872395834
159,0.8977881537543403
160,0.9001091851128472
161,0.90228271484375
162,0.9005652533637153
163,0.8985460069444444
164,0.8954552544487847
165,0.8957689073350694
166,0.8956620958116319
167,0.9016452365451388
168,0.9018334282769097
169,0.9024098714192709
170,0.8984883626302084
171,0.8982798258463541
172,0.9001057942708334
173,0.9055548773871528
174,0.9013553195529513
175,0.9004601372612847
176,0.9039374457465278
177,0.9047427707248263
178,0.9048784044053819
179,0.8992394341362847
180,0.905609130859375
181,0.9061075846354166
182,0.9028574625651041
183,0.9041595458984375
184,0.9055260552300347
185,0.9057464599609375
186,0.9052293565538194
187,0.9067755805121528
188,0.9064619276258681
189,0.9048800998263888
190,0.905426025390625
191,0.9045664469401041
192,0.9077572292751737
193,0.9064398871527778
194,0.9076215955946181
195,0.90924072265625
196,0.9081641303168403
197,0.9088626437717013
198,0.9104071723090278
199,0.9103563096788194
200,0.9084404839409722
201,0.9101579454210069
202,0.9131978352864584
203,0.9131825764973959
204,0.9125518798828125
205,0.9102867974175347
206,0.9035881890190972
207,0.9114329020182291
208,0.9139641655815972
209,0.9128146701388888
210,0.9113956027560763
211,0.91412353515625
212,0.9121314154730903
213,0.9141523573133681
214,0.9134165445963541
215,0.9180518256293403
216,0.9151136610243056
217,0.9179433186848959
218,0.9163174099392362
219,0.9131740993923612
220,0.9168531629774306
221,0.9173363579644097
222,0.9194064670138888
223,0.9189978705512153
224,0.9175143771701388
225,0.91656494140625
226,0.9192318386501737
227,0.9206271701388888
228,0.9192708333333334
229,0.9200371636284722
230,0.9207407633463541
231,0.9222123887803819
232,0.9218275282118056
233,0.9203355577256944
234,0.9182366265190972
235,0.9197540283203125
236,0.9248369004991319
237,0.9220191107855903
238,0.9233567979600694
239,0.9223124186197916
240,0.9223887125651041
241,0.9224616156684028
242,0.9213731553819444
243,0.9230075412326388
244,0.922576904296875
245,0.9244859483506944
246,0.9242367214626737
247,0.9265153672960069
248,0.92938232421875
249,0.9239942762586806
250,0.9273512098524306
251,0.9237908257378472
252,0.9256930881076388
253,0.9261271158854166
254,0.9278971354166666
255,0.9263102213541666
256,0.9280259874131944
257,0.9294823540581597
258,0.9257066514756944
259,0.9249945746527778
260,0.9299808078342013
261,0.9275343153211806
262,0.9302520751953125
263,0.9287143283420138
264,0.9249928792317709
265,0.9333699544270834
266,0.9259541829427084
267,0.9312472873263888
268,0.9296468098958334
269,0.9304572211371528
270,0.9280192057291666
271,0.9303809271918403
272,0.9340023464626737
273,0.9314303927951388
274,0.9304979112413194
275,0.9322764078776041
276,0.9306318495008681
277,0.9310590955946181
278,0.9304216172960069
279,0.9333546956380209
280,0.9345618353949653
281,0.9321407741970487
282,0.9347601996527778
283,0.9338344997829862
284,0.9334377712673612
285,0.93670654296875
286,0.9353925916883681
287,0.9339955647786459
288,0.9361809624565972
289,0.9361012776692709
290,0.9403516981336806
291,0.9355790879991319
292,0.938018798828125
293,0.9321950276692709
294,0.9336564805772569
295,0.9385782877604166
296,0.9345584445529513
297,0.9394565158420138
298,0.9390241834852431
299,0.9351230197482638
300,0.9389580620659722
301,0.9400770399305556
302,0.9399634467230903
303,0.9387630886501737
304,0.9428592258029513
305,0.9409739176432291
306,0.9413808186848959
307,0.9397362603081597
308,0.9423743353949653
309,0.9428032769097222
310,0.9439595540364584
311,0.9427727593315972
312,0.9451649983723959
313,0.9435085720486112
314,0.9436086018880209
315,0.9417792426215278
316,0.9431627061631944
317,0.9430796305338541
318,0.9452124701605903
319,0.9448784722222222
320,0.9471995035807291
321,0.9455990261501737
322,0.9458024766710069
323,0.9457024468315972
324,0.9469977484809028
325,0.9455769856770834
326,0.9477267795138888
327,0.9476962619357638
328,0.9499172634548612
329,0.9498511420355903
330,0.9480438232421875
331,0.9467671712239584
332,0.9484117296006944
333,0.9497205946180556
334,0.9478844536675347
335,0.9469977484809028
336,0.95086669921875
337,0.9501715766059028
338,0.9503106011284722
339,0.9521687825520834
340,0.9529808892144097
341,0.9506903754340278
342,0.9525858561197916
343,0.9525366889105903
344,0.9538472493489584
345,0.9550899929470487
346,0.9508073594835069
347,0.9543372260199653
348,0.9540167914496528
349,0.9545305040147569
350,0.9533555772569444
351,0.9521772596571181
352,0.9550136990017362
353,0.9545203314887153
354,0.9565056694878472
355,0.9554358588324653
356,0.9553714328342013
357,0.9570753309461806
358,0.9549323187934028
359,0.9553002251519097
360,0.9574771457248263
361,0.9588436550564237
362,0.9577907986111112
363,0.9580620659722222
364,0.9586266411675347
365,0.9586605495876737
366,0.9592658148871528
367,0.9618547227647569
368,0.9617919921875
369,0.9607442220052084
370,0.9611138237847222
371,0.9608747694227431
372,0.9630381266276041
373,0.9631771511501737
374,0.9636264377170138
375,0.9630398220486112
376,0.9630957709418403
377,0.9649149576822916
378,0.9636806911892362
379,0.9647284613715278
380,0.9650387234157987
381,0.964874267578125
382,0.9653201633029513
383,0.9662933349609375
384,0.9630805121527778
385,0.9656541612413194
386,0.9658084445529513
387,0.9663374159071181
388,0.9674716525607638
389,0.9662882486979166
390,0.9681871202256944
391,0.9673088921440972
392,0.9679548475477431
393,0.9673682318793403
394,0.9679226345486112
395,0.9683329264322916
396,0.96881103515625
397,0.9689737955729166
398,0.9692942301432291
399,0.9698723687065972
400,0.9708692762586806
401,0.9704352484809028
402,0.9713626437717013
403,0.9713321261935763
404,0.9714626736111112
405,0.9700096978081597
406,0.9722188313802084
407,0.9724884033203125
408,0.9729444715711806
409,0.9734564887152778
410,0.9734564887152778
411,0.9732598198784722
412,0.973846435546875
413,0.974029541015625
414,0.9738854302300347
415,0.9757113986545138
416,0.9751807318793403
417,0.9755978054470487
418,0.9758165147569444
419,0.9747704399956597
420,0.9761844211154513
421,0.9774152967664931
422,0.9772779676649306
423,0.9774915907118056
424,0.9785512288411459
425,0.9787868923611112
426,0.9787987603081597
427,0.9791412353515625
428,0.9784715440538194
429,0.9800584581163194
430,0.9792395697699653
431,0.9806349012586806
432,0.9800550672743056
433,0.9813520643446181
434,0.9815606011284722
435,0.982147216796875
436,0.9821675618489584
437,0.9829762776692709
438,0.9828542073567709
439,0.98321533203125
440,0.9833441840277778
441,0.9838138156467013
442,0.9840783013237847
443,0.98406982421875
444,0.9842580159505209
445,0.9850141737196181
446,0.9849395751953125
447,0.9854668511284722
448,0.9857601589626737
449,0.9861178927951388
450,0.9866163465711806
451,0.9867062038845487
452,0.9870215521918403
453,0.9878150092230903
454,0.9880845811631944
455,0.9883575439453125
456,0.9886881510416666
457,0.9885626898871528
458,0.9890170627170138
459,0.9894510904947916
460,0.9896782769097222
461,0.9897850884331597
462,0.9903072781032987
463,0.9908532036675347
464,0.9908226860894097
465,0.9915279812282987
466,0.9916347927517362
467,0.991912841796875
468,0.9923095703125
469,0.9925418429904513
470,0.9930029975043403
471,0.9933183458116319
472,0.9935133192274306
473,0.9940372043185763
474,0.9940999348958334
475,0.9946068657769097
476,0.9949289957682291
477,0.9952307807074653
478,0.9955529106987847
479,0.9958292643229166
480,0.9961480034722222
481,0.9964124891493056
482,0.9968939887152778
483,0.99725341796875
484,0.9975670708550347
485,0.9979010687934028
486,0.9981977674696181
487,0.9984995524088541
488,0.9988657633463541
489,0.9991980658637153
490,0.9995252821180556
1,0.83447265625
2,0.8328772650824653
3,0.8338792588975694
4,0.8474104139539931
5,0.8457777235243056
6,0.8473036024305556
7,0.8509419759114584
8,0.8518880208333334
9,0.8518337673611112
10,0.8566945393880209
11,0.8572133382161459
12,0.8598124186197916
13,0.8607601589626737
14,0.8586273193359375
15,0.8636695014105903
16,0.8611501057942709
17,0.8571760389539931
18,0.8606363932291666
19,0.8634779188368056
20,0.8657243516710069
21,0.8614857991536459
22,0.8614434136284722
23,0.8640255398220487
24,0.8670874701605903
25,0.8615044487847222
26,0.8702239990234375
27,0.8583611382378472
28,0.8624233669704862
29,0.8645460340711806
30,0.8702884250217013
31,0.8637983534071181
32,0.8644680447048612
33,0.8631795247395834
34,0.8669416639539931
35,0.8638288709852431
36,0.8622996012369791
37,0.8661295572916666
38,0.8692355685763888
39,0.8727654351128472
40,0.8618079291449653
41,0.8700917561848959
42,0.8679402669270834
43,0.8676401774088541
44,0.8685302734375
45,0.86846923828125
46,0.8643561469184028
47,0.8637780083550347
48,0.8701171875
49,0.8638695610894097
