1,0.7815263536241319
2,0.8124016655815972
3,0.8341471354166666
4,0.8397454155815972
5,0.8380008273654513
6,0.8303154839409722
7,0.8305884467230903
8,0.8207329644097222
9,0.8192460801866319
10,0.8212788899739584
11,0.8182796902126737
12,0.8244459364149306
13,0.8339809841579862
14,0.8329976399739584
15,0.8365325927734375
16,0.8323482937282987
17,0.8346337212456597
18,0.8348032633463541
19,0.8383941650390625
20,0.8386264377170138
21,0.8438364664713541
22,0.8456081814236112
23,0.8389875623914931
24,0.8432091606987847
25,0.8395351833767362
26,0.8411017523871528
27,0.8397030300564237
28,0.8422088623046875
29,0.8458268907335069
30,0.8441602918836806
31,0.8457285563151041
32,0.8420257568359375
33,0.8461558024088541
34,0.84954833984375
35,0.8541734483506944
36,0.8591240776909722
37,0.8572743733723959
38,0.8495093451605903
39,0.8417239718967013
40,0.8367716471354166
41,0.8385416666666666
42,0.8413119845920138
43,0.8437347412109375
44,0.8458845350477431
45,0.8455318874782987
46,0.8462388780381944
47,0.8454064263237847
48,0.8349355061848959
49,0.8309699164496528
50,0.8301306830512153
51,0.8306816948784722
52,0.8320261637369791
53,0.8317074245876737
54,0.8306003146701388
55,0.8287082248263888
56,0.8252716064453125
57,0.8258005777994791
58,0.8282402886284722
59,0.8310953776041666
60,0.8488345675998263
61,0.8539937337239584
62,0.8536444769965278
63,0.8520287407769097
64,0.8519999186197916
65,0.8513268364800347
66,0.8474036322699653
67,0.8499654134114584
68,0.8508266872829862
69,0.8550364176432291
70,0.8485887315538194
71,0.8427140977647569
72,0.8333112928602431
73,0.8317667643229166
74,0.8346269395616319
75,0.8361867268880209
76,0.8413509792751737
77,0.8432786729600694
78,0.8465745713975694
79,0.8481953938802084
80,0.8618791368272569
81,0.8636983235677084
82,0.8659549289279513
83,0.8654869927300347
84,0.8652292887369791
85,0.8650394015842013
86,0.8619876437717013
87,0.8659006754557291
88,0.8673570421006944
89,0.8654615614149306
90,0.8706851535373263
91,0.8649071587456597
92,0.8655378553602431
93,0.8608364529079862
94,0.8574710422092013
95,0.8576846652560763
96,0.8589748806423612
97,0.8675740559895834
98,0.8669823540581597
99,0.8698933919270834
100,0.8694966634114584
101,0.8715464274088541
102,0.8786417643229166
103,0.8780381944444444
104,0.875732421875
105,0.8760765923394097
106,0.8721754286024306
107,0.8720991346571181
108,0.8719533284505209
109,0.8708326551649306
110,0.8714006212022569
111,0.8729298909505209
112,0.8737386067708334
113,0.8689032660590278
114,0.8654157850477431
115,0.8623860677083334
116,0.8541853162977431
117,0.8508097330729166
118,0.8474934895833334
119,0.8473951551649306
120,0.8441009521484375
121,0.8527882893880209
122,0.8583136664496528
123,0.8585900200737847
124,0.8518473307291666
125,0.8517879909939237
126,0.8551991780598959
127,0.8599785698784722
128,0.8594614664713541
129,0.8508453369140625
130,0.8492007785373263
131,0.8475172254774306
132,0.8497704399956597
133,0.8602973090277778
134,0.8676639133029513
135,0.866241455078125
136,0.8718380398220487
137,0.8736690945095487
138,0.8673265245225694
139,0.8641493055555556
140,0.8605940077039931
141,0.8534596761067709
142,0.8652581108940972
143,0.8694831000434028
144,0.8787299262152778
145,0.8754628499348959
146,0.8825412326388888
147,0.8782857259114584
148,0.8789842393663194
149,0.8809085422092013
150,0.8770734998914931
151,0.8731163872612847
152,0.8726840549045138
153,0.8691253662109375
154,0.8728976779513888
155,0.8750135633680556
156,0.8728179931640625
157,0.8722245958116319
158,0.8714090983072916
159,0.8759850396050347
160,0.8829057481553819
161,0.8814985487196181
162,0.8794131808810763
163,0.8780619303385416
164,0.872222900390625
165,0.8680962456597222
166,0.8654463026258681
167,0.8600073920355903
168,0.8599310980902778
169,0.8626454671223959
170,0.8605499267578125
171,0.8644697401258681
172,0.8656158447265625
173,0.8620791965060763
174,0.8627217610677084
175,0.857574462890625
176,0.8591766357421875
177,0.8695051405164931
178,0.8644222683376737
179,0.8672366672092013
180,0.8671349419487847
181,0.8671637641059028
182,0.8644816080729166
183,0.869903564453125
184,0.8706003824869791
185,0.8712293836805556
186,0.8737318250868056
187,0.8668331570095487
188,0.8678995768229166
189,0.8708513047960069
190,0.8714345296223959
191,0.8715955946180556
192,0.8736419677734375
193,0.8729790581597222
194,0.8765852186414931
195,0.8763275146484375
196,0.8789571126302084
197,0.8784518771701388
198,0.8837297227647569
199,0.8845553927951388
200,0.8858761257595487
201,0.8910810682508681
202,0.8870697021484375
203,0.8847011990017362
204,0.8836907280815972
205,0.8848927815755209
206,0.8847791883680556
207,0.8852691650390625
208,0.8835974799262153
209,0.8807101779513888
210,0.8801150851779513
211,0.8759680853949653
212,0.8830278184678819
213,0.8891042073567709
214,0.8959486219618056
215,0.8968387179904513
216,0.8928137885199653
217,0.8880750868055556
218,0.8909352620442709
219,0.8878614637586806
220,0.8846876356336806
221,0.8839501274956597
222,0.883514404296875
223,0.8859778510199653
224,0.8896009657118056
225,0.8878343370225694
226,0.8904181586371528
227,0.8860083685980903
228,0.8863881429036459
229,0.8796708848741319
230,0.8800760904947916
231,0.8838348388671875
232,0.8892754448784722
233,0.8900909423828125
234,0.8873986138237847
235,0.8881632486979166
236,0.8909267849392362
237,0.8968522813585069
238,0.8967556423611112
239,0.8988223605685763
240,0.8953162299262153
241,0.8928460015190972
242,0.8973405626085069
243,0.8936072455512153
244,0.8969743516710069
245,0.8980458577473959
246,0.895721435546875
247,0.8919338650173612
248,0.8897467719184028
249,0.8884718153211806
250,0.8951941596137153
251,0.900390625
252,0.8946109347873263
253,0.8926815456814237
254,0.8895975748697916
255,0.8934800889756944
256,0.8951839870876737
257,0.9004347059461806
258,0.8972676595052084
259,0.8956485324435763
260,0.8966064453125
261,0.8935580783420138
262,0.9001803927951388
263,0.9025828043619791
264,0.9009721544053819
265,0.8991614447699653
266,0.901702880859375
267,0.9019487169053819
268,0.9030727810329862
269,0.9025692409939237
270,0.901397705078125
271,0.8980492485894097
272,0.8958723280164931
273,0.8958723280164931
274,0.8957875569661459
275,0.8967624240451388
276,0.8956858317057291
277,0.8976932101779513
278,0.9029880099826388
279,0.9060414632161459
280,0.9113362630208334
281,0.9114515516493056
282,0.9114430745442709
283,0.9127824571397569
284,0.9132520887586806
285,0.914337158203125
286,0.9140845404730903
287,0.91314697265625
288,0.9122670491536459
289,0.9123569064670138
290,0.91717529296875
291,0.9200269911024306
292,0.9165903727213541
293,0.9171922471788194
294,0.9162495930989584
295,0.9142693413628472
296,0.9171549479166666
297,0.9145796034071181
298,0.9164055718315972
299,0.9182400173611112
300,0.9172092013888888
301,0.9184383816189237
302,0.9174889458550347
303,0.9197336832682291
304,0.9191860622829862
305,0.9177466498480903
306,0.9213222927517362
307,0.9209815131293403
308,0.9207034640842013
309,0.9224429660373263
310,0.9216664632161459
311,0.9226667616102431
312,0.9213172064887153
313,0.9196421305338541
314,0.9205237494574653
315,0.9228769938151041
316,0.9225599500868056
317,0.9228329128689237
318,0.9263068305121528
319,0.9282141791449653
320,0.9279463026258681
321,0.927764892578125
322,0.9271019829644097
323,0.9281955295138888
324,0.9291314019097222
325,0.9299079047309028
326,0.9309132893880209
327,0.9330037434895834
328,0.9337344699435763
329,0.9375457763671875
330,0.9407772488064237
331,0.9400482177734375
332,0.9382765028211806
333,0.9373151991102431
334,0.9394293891059028
335,0.9396904839409722
336,0.9382527669270834
337,0.9397701687282987
338,0.9399244520399306
339,0.9396277533637153
340,0.9374491373697916
341,0.9398023817274306
342,0.9392649332682291
343,0.9376966688368056
344,0.9365776909722222
345,0.9352993435329862
346,0.9361673990885416
347,0.9337276882595487
348,0.9359825981987847
349,0.9369422064887153
350,0.9408213297526041
351,0.9385189480251737
352,0.9354180230034722
353,0.9384562174479166
354,0.9366811116536459
355,0.9373897976345487
356,0.9392310248480903
357,0.9409806993272569
358,0.9417792426215278
359,0.9414876302083334
360,0.9398532443576388
361,0.9403805202907987
362,0.9404110378689237
363,0.9422183566623263
364,0.9430491129557291
365,0.9465196397569444
366,0.9465433756510416
367,0.94390869140625
368,0.9427981906467013
369,0.9432796902126737
370,0.9453938802083334
371,0.9459652370876737
372,0.9465535481770834
373,0.9482828776041666
374,0.9474605984157987
375,0.9493069118923612
376,0.9485321044921875
377,0.9497612847222222
378,0.9510582817925347
379,0.9496849907769097
380,0.9488067626953125
381,0.9511735704210069
382,0.9522603352864584
383,0.9527740478515625
384,0.9531843397352431
385,0.9544881184895834
386,0.9555291069878472
387,0.9556206597222222
388,0.9550069173177084
389,0.9551188151041666
390,0.9541541205512153
391,0.9592403835720487
392,0.9603203667534722
393,0.9617496066623263
394,0.9615478515625
395,0.9609883626302084
396,0.9607357449001737
397,0.9596608479817709
398,0.9602745903862847
399,0.9613223605685763
400,0.9615292019314237
401,0.9610544840494791
402,0.9601253933376737
403,0.9612019856770834
404,0.9635077582465278
405,0.9645521375868056
406,0.9658643934461806
407,0.9648996988932291
408,0.9635162353515625
409,0.9626549614800347
410,0.9640282524956597
411,0.9655982123480903
412,0.9665442572699653
413,0.9671207004123263
414,0.9684617784288194
415,0.9675106472439237
416,0.9682566324869791
417,0.9679887559678819
418,0.968170166015625
419,0.9684380425347222
420,0.9694061279296875
421,0.9705759684244791
422,0.9712931315104166
423,0.9700554741753472
424,0.9703657362196181
425,0.9710422092013888
426,0.9736362033420138
427,0.9735039605034722
428,0.9735514322916666
429,0.9737124972873263
430,0.9738413492838541
431,0.9743974473741319
432,0.9747840033637153
433,0.9743533664279513
434,0.9740397135416666
435,0.974212646484375
436,0.9735683865017362
437,0.9761386447482638
438,0.9771558973524306
439,0.9781070285373263
440,0.9783986409505209
441,0.9781884087456597
442,0.9777865939670138
443,0.9787750244140625
444,0.9789021809895834
445,0.9793938530815972
446,0.9804958767361112
447,0.9810248480902778
448,0.98162841796875
449,0.9814843071831597
450,0.9819403754340278
451,0.9823845757378472
452,0.9827592637803819
453,0.9834442138671875
454,0.9834086100260416
455,0.9843783908420138
456,0.9856906467013888
457,0.9856041802300347
458,0.9851769341362847
459,0.9854549831814237
460,0.9862721761067709
461,0.9868096245659722
462,0.9873843722873263
463,0.9877811008029513
464,0.9883592393663194
465,0.9886661105685763
466,0.9887610541449653
467,0.9897596571180556
468,0.9900851779513888
469,0.9904819064670138
470,0.9908701578776041
471,0.9915144178602431
472,0.9913245307074653
473,0.9921349419487847
474,0.9930148654513888
475,0.9934709337022569
476,0.9937472873263888
477,0.9942796495225694
478,0.9947102864583334
479,0.9952680799696181
480,0.9957631429036459
481,0.9960683186848959
482,0.9963294135199653
483,0.9967566596137153
484,0.9971635606553819
485,0.9976687961154513
486,0.9983486599392362
