1,0.9421403672960069
2,0.9429134792751737
3,0.9450903998480903
4,0.9470113118489584
5,0.9480929904513888
6,0.94921875
7,0.9506191677517362
8,0.9519975450303819
9,0.9526824951171875
10,0.9544118245442709
11,0.9553036159939237
12,0.9564361572265625
13,0.9569227430555556
14,0.9562428792317709
15,0.9562971327039931
16,0.9560496012369791
17,0.9567888047960069
18,0.9569939507378472
19,0.9560309516059028
20,0.9561292860243056
21,0.9563530815972222
22,0.95672607421875
23,0.9586249457465278
24,0.9566938612196181
25,0.9565717909071181
26,0.9575381808810763
27,0.9574822319878472
28,0.9590403238932291
29,0.9592556423611112
30,0.9590284559461806
31,0.9581264919704862
32,0.9590047200520834
33,0.9589318169487847
34,0.9590742323133681
35,0.9593573676215278
36,0.9601813422309028
37,0.9597286648220487
38,0.9596472846137153
39,0.9590776231553819
40,0.9585486518012153
41,0.9577060275607638
42,0.9579247368706597
43,0.9583384195963541
44,0.9587944878472222
45,0.9570261637369791
46,0.9563530815972222
47,0.9564904106987847
48,0.9570990668402778
49,0.9607679578993056
50,0.9612664116753472
51,0.9609629313151041
52,0.9609697129991319
53,0.9605984157986112
54,0.9604339599609375
55,0.959320068359375
56,0.9586351182725694
57,0.9588267008463541
58,0.9586588541666666
59,0.9600541856553819
60,0.9618445502387153
61,0.9611155192057291
62,0.9605255126953125
63,0.9602576361762153
64,0.9605950249565972
65,0.9609764946831597
66,0.9614122178819444
67,0.9616122775607638
68,0.9616512722439237
69,0.9615529378255209
70,0.9614732530381944
71,0.9614173041449653
72,0.9620446099175347
73,0.9612545437282987
74,0.9610307481553819
75,0.9609849717881944
76,0.9608086480034722
77,0.9620954725477431
78,0.9623141818576388
79,0.9624786376953125
80,0.9620751274956597
81,0.9612714979383681
82,0.9604424370659722
83,0.9604407416449653
84,0.9614495171440972
85,0.9618394639756944
86,0.9628567165798612
87,0.9627261691623263
88,0.9626091851128472
89,0.9634992811414931
90,0.9634484185112847
91,0.96221923828125
92,0.9616156684027778
93,0.9613359239366319
94,0.9626278347439237
95,0.9630347357855903
96,0.9632670084635416
97,0.9629092746310763
98,0.9624396430121528
99,0.9627210828993056
100,0.9623260498046875
101,0.9621785481770834
102,0.9622819688585069
103,0.9630771213107638
104,0.9645894368489584
105,0.9657219780815972
106,0.9655066596137153
107,0.9644622802734375
108,0.9639824761284722
109,0.9637535942925347
110,0.9641198052300347
111,0.9647165934244791
112,0.9657067192925347
113,0.9659779866536459
114,0.9656592475043403
115,0.9658050537109375
116,0.9658101399739584
117,0.9666103786892362
118,0.9656982421875
119,0.9645657009548612
120,0.9646063910590278
121,0.9649675157335069
122,0.9660424126519097
123,0.9662746853298612
124,0.9664950900607638
125,0.9665289984809028
126,0.966827392578125
127,0.9667731391059028
128,0.9660017225477431
129,0.9651557074652778
130,0.9653744167751737
131,0.9659084743923612
132,0.966400146484375
133,0.9665510389539931
134,0.9668070475260416
135,0.9663119845920138
136,0.9668104383680556
137,0.9668443467881944
138,0.9674241807725694
139,0.9676615397135416
140,0.9682328965928819
141,0.9684719509548612
142,0.9676157633463541
143,0.9670528835720487
144,0.9662662082248263
145,0.9660712348090278
146,0.9674869113498263
147,0.9675835503472222
148,0.9678615993923612
149,0.968353271484375
150,0.9685991075303819
151,0.9686787923177084
152,0.9689805772569444
153,0.9685346815321181
154,0.9686245388454862
155,0.9681040445963541
156,0.9681718614366319
157,0.9687652587890625
158,0.9687872992621528
159,0.9697248670789931
160,0.9696604410807291
161,0.9691653781467013
162,0.9682142469618056
163,0.9677870008680556
164,0.9685702853732638
165,0.9688178168402778
166,0.9686821831597222
167,0.9682583279079862
168,0.9683108859592013
169,0.9683888753255209
170,0.9686703152126737
171,0.9701283772786459
172,0.9702962239583334
173,0.9706539577907987
174,0.9703148735894097
175,0.9702623155381944
176,0.9703640407986112
177,0.9704776340060763
178,0.9703097873263888
179,0.9691094292534722
180,0.9694146050347222
181,0.9693433973524306
182,0.9699537489149306
183,0.9703030056423612
184,0.9698605007595487
185,0.9701012505425347
186,0.9701453314887153
187,0.9699690077039931
188,0.9708879258897569
189,0.9702589246961806
190,0.9703403049045138
191,0.9701707628038194
192,0.9706370035807291
193,0.9705386691623263
194,0.9709896511501737
195,0.9710981580946181
196,0.9708133273654513
197,0.9717169867621528
198,0.9726019965277778
199,0.9733412000868056
200,0.9739922417534722
201,0.9741550021701388
202,0.9740719265407987
203,0.9730699327256944
204,0.9728410508897569
205,0.9728376600477431
206,0.9731903076171875
207,0.97406005859375
208,0.9737294514973959
209,0.9736768934461806
210,0.9738650851779513
211,0.9747856987847222
212,0.9752977159288194
213,0.9753197564019097
214,0.9757927788628472
215,0.9759758843315972
216,0.975860595703125
217,0.9761606852213541
218,0.97613525390625
219,0.9756724039713541
220,0.9756995307074653
221,0.9756045871310763
222,0.9756978352864584
223,0.9755469428168403
224,0.9760047064887153
225,0.97564697265625
226,0.9757080078125
227,0.9755384657118056
228,0.9750874837239584
229,0.9757605658637153
230,0.9760877821180556
231,0.9759131537543403
232,0.9761216905381944
233,0.9764065212673612
234,0.9761742485894097
235,0.9765489366319444
236,0.9767388237847222
237,0.9760776095920138
238,0.9761708577473959
239,0.9759267171223959
240,0.9762488471137153
241,0.9771864149305556
242,0.9776611328125
243,0.9778679741753472
244,0.9780646430121528
245,0.9783291286892362
246,0.9785342746310763
247,0.9786122639973959
248,0.9789750840928819
249,0.9786003960503472
250,0.9787953694661459
251,0.978424072265625
252,0.9781985812717013
253,0.9783715142144097
254,0.9784376356336806
255,0.9788326687282987
256,0.97833251953125
257,0.9778611924913194
258,0.9779222276475694
259,0.9782528347439237
260,0.9786427815755209
261,0.9786970350477431
262,0.9786410861545138
263,0.9776933458116319
264,0.9782019721137153
265,0.9781222873263888
266,0.9777442084418403
267,0.9786037868923612
268,0.9778628879123263
269,0.9784579806857638
270,0.9788784450954862
271,0.9792124430338541
272,0.9803025987413194
273,0.9794396294487847
274,0.9786258273654513
275,0.9789716932508681
276,0.9790835910373263
277,0.9798516167534722
278,0.9802110460069444
279,0.9801737467447916
280,0.9795006646050347
281,0.9796702067057291
282,0.9803025987413194
283,0.9805348714192709
284,0.9813401963975694
285,0.9814317491319444
286,0.9815114339192709
287,0.9815962049696181
288,0.9818962944878472
289,0.9815148247612847
290,0.9811553955078125
291,0.9805263943142362
292,0.9806908501519097
293,0.9809655083550347
294,0.9811214870876737
295,0.9812740749782987
296,0.9812571207682291
297,0.9816487630208334
298,0.9815792507595487
299,0.9818827311197916
300,0.9817470974392362
301,0.9820641411675347
302,0.9820878770616319
303,0.9816691080729166
304,0.9817233615451388
305,0.9822709825303819
306,0.9827779134114584
307,0.9829169379340278
308,0.9824354383680556
309,0.9818216959635416
310,0.9819980197482638
311,0.981842041015625
312,0.9824642605251737
313,0.9832390679253472
314,0.9832085503472222
315,0.9828915066189237
316,0.9833424886067709
317,0.9832950168185763
318,0.9837426079644097
319,0.9837086995442709
320,0.9834967719184028
321,0.9832000732421875
322,0.9831102159288194
323,0.9829813639322916
324,0.9836374918619791
325,0.9844207763671875
326,0.9841545952690972
327,0.9844801161024306
328,0.9843733045789931
329,0.9841359456380209
330,0.9851226806640625
331,0.9851209852430556
332,0.9854024251302084
333,0.9852837456597222
334,0.9853617350260416
335,0.985626220703125
336,0.9858449300130209
337,0.9858245849609375
338,0.9858415391710069
339,0.9858347574869791
340,0.9859263102213541
341,0.9860161675347222
342,0.9864874945746528
343,0.9866722954644097
344,0.9863026936848959
345,0.9860907660590278
346,0.9861382378472222
347,0.9862263997395834
348,0.9866366916232638
349,0.9866044786241319
350,0.9867214626736112
351,0.9873521592881944
352,0.9871741400824653
353,0.9871419270833334
354,0.9872979058159722
355,0.9870181613498263
356,0.9874860975477431
357,0.9874996609157987
358,0.9874894883897569
359,0.9874013264973959
360,0.9877794053819444
361,0.9875725640190972
362,0.987579345703125
363,0.9875115288628472
364,0.9875996907552084
365,0.9881507025824653
366,0.9884236653645834
367,0.9886288113064237
368,0.9886508517795138
369,0.9888932969835069
370,0.9892476399739584
371,0.9890407986111112
372,0.9890170627170138
373,0.9888916015625
374,0.9890831841362847
375,0.9892951117621528
376,0.9895680745442709
377,0.9900088840060763
378,0.9897070990668403
379,0.9900156656901041
380,0.9899783664279513
381,0.9896664089626737
382,0.9895612928602431
383,0.9895443386501737
384,0.9892917209201388
385,0.9899953206380209
386,0.9901716444227431
387,0.9903140597873263
388,0.9904412163628472
389,0.9905582004123263
390,0.9907887776692709
391,0.9906819661458334
392,0.9909328884548612
393,0.9907853868272569
394,0.9909990098741319
395,0.9911041259765625
396,0.9909786648220487
397,0.9914042154947916
398,0.9913957383897569
399,0.9915601942274306
400,0.9914906819661459
401,0.9916924370659722
402,0.9918857150607638
403,0.9920196533203125
404,0.9920654296875
405,0.9921298556857638
406,0.9922587076822916
407,0.9923417833116319
408,0.9924265543619791
409,0.9924604627821181
410,0.9925147162543403
411,0.9926181369357638
412,0.9926384819878472
413,0.9927503797743056
414,0.9927130805121528
415,0.9927079942491319
416,0.9929148356119791
417,0.9930843777126737
418,0.9932369656032987
419,0.9934115939670138
420,0.9934895833333334
421,0.9936048719618056
422,0.9936387803819444
423,0.9936845567491319
424,0.993743896484375
425,0.9939303927951388
426,0.9938507080078125
427,0.9941016303168403
428,0.9942694769965278
429,0.9942677815755209
430,0.9941914876302084
431,0.9942084418402778
432,0.9945136176215278
433,0.9949205186631944
434,0.9950222439236112
435,0.9948781331380209
436,0.9947068956163194
437,0.9948340521918403
438,0.9948374430338541
439,0.9951799180772569
440,0.9952494303385416
441,0.9954291449652778
442,0.9954410129123263
443,0.9953816731770834
444,0.9953596327039931
445,0.9955257839626737
446,0.9957360161675347
447,0.9960005018446181
448,0.9960581461588541
449,0.9961666531032987
450,0.9962073432074653
451,0.9962378607855903
452,0.9963344997829862
453,0.9964870876736112
454,0.9966651068793403
455,0.9967600504557291
456,0.9969245062934028
457,0.9969160291883681
458,0.9971025254991319
459,0.9971194797092013
460,0.9971940782335069
461,0.9973364935980903
462,0.9973500569661459
463,0.9976145426432291
464,0.9976620144314237
465,0.9976620144314237
466,0.9977739122178819
467,0.9978451199001737
468,0.9980112711588541
469,0.9980621337890625
470,0.9981977674696181
471,0.9982791476779513
472,0.99835205078125
473,0.9984232584635416
474,0.998443603515625
475,0.9985928005642362
476,0.9986351860894097
477,0.9987640380859375
478,0.9989335801866319
479,0.9990437825520834
480,0.9990878634982638
481,0.9991573757595487
482,0.9992472330729166
483,0.99932861328125
484,0.9994388156467013
485,0.9995507134331597
486,0.9996202256944444
