1,0.9726782904730903
2,0.9750857883029513
3,0.9765167236328125
4,0.9760470920138888
5,0.9763607449001737
6,0.9760674370659722
7,0.9757961697048612
8,0.9758707682291666
9,0.9762403700086806
10,0.9760776095920138
11,0.9761674669053819
12,0.9762641059027778
13,0.9763556586371528
14,0.9766693115234375
15,0.9765913221571181
16,0.9769914415147569
17,0.9770914713541666
18,0.9770846896701388
19,0.9771762424045138
20,0.9778272840711806
21,0.9783291286892362
22,0.9784817165798612
23,0.9786868625217013
24,0.9783359103732638
25,0.9779900444878472
26,0.9780205620659722
27,0.9781714545355903
28,0.9784986707899306
29,0.9783613416883681
30,0.9788818359375
31,0.9788970947265625
32,0.9786088731553819
33,0.9786258273654513
34,0.9778628879123263
35,0.9777069091796875
36,0.9778815375434028
37,0.9781901041666666
38,0.9785173204210069
39,0.9787038167317709
40,0.9786834716796875
41,0.9792124430338541
42,0.9793107774522569
43,0.9792904324001737
44,0.9789225260416666
45,0.9790242513020834
46,0.9790429009331597
47,0.9789649115668403
48,0.9785139295789931
49,0.9786309136284722
50,0.9787275526258681
51,0.9785359700520834
52,0.9789326985677084
53,0.9791378445095487
54,0.9789801703559028
55,0.9793226453993056
56,0.9794464111328125
57,0.9792666965060763
58,0.9795481363932291
59,0.9795074462890625
60,0.9795989990234375
61,0.9799092610677084
62,0.9797651502821181
63,0.9803839789496528
64,0.9805196126302084
65,0.9802771674262153
66,0.9806654188368056
67,0.9803619384765625
68,0.9804212782118056
69,0.9805399576822916
70,0.9808485243055556
71,0.9812418619791666
72,0.9812639024522569
73,0.9811248779296875
74,0.9809129503038194
75,0.9811655680338541
76,0.9813774956597222
77,0.9812723795572916
78,0.9814453125
79,0.9813283284505209
80,0.9810858832465278
81,0.9810231526692709
82,0.980865478515625
83,0.9811909993489584
84,0.9813622368706597
85,0.9815029568142362
86,0.9810706244574653
87,0.9811740451388888
88,0.9812995062934028
89,0.9815758599175347
90,0.9817911783854166
91,0.9818962944878472
92,0.9819268120659722
93,0.9820353190104166
94,0.9821726481119791
95,0.9818250868055556
96,0.981689453125
97,0.9812181260850694
98,0.9811147054036459
99,0.9813401963975694
100,0.9814402262369791
101,0.9822336832682291
102,0.9823269314236112
103,0.9817538791232638
104,0.9818556043836806
105,0.9816318088107638
106,0.9819708930121528
107,0.9821302625868056
108,0.9823760986328125
109,0.9824422200520834
110,0.9821573893229166
111,0.9819980197482638
112,0.9820437961154513
113,0.9818945990668403
114,0.9817640516493056
115,0.9818200005425347
116,0.9820522732204862
117,0.9825185139973959
118,0.9827745225694444
119,0.9827151828342013
120,0.9832255045572916
121,0.9834815131293403
122,0.9833865695529513
123,0.9832085503472222
124,0.9833797878689237
125,0.9835154215494791
126,0.9835154215494791
127,0.9835018581814237
128,0.9835035536024306
129,0.9836103651258681
130,0.9837544759114584
131,0.9836629231770834
132,0.9831220838758681
133,0.9831085205078125
134,0.9831695556640625
135,0.9832034640842013
136,0.9828982883029513
137,0.9828830295138888
138,0.9832644992404513
139,0.9833865695529513
140,0.9831068250868056
141,0.9832967122395834
142,0.9836883544921875
143,0.9837510850694444
144,0.9843648274739584
145,0.9845869276258681
146,0.9842970106336806
147,0.9844733344184028
148,0.9844546847873263
149,0.9845648871527778
150,0.9841478135850694
151,0.9835425482855903
152,0.9836985270182291
153,0.9840969509548612
154,0.9845665825737847
155,0.9845343695746528
156,0.9841156005859375
157,0.9836561414930556
158,0.9841206868489584
159,0.9844597710503472
160,0.9849836561414931
161,0.9850650363498263
162,0.9853023952907987
163,0.9851769341362847
164,0.9852752685546875
165,0.9850311279296875
166,0.9846649169921875
167,0.9845004611545138
168,0.9846920437282987
169,0.9846971299913194
170,0.9849463568793403
171,0.9845309787326388
172,0.9847819010416666
173,0.9847564697265625
174,0.9848683675130209
175,0.9848107231987847
176,0.9850040011935763
177,0.9847700330946181
178,0.9848531087239584
179,0.9851718478732638
180,0.9857279459635416
181,0.9858500162760416
182,0.9858873155381944
183,0.9856330023871528
184,0.9855550130208334
185,0.9854651557074653
186,0.9857940673828125
187,0.9862145317925347
188,0.9863111707899306
189,0.9863908555772569
190,0.9862382676866319
191,0.9859619140625
192,0.9857177734375
193,0.9858347574869791
194,0.9859144422743056
195,0.9861094156901041
196,0.9862213134765625
197,0.9862772623697916
198,0.9862382676866319
199,0.9862043592664931
200,0.9861907958984375
201,0.9862636990017362
202,0.9866214328342013
203,0.9867655436197916
204,0.9866434733072916
205,0.9869656032986112
206,0.9870707194010416
207,0.9869266086154513
208,0.9866400824652778
209,0.9865705702039931
210,0.9865875244140625
211,0.9866790771484375
212,0.9864942762586806
213,0.9865519205729166
214,0.9867621527777778
215,0.9867808024088541
216,0.98675537109375
217,0.9865671793619791
218,0.9869452582465278
219,0.9870096842447916
220,0.9872080485026041
221,0.9872826470269097
222,0.9873623318142362
223,0.9878929985894097
224,0.9878472222222222
225,0.9876573350694444
226,0.9877268473307291
227,0.9873894585503472
228,0.9876692030164931
229,0.9876013861762153
230,0.9877590603298612
231,0.9880472819010416
232,0.9880099826388888
233,0.9881066216362847
234,0.9879862467447916
235,0.9876827663845487
236,0.9878709581163194
237,0.9878896077473959
238,0.9882998996310763
239,0.9884507921006944
240,0.9882066514756944
241,0.9882032606336806
242,0.9881557888454862
243,0.9879150390625
244,0.9879896375868056
245,0.9879557291666666
246,0.9879828559027778
247,0.9879252115885416
248,0.9877607557508681
249,0.9881303575303819
250,0.9882303873697916
251,0.9886728922526041
252,0.9888051350911459
253,0.9885999891493056
254,0.9884050157335069
255,0.9886237250434028
256,0.9885915120442709
257,0.988677978515625
258,0.9890187581380209
259,0.9889984130859375
260,0.9889136420355903
261,0.9892374674479166
262,0.9888627794053819
263,0.989013671875
264,0.9886423746744791
265,0.9885796440972222
266,0.9889102511935763
267,0.9893866644965278
268,0.9896375868055556
269,0.9898054334852431
270,0.9895952012803819
271,0.9893883599175347
272,0.9894934760199653
273,0.9895867241753472
274,0.9896291097005209
275,0.9896816677517362
276,0.9898037380642362
277,0.9898647732204862
278,0.9900309244791666
279,0.9900783962673612
280,0.9899783664279513
281,0.9901038275824653
282,0.9899953206380209
283,0.9900292290581597
284,0.9900173611111112
285,0.9903886583116319
286,0.990386962890625
287,0.9904836018880209
288,0.9904632568359375
289,0.9906124538845487
290,0.9908379448784722
291,0.9908888075086806
292,0.9908888075086806
293,0.9910464816623263
294,0.9910024007161459
295,0.9910922580295138
296,0.9911549886067709
297,0.9911939832899306
298,0.9912770589192709
299,0.9913804796006944
300,0.9914177788628472
301,0.9915381537543403
302,0.9912770589192709
303,0.9915534125434028
304,0.9915568033854166
305,0.99169921875
306,0.9915415445963541
307,0.9916805691189237
308,0.9915195041232638
309,0.9916263156467013
310,0.9918145073784722
311,0.9917721218532987
312,0.9919331868489584
313,0.9919772677951388
314,0.9920739067925347
315,0.9918874104817709
316,0.9917009141710069
317,0.9917144775390625
318,0.9916975233289931
319,0.9917670355902778
320,0.9920552571614584
321,0.99200439453125
322,0.9922570122612847
323,0.9923536512586806
324,0.9922807481553819
325,0.9924672444661459
326,0.9922841389973959
327,0.9921010335286459
328,0.9922807481553819
329,0.9924350314670138
330,0.9923994276258681
331,0.9921959771050347
332,0.9923333062065972
333,0.9925181070963541
334,0.9926774766710069
335,0.9926554361979166
336,0.9926706949869791
337,0.9924248589409722
338,0.9926401774088541
339,0.992767333984375
340,0.9929097493489584
341,0.9929979112413194
342,0.9930775960286459
343,0.9931776258680556
344,0.9933336046006944
345,0.9932759602864584
346,0.99334716796875
347,0.9932573106553819
348,0.9933742947048612
349,0.9934115939670138
350,0.993377685546875
351,0.9934065077039931
352,0.9932912190755209
353,0.9933725992838541
354,0.9934353298611112
355,0.9937049018012153
356,0.9937082926432291
357,0.9938015407986112
358,0.9936540391710069
359,0.9937676323784722
360,0.9939439561631944
361,0.9939286973741319
362,0.9941558837890625
363,0.9941236707899306
364,0.9941321478949653
365,0.9940117730034722
366,0.9939659966362847
367,0.9939897325303819
368,0.9939812554253472
369,0.9941491021050347
370,0.9942389594184028
371,0.9944101969401041
372,0.9943423800998263
373,0.9943186442057291
374,0.9943186442057291
375,0.9944441053602431
376,0.9943728976779513
377,0.9944797092013888
378,0.9945034450954862
379,0.9945424397786459
380,0.9946322970920138
381,0.9946458604600694
382,0.9946933322482638
383,0.9949493408203125
384,0.9950680202907987
385,0.9949730767144097
386,0.9949561225043403
387,0.9950764973958334
388,0.9951629638671875
389,0.9952646891276041
390,0.9951850043402778
391,0.9953884548611112
392,0.9953104654947916
393,0.9954172770182291
394,0.9954376220703125
395,0.9955173068576388
396,0.9955478244357638
397,0.9955156114366319
398,0.9955630832248263
399,0.9954817030164931
400,0.9954511854383681
401,0.995513916015625
402,0.9957987467447916
403,0.9958936903211806
404,0.9959377712673612
405,0.9961174858940972
406,0.9961293538411459
407,0.996185302734375
408,0.9961463080512153
409,0.9961649576822916
410,0.9962531195746528
411,0.9963277180989584
412,0.9962344699435763
413,0.9963785807291666
414,0.9964633517795138
415,0.9964548746744791
416,0.996368408203125
417,0.9964616563585069
418,0.9965786404079862
419,0.9966956244574653
420,0.9968549940321181
421,0.9968397352430556
422,0.9969245062934028
423,0.9968448215060763
424,0.9969024658203125
425,0.9970347086588541
426,0.9970431857638888
427,0.9970838758680556
428,0.9971957736545138
429,0.9972754584418403
430,0.9973127577039931
431,0.9972669813368056
432,0.9973568386501737
433,0.9972822401258681
434,0.9973585340711806
435,0.9973212348090278
436,0.9974789089626737
437,0.99749755859375
438,0.9975467258029513
439,0.9976433648003472
440,0.9976247151692709
441,0.9977332221137153
442,0.9977840847439237
443,0.9977349175347222
444,0.9977484809027778
445,0.9978485107421875
446,0.9979400634765625
447,0.9979722764756944
448,0.9979485405815972
449,0.9979790581597222
450,0.9980553521050347
451,0.9981214735243056
452,0.9981723361545138
453,0.9981604682074653
454,0.9983147515190972
455,0.9983656141493056
456,0.998443603515625
457,0.9984215630425347
458,0.9984825981987847
459,0.998565673828125
460,0.9985741509331597
461,0.9985877143012153
462,0.9987199571397569
463,0.9987606472439237
464,0.9987843831380209
465,0.9988793267144097
466,0.998870849609375
467,0.9989166259765625
468,0.9990115695529513
469,0.9989844428168403
470,0.9990132649739584
471,0.9990946451822916
472,0.9991336398654513
473,0.9991946750217013
474,0.999237060546875
475,0.9992913140190972
476,0.9993455674913194
477,0.9993998209635416
478,0.9994320339626737
479,0.9994761149088541
480,0.9995286729600694
481,0.9995812310112847
482,0.9996473524305556
483,0.9996609157986112
484,0.9997049967447916
485,0.9997728135850694
486,0.9997897677951388
