1,0.9496951633029513
2,0.9578891330295138
3,0.9595218234592013
4,0.9586876763237847
5,0.9596286349826388
6,0.9581943088107638
7,0.9571007622612847
8,0.9582333034939237
9,0.9568769666883681
10,0.9556562635633681
11,0.9550984700520834
12,0.9542711046006944
13,0.9546373155381944
14,0.9549747043185763
15,0.9543677435980903
16,0.9546424018012153
17,0.9557766384548612
18,0.9560987684461806
19,0.9571160210503472
20,0.9583011203342013
21,0.9590131971571181
22,0.9589877658420138
23,0.9581264919704862
24,0.9583248562282987
25,0.9588741726345487
26,0.9595811631944444
27,0.9601203070746528
28,0.9594997829861112
29,0.9590827094184028
30,0.9591047498914931
31,0.9596489800347222
32,0.959442138671875
33,0.9597642686631944
34,0.957427978515625
35,0.9564836290147569
36,0.95587158203125
37,0.9558817545572916
38,0.9561513264973959
39,0.9575534396701388
40,0.9584977891710069
41,0.9598676893446181
42,0.9599032931857638
43,0.9597863091362847
44,0.9600558810763888
45,0.9592217339409722
46,0.9585011800130209
47,0.9581010606553819
48,0.9575398763020834
49,0.9583858913845487
50,0.9594099256727431
51,0.9598202175564237
52,0.9606967502170138
53,0.9609086778428819
54,0.9607984754774306
55,0.9614054361979166
56,0.9621344672309028
57,0.9622175428602431
58,0.9622429741753472
59,0.9617902967664931
60,0.9606543646918403
61,0.9607577853732638
62,0.9607137044270834
63,0.9614139133029513
64,0.9622463650173612
65,0.9633348253038194
66,0.9641299777560763
67,0.9636739095052084
68,0.9636213514539931
69,0.9631839328342013
70,0.9624209933810763
71,0.9620785183376737
72,0.9611782497829862
73,0.9613562689887153
74,0.9614427354600694
75,0.9615715874565972
76,0.9627736409505209
77,0.962432861328125
78,0.9620395236545138
79,0.9613087972005209
80,0.9612341986762153
81,0.9627414279513888
82,0.9626057942708334
83,0.9619666205512153
84,0.9620310465494791
85,0.9615817599826388
86,0.9625939263237847
87,0.9638604058159722
88,0.9642317030164931
89,0.9646453857421875
90,0.9636756049262153
91,0.9644622802734375
92,0.9653693305121528
93,0.9651116265190972
94,0.9651455349392362
95,0.9642045762803819
96,0.9633110894097222
97,0.9635840521918403
98,0.9634636773003472
99,0.9647996690538194
100,0.9646165635850694
101,0.9651879204644097
102,0.9660610622829862
103,0.9657185872395834
104,0.9648623996310763
105,0.964202880859375
106,0.9639739990234375
107,0.9646148681640625
108,0.9642520480685763
109,0.9648505316840278
110,0.9645758734809028
111,0.9650658501519097
112,0.9652981228298612
113,0.9645487467447916
114,0.9650149875217013
115,0.9653642442491319
116,0.9657338460286459
117,0.965423583984375
118,0.9649166531032987
119,0.9653405083550347
120,0.9657253689236112
121,0.9652964274088541
122,0.9657558865017362
123,0.9662526448567709
124,0.9660661485460069
125,0.9667527940538194
126,0.9665544297960069
127,0.9670054117838541
128,0.9671393500434028
129,0.9674089219835069
130,0.9681989881727431
131,0.9675954182942709
132,0.9672597249348959
133,0.9665154351128472
134,0.9659067789713541
135,0.9673936631944444
136,0.9672902425130209
137,0.9675716824001737
138,0.9671139187282987
139,0.9663848876953125
140,0.9656575520833334
141,0.966064453125
142,0.9665357801649306
143,0.9661712646484375
144,0.9666103786892362
145,0.9672648111979166
146,0.9672461615668403
147,0.9672325981987847
148,0.9679192437065972
149,0.9685804578993056
150,0.9682481553819444
151,0.9682685004340278
152,0.9678565131293403
153,0.9679158528645834
154,0.9682668050130209
155,0.9687856038411459
156,0.9689670138888888
157,0.9692738850911459
158,0.9694875081380209
159,0.9702216254340278
160,0.9701368543836806
161,0.9697045220269097
162,0.9704047309027778
163,0.9703386094835069
164,0.9711151123046875
165,0.9711676703559028
166,0.9708251953125
167,0.9705471462673612
168,0.9701402452256944
169,0.9701419406467013
170,0.9697129991319444
171,0.96954345703125
172,0.96978759765625
173,0.9703826904296875
174,0.9716135660807291
175,0.9709252251519097
176,0.9705471462673612
177,0.9705657958984375
178,0.9710828993055556
179,0.9714592827690972
180,0.9716627332899306
181,0.9717797173394097
182,0.9717814127604166
183,0.9717627631293403
184,0.9715796576605903
185,0.9716220431857638
186,0.9717119004991319
187,0.9715983072916666
188,0.9719000922309028
189,0.9724968804253472
190,0.9719831678602431
191,0.9717508951822916
192,0.9723239474826388
193,0.9727494981553819
194,0.9726325141059028
195,0.9727901882595487
196,0.9735887315538194
197,0.9744822184244791
198,0.9747873942057291
199,0.9740922715928819
200,0.9741668701171875
201,0.9739430745442709
202,0.9734547932942709
203,0.9738922119140625
204,0.9739617241753472
205,0.9741007486979166
206,0.9747297498914931
207,0.9748365614149306
208,0.9747060139973959
209,0.9749416775173612
210,0.9749213324652778
211,0.9747144911024306
212,0.9745381673177084
213,0.9744432237413194
214,0.9746992323133681
215,0.9741872151692709
216,0.9737006293402778
217,0.9734887017144097
218,0.9734547932942709
219,0.9745500352647569
220,0.9749077690972222
221,0.9752926296657987
222,0.9751773410373263
223,0.9754435221354166
224,0.9761030409071181
225,0.9759131537543403
226,0.9761996799045138
227,0.9761437310112847
228,0.9768914116753472
229,0.9768490261501737
230,0.9766811794704862
231,0.9767371283637153
232,0.9770982530381944
233,0.9767846001519097
234,0.9768964979383681
235,0.9765675862630209
236,0.9765489366319444
237,0.9762471516927084
238,0.9766404893663194
239,0.9771152072482638
240,0.9771779378255209
241,0.9774644639756944
242,0.9775746663411459
243,0.9768625895182291
244,0.9760793050130209
245,0.9753146701388888
246,0.9750298394097222
247,0.9753401014539931
248,0.9754536946614584
249,0.9762827555338541
250,0.9763471815321181
251,0.9766387939453125
252,0.9768269856770834
253,0.9770185682508681
254,0.9773390028211806
255,0.9775339762369791
256,0.9773593478732638
257,0.9775865342881944
258,0.9778323703342013
259,0.9777408175998263
260,0.9773169623480903
261,0.9770863850911459
262,0.9770999484592013
263,0.9779561360677084
264,0.9781087239583334
265,0.9776407877604166
266,0.9783409966362847
267,0.9789191351996528
268,0.9791005452473959
269,0.9792938232421875
270,0.9784579806857638
271,0.9783036973741319
272,0.9780120849609375
273,0.978607177734375
274,0.97906494140625
275,0.9790818956163194
276,0.9791683620876737
277,0.9792514377170138
278,0.9795701768663194
279,0.9797431098090278
280,0.9798821343315972
281,0.9796990288628472
282,0.9801161024305556
283,0.98046875
284,0.980712890625
285,0.9804517957899306
286,0.9806671142578125
287,0.9807010226779513
288,0.9805043538411459
289,0.9806925455729166
290,0.9809621175130209
291,0.9814114040798612
292,0.9813113742404513
293,0.9820031060112847
294,0.9816758897569444
295,0.981781005859375
296,0.9818488226996528
297,0.9819691975911459
298,0.9822540283203125
299,0.9822099473741319
300,0.9819217258029513
301,0.9817894829644097
302,0.9822998046875
303,0.9825846354166666
304,0.9824676513671875
305,0.9825269911024306
306,0.9830746120876737
307,0.9830407036675347
308,0.9826812744140625
309,0.9830576578776041
310,0.9835001627604166
311,0.9840342203776041
312,0.9841359456380209
313,0.9838816324869791
314,0.9839884440104166
315,0.9839358859592013
316,0.9837358262803819
317,0.9837256537543403
318,0.9835900200737847
319,0.9838646782769097
320,0.9838833279079862
321,0.9843292236328125
322,0.9841715494791666
323,0.9842105441623263
324,0.9844512939453125
325,0.9842359754774306
326,0.9844445122612847
327,0.984283447265625
328,0.9847378200954862
329,0.9849497477213541
330,0.9846988254123263
331,0.9848446316189237
332,0.9849565294053819
333,0.9855465359157987
334,0.9855838351779513
335,0.9856024848090278
336,0.9858974880642362
337,0.9858788384331597
338,0.9859330919053819
339,0.9857160780164931
340,0.9858635796440972
341,0.9861789279513888
342,0.9861060248480903
343,0.9863874647352431
344,0.9862297905815972
345,0.9861518012152778
346,0.9865383572048612
347,0.9866400824652778
348,0.9872300889756944
349,0.9873131646050347
350,0.9874114990234375
351,0.9873894585503472
352,0.9873572455512153
353,0.9874810112847222
354,0.9874759250217013
355,0.9875267876519097
356,0.9877878824869791
357,0.9880693223741319
358,0.9884101019965278
359,0.9883066813151041
360,0.9883524576822916
361,0.9883473714192709
362,0.9885152180989584
363,0.9882473415798612
364,0.9881778293185763
365,0.9881218804253472
366,0.9882948133680556
367,0.988250732421875
368,0.9883778889973959
369,0.9883812798394097
370,0.9885474310980903
371,0.9887440999348959
372,0.988800048828125
373,0.9888916015625
374,0.9891781277126737
375,0.9894493950737847
376,0.9891526963975694
377,0.9892985026041666
378,0.9892357720269097
379,0.9891747368706597
380,0.9890831841362847
381,0.9894188774956597
382,0.9897342258029513
383,0.9900394015842013
384,0.9902547200520834
385,0.9901784261067709
386,0.9903038872612847
387,0.9905192057291666
388,0.9906548394097222
389,0.9907446967230903
390,0.9906446668836806
391,0.9908701578776041
392,0.9907565646701388
393,0.9910990397135416
394,0.9912363688151041
395,0.9912143283420138
396,0.9911939832899306
397,0.9909600151909722
398,0.9910244411892362
399,0.9911532931857638
400,0.9914618598090278
401,0.9915042453342013
402,0.9916178385416666
403,0.9919145372178819
404,0.9919721815321181
405,0.9921383327907987
406,0.9923180474175347
407,0.9923960367838541
408,0.9924977620442709
409,0.9925723605685763
410,0.9928215874565972
411,0.9927825927734375
412,0.9926418728298612
413,0.9928063286675347
414,0.9929012722439237
415,0.9930742051866319
416,0.9932590060763888
417,0.9933302137586806
418,0.9934539794921875
419,0.9935217963324653
420,0.9936794704861112
421,0.9937710232204862
422,0.993743896484375
423,0.9936574300130209
424,0.9935930040147569
425,0.9936845567491319
426,0.9939693874782987
427,0.9939846462673612
428,0.9941168891059028
429,0.9941168891059028
430,0.9942270914713541
431,0.9944627549913194
432,0.9945966932508681
433,0.994476318359375
434,0.9945966932508681
435,0.9947933620876737
436,0.9948967827690972
437,0.9950358072916666
438,0.9950510660807291
439,0.9950917561848959
440,0.9953358968098959
441,0.995361328125
442,0.9954613579644097
443,0.9955952962239584
444,0.9956173366970487
445,0.9959835476345487
446,0.9960564507378472
447,0.9958869086371528
448,0.9960055881076388
449,0.9961056179470487
450,0.9961463080512153
451,0.9963565402560763
452,0.9964040120442709
453,0.9963701036241319
454,0.9965769449869791
455,0.9966651068793403
456,0.9967397054036459
457,0.9968855116102431
458,0.9969702826605903
459,0.9969889322916666
460,0.9971771240234375
461,0.9973161485460069
462,0.9974161783854166
463,0.9975043402777778
464,0.9975755479600694
465,0.9976416693793403
466,0.9977060953776041
467,0.9978620741102431
468,0.9979095458984375
469,0.9980316162109375
470,0.9980977376302084
471,0.9981875949435763
472,0.9983011881510416
473,0.9983927408854166
474,0.9984927707248263
475,0.9986046685112847
476,0.9986487494574653
477,0.9987284342447916
478,0.9988115098741319
479,0.9989386664496528
480,0.9990607367621528
481,0.9991929796006944
482,0.9992964002821181
483,0.9993523491753472
484,0.9994676378038194
485,0.9995490180121528
486,0.9996863471137153
