1,0.7504696316189237
2,0.7832607693142362
3,0.7983652750651041
4,0.8046739366319444
5,0.8085801866319444
6,0.8059471978081597
7,0.8038516574435763
8,0.8005845811631944
9,0.7985788981119791
10,0.7986077202690972
11,0.801513671875
12,0.8088056776258681
13,0.8095703125
14,0.8154076470269097
15,0.8164893256293403
16,0.8123270670572916
17,0.8112284342447916
18,0.8137546115451388
19,0.8143632676866319
20,0.8107503255208334
21,0.7989247639973959
22,0.8034379747178819
23,0.7984466552734375
24,0.8074425591362847
25,0.8119625515407987
26,0.8133544921875
27,0.8185204399956597
28,0.8131527370876737
29,0.8117760552300347
30,0.8076121012369791
31,0.8028445773654513
32,0.8046213785807291
33,0.8083953857421875
34,0.8033871120876737
35,0.8067542182074653
36,0.8151126437717013
37,0.8189663357204862
38,0.8231692843967013
39,0.8221299913194444
40,0.8192206488715278
41,0.8128373887803819
42,0.8085835774739584
43,0.8089836968315972
44,0.8152431911892362
45,0.8210652669270834
46,0.8224063449435763
47,0.8217858208550347
48,0.8115268283420138
49,0.8065100775824653
50,0.8035176595052084
51,0.8057454427083334
52,0.8065897623697916
53,0.8063574896918403
54,0.8022833930121528
55,0.8080546061197916
56,0.8039635552300347
57,0.801971435546875
58,0.7959374321831597
59,0.7952389187282987
60,0.7925838894314237
61,0.7894337972005209
62,0.7932111952039931
63,0.8003150092230903
64,0.8139258490668403
65,0.8187984890407987
66,0.8147752549913194
67,0.8063218858506944
68,0.8072136773003472
69,0.8099806043836806
70,0.81201171875
71,0.8106146918402778
72,0.8012474907769097
73,0.7954033745659722
74,0.79595947265625
75,0.7982245551215278
76,0.7940283881293403
77,0.7967647976345487
78,0.8055691189236112
79,0.8034396701388888
80,0.8190036349826388
81,0.8283182779947916
82,0.8232811821831597
83,0.8247850206163194
84,0.8242373996310763
85,0.8240305582682291
86,0.8195970323350694
87,0.8220045301649306
88,0.8259565565321181
89,0.8307003445095487
90,0.8354034423828125
91,0.8315107557508681
92,0.8251800537109375
93,0.8218502468532987
94,0.8211246066623263
95,0.8216739230685763
96,0.8204735649956597
97,0.8274858262803819
98,0.8244001600477431
99,0.8188595241970487
100,0.8177914089626737
101,0.8178287082248263
102,0.8181118435329862
103,0.8293117947048612
104,0.8293846978081597
105,0.8303120930989584
106,0.8291575113932291
107,0.8338063557942709
108,0.8364698621961806
109,0.8417036268446181
110,0.8408169216579862
111,0.8415815565321181
112,0.8410695393880209
113,0.8384331597222222
114,0.8371904161241319
115,0.8317803276909722
116,0.8233303493923612
117,0.8143513997395834
118,0.8131832546657987
119,0.8231862386067709
120,0.8233100043402778
121,0.8385416666666666
122,0.8426751030815972
123,0.8395351833767362
124,0.8292100694444444
125,0.8236524793836806
126,0.8219858805338541
127,0.8228590223524306
128,0.8309444851345487
129,0.8292694091796875
130,0.8303544786241319
131,0.8249409993489584
132,0.8229709201388888
133,0.8267890082465278
134,0.8240152994791666
135,0.8288523356119791
136,0.8322431776258681
137,0.8272535536024306
138,0.8274858262803819
139,0.8253563774956597
140,0.8233846028645834
141,0.8119252522786459
142,0.8098670111762153
143,0.8084632025824653
144,0.8151007758246528
145,0.8236473931206597
146,0.8337826199001737
147,0.8375362820095487
148,0.8370869954427084
149,0.8397640652126737
150,0.8407711452907987
151,0.8425445556640625
152,0.8440348307291666
153,0.8417782253689237
154,0.8430769178602431
155,0.8352593315972222
156,0.8339606391059028
157,0.8309275309244791
158,0.8283420138888888
159,0.8295576307508681
160,0.8295457628038194
161,0.8355577256944444
162,0.8352033827039931
163,0.8416408962673612
164,0.8452690972222222
165,0.8468170166015625
166,0.8443179660373263
167,0.8453657362196181
168,0.845703125
169,0.8520575629340278
170,0.8481987847222222
171,0.8442738850911459
172,0.8419986300998263
173,0.8368038601345487
174,0.8421647813585069
175,0.8418223063151041
176,0.8454369439019097
177,0.8461218939887153
178,0.8461795383029513
179,0.8544192843967013
180,0.8544735378689237
181,0.8589138454861112
182,0.8605075412326388
183,0.8602261013454862
184,0.8543192545572916
185,0.8517269558376737
186,0.8519117567274306
187,0.8469814724392362
188,0.8493618435329862
189,0.8483259412977431
190,0.8481614854600694
191,0.8408101399739584
192,0.8340504964192709
193,0.8272738986545138
194,0.8279774983723959
195,0.8293423122829862
196,0.8437584771050347
197,0.8478936089409722
198,0.8466406928168403
199,0.8456064860026041
200,0.8451555040147569
201,0.8471493191189237
202,0.8463473849826388
203,0.8537139892578125
204,0.8645884195963541
205,0.866455078125
206,0.8668619791666666
207,0.8681827121310763
208,0.8657769097222222
209,0.8674112955729166
210,0.8659261067708334
211,0.8620385064019097
212,0.8631608751085069
213,0.8628675672743056
214,0.8599226209852431
215,0.8543446858723959
216,0.8512352837456597
217,0.8517066107855903
218,0.85107421875
219,0.8480784098307291
220,0.8477274576822916
221,0.8485124376085069
222,0.8506724039713541
223,0.8576100667317709
224,0.8585459391276041
225,0.8590155707465278
226,0.8631880018446181
227,0.8609602186414931
228,0.8550143771701388
229,0.8415595160590278
230,0.8424750434027778
231,0.8448215060763888
232,0.8493245442708334
233,0.8536970350477431
234,0.8532799614800347
235,0.8521406385633681
236,0.8590172661675347
237,0.8632354736328125
238,0.8625725640190972
239,0.8694254557291666
240,0.8680267333984375
241,0.8731418185763888
242,0.8800760904947916
243,0.8735385470920138
244,0.8718905978732638
245,0.8636762830946181
246,0.8656412760416666
247,0.8686862521701388
248,0.8661482069227431
249,0.8693712022569444
250,0.8686591254340278
251,0.8704901801215278
252,0.8667653401692709
253,0.8666110568576388
254,0.8662363688151041
255,0.8702952067057291
256,0.8722822401258681
257,0.8733740912543403
258,0.8707665337456597
259,0.869873046875
260,0.8715582953559028
261,0.8763309054904513
262,0.8860236273871528
263,0.8852132161458334
264,0.8841637505425347
265,0.8762020534939237
266,0.8795081244574653
267,0.8765241834852431
268,0.8810984293619791
269,0.8798116048177084
270,0.8748406304253472
271,0.8684302435980903
272,0.8616672092013888
273,0.8613145616319444
274,0.8672146267361112
275,0.8715667724609375
276,0.8770090738932291
277,0.8801710340711806
278,0.8898434109157987
279,0.8883887396918403
280,0.8919389512803819
281,0.8936445448133681
282,0.8937869601779513
283,0.89617919921875
284,0.8944634331597222
285,0.8940887451171875
286,0.8898095024956597
287,0.8923187255859375
288,0.8871714274088541
289,0.8844723171657987
290,0.8889024522569444
291,0.8910742865668403
292,0.8871612548828125
293,0.8905385335286459
294,0.8909742567274306
295,0.8886057535807291
296,0.8931121826171875
297,0.8921729193793403
298,0.8954891628689237
299,0.8945142957899306
300,0.8902537027994791
301,0.8874732123480903
302,0.884368896484375
303,0.8856133355034722
304,0.8892381456163194
305,0.8903995090060763
306,0.8961368136935763
307,0.8940684000651041
308,0.8964080810546875
309,0.8993275960286459
310,0.9020216200086806
311,0.9046885172526041
312,0.9017961290147569
313,0.9022894965277778
314,0.900909423828125
315,0.9069332546657987
316,0.9039527045355903
317,0.9067264133029513
318,0.9062143961588541
319,0.9066416422526041
320,0.9025336371527778
321,0.9004635281032987
322,0.9009280734592013
323,0.9030982123480903
324,0.9070315890842013
325,0.9081980387369791
326,0.9108564588758681
327,0.9108242458767362
328,0.9121297200520834
329,0.9197370741102431
330,0.9202490912543403
331,0.9210595024956597
332,0.9190148247612847
333,0.9190470377604166
334,0.9228464762369791
335,0.922515869140625
336,0.9180331759982638
337,0.9220343695746528
338,0.9226955837673612
339,0.9213477240668403
340,0.9179907904730903
341,0.9196353488498263
342,0.9191335042317709
343,0.9192555745442709
344,0.9202660454644097
345,0.9163496229383681
346,0.9202813042534722
347,0.9175279405381944
348,0.9179314507378472
349,0.91558837890625
350,0.9182840983072916
351,0.9155612521701388
352,0.9097679985894097
353,0.9145439995659722
354,0.9162224663628472
355,0.9210086398654513
356,0.9201321072048612
357,0.9245045979817709
358,0.9257388644748263
359,0.9223124186197916
360,0.9193200005425347
361,0.9211917453342013
362,0.9246300591362847
363,0.9275444878472222
364,0.9296637641059028
365,0.9304267035590278
366,0.9272511800130209
367,0.9260830349392362
368,0.9284464518229166
369,0.9278750949435763
370,0.9253743489583334
371,0.9254082573784722
372,0.9265984429253472
373,0.9316270616319444
374,0.9328172471788194
375,0.9325646294487847
376,0.9325391981336806
377,0.9334445529513888
378,0.9353739420572916
379,0.9363505045572916
380,0.9344346788194444
381,0.9362996419270834
382,0.9379798041449653
383,0.940277099609375
384,0.9400566948784722
385,0.9394073486328125
386,0.9385392930772569
387,0.9379085964626737
388,0.9391801622178819
389,0.9406026204427084
390,0.9413435194227431
391,0.9437289767795138
392,0.9470503065321181
393,0.9472893608940972
394,0.9473961724175347
395,0.9453599717881944
396,0.9437611897786459
397,0.9442104763454862
398,0.9450615776909722
399,0.9473334418402778
400,0.948333740234375
401,0.9455430772569444
402,0.9470350477430556
403,0.9486134847005209
404,0.9503055148654513
405,0.9522264268663194
406,0.9513685438368056
407,0.9508293999565972
408,0.9495849609375
409,0.9513753255208334
410,0.9531995985243056
411,0.9539133707682291
412,0.9552663167317709
413,0.9551764594184028
414,0.9577162000868056
415,0.9590538872612847
416,0.9599643283420138
417,0.9607255723741319
418,0.9620547824435763
419,0.9614206949869791
420,0.9625718858506944
421,0.9619225396050347
422,0.9607459174262153
423,0.9605967203776041
424,0.9598371717664931
425,0.9610002305772569
426,0.9625227186414931
427,0.9645979139539931
428,0.9661526150173612
429,0.9654744466145834
430,0.96466064453125
431,0.9638180202907987
432,0.9651133219401041
433,0.9650539822048612
434,0.9658050537109375
435,0.9662916395399306
436,0.9663187662760416
437,0.9681989881727431
438,0.9684990776909722
439,0.9686075846354166
440,0.9694027370876737
441,0.970489501953125
442,0.9709184434678819
443,0.9718594021267362
444,0.9721272786458334
445,0.9723714192708334
446,0.9738532172309028
447,0.9737955729166666
448,0.9746263292100694
449,0.9743279351128472
450,0.9750213623046875
451,0.9762098524305556
452,0.9770711263020834
453,0.9776814778645834
454,0.9775356716579862
455,0.9784461127387153
456,0.9793531629774306
457,0.9797397189670138
458,0.9793039957682291
459,0.9807179768880209
460,0.9811587863498263
461,0.9827931722005209
462,0.9834170871310763
463,0.9838087293836806
464,0.9850362141927084
465,0.9854278564453125
466,0.9859347873263888
467,0.987060546875
468,0.9875200059678819
469,0.9878302680121528
470,0.9879235161675347
471,0.9879964192708334
472,0.9881880018446181
473,0.9890153672960069
474,0.9904852973090278
475,0.9913957383897569
476,0.9917500813802084
477,0.9923214382595487
478,0.9927825927734375
479,0.9935251871744791
480,0.9944559733072916
481,0.9948137071397569
482,0.9952579074435763
483,0.9957851833767362
484,0.9963311089409722
485,0.9969414605034722
486,0.9976857503255209
