1,0.7608473036024306
2,0.8034345838758681
3,0.8202785915798612
4,0.8315717909071181
5,0.8346761067708334
6,0.8250342475043403
7,0.8151058620876737
8,0.8059217664930556
9,0.7958289252387153
10,0.7856174045138888
11,0.79010009765625
12,0.7896084255642362
13,0.7892201741536459
14,0.7882419162326388
15,0.7871500651041666
16,0.7836015489366319
17,0.7867312961154513
18,0.7905527750651041
19,0.7852986653645834
20,0.7848476833767362
21,0.7844085693359375
22,0.7854953342013888
23,0.7808583577473959
24,0.7828369140625
25,0.7862158881293403
26,0.7828538682725694
27,0.7805769178602431
28,0.7780575222439237
29,0.7777557373046875
30,0.7798665364583334
31,0.7826605902777778
32,0.7866583930121528
33,0.7911953396267362
34,0.7873789469401041
35,0.7921396891276041
36,0.7885555691189237
37,0.7877129448784722
38,0.7868669297960069
39,0.7841949462890625
40,0.7851325141059028
41,0.7879180908203125
42,0.7889828152126737
43,0.7943132188585069
44,0.7984670003255209
45,0.8030344645182291
46,0.8024732801649306
47,0.8030480278862847
48,0.7953423394097222
49,0.7932824028862847
50,0.7930416531032987
51,0.793914794921875
52,0.7919989691840278
53,0.7893710666232638
54,0.7912072075737847
55,0.7924584282769097
56,0.7920430501302084
57,0.7906561957465278
58,0.7887335883246528
59,0.7880350748697916
60,0.7873026529947916
61,0.7821384006076388
62,0.7840457492404513
63,0.7864718967013888
64,0.7903374565972222
65,0.7908799913194444
66,0.7902848985460069
67,0.7893524169921875
68,0.7930314805772569
69,0.7941555447048612
70,0.7921905517578125
71,0.7932993570963541
72,0.7938486735026041
73,0.7881486680772569
74,0.7897898356119791
75,0.7954576280381944
76,0.7997233072916666
77,0.7934943305121528
78,0.7945488823784722
79,0.7941792805989584
80,0.7985619439019097
81,0.8039923773871528
82,0.8039262559678819
83,0.8048316107855903
84,0.8053131103515625
85,0.8038804796006944
86,0.8046722412109375
87,0.8078579372829862
88,0.8132273356119791
89,0.8172166612413194
90,0.8225436740451388
91,0.8262515597873263
92,0.8216349283854166
93,0.8161824544270834
94,0.8124576144748263
95,0.8082851833767362
96,0.8090989854600694
97,0.8160620795355903
98,0.8173658582899306
99,0.8171352810329862
100,0.8177761501736112
101,0.8219553629557291
102,0.8187103271484375
103,0.8237711588541666
104,0.81903076171875
105,0.8206821017795138
106,0.8207770453559028
107,0.8203057183159722
108,0.8236507839626737
109,0.8263329399956597
110,0.8257480197482638
111,0.8216908772786459
112,0.8223961724175347
113,0.8229726155598959
114,0.8214670817057291
115,0.8234134250217013
116,0.8187815348307291
117,0.8138512505425347
118,0.8106943766276041
119,0.8122338189019097
120,0.8150787353515625
121,0.8109012179904513
122,0.8129035101996528
123,0.8155551486545138
124,0.8140411376953125
125,0.8179389105902778
126,0.8191019694010416
127,0.8203565809461806
128,0.8184594048394097
129,0.8171810574001737
130,0.8181711832682291
131,0.8196597629123263
132,0.8212721082899306
133,0.8254869249131944
134,0.8226793077256944
135,0.8221978081597222
136,0.8214230007595487
137,0.8205142550998263
138,0.8222724066840278
139,0.8210669623480903
140,0.8174506293402778
141,0.8097330729166666
142,0.8102739122178819
143,0.8111911349826388
144,0.8148617214626737
145,0.8211110432942709
146,0.8249901665581597
147,0.8288608127170138
148,0.8317548963758681
149,0.8320838080512153
150,0.8332536485460069
151,0.8308427598741319
152,0.8293304443359375
153,0.8313581678602431
154,0.8307376437717013
155,0.8288167317708334
156,0.8294711642795138
157,0.8305867513020834
158,0.828765869140625
159,0.8307444254557291
160,0.8311292860243056
161,0.8348134358723959
162,0.8381601969401041
163,0.8400319417317709
164,0.8391130235460069
165,0.8379601372612847
166,0.8366597493489584
167,0.8342234293619791
168,0.8343217637803819
169,0.8376956515842013
170,0.8369581434461806
171,0.8386806911892362
172,0.8377651638454862
173,0.8358713785807291
174,0.8369920518663194
175,0.8356543646918403
176,0.8410593668619791
177,0.8393961588541666
178,0.8351779513888888
179,0.8375193277994791
180,0.8371344672309028
181,0.8379601372612847
182,0.8412763807508681
183,0.8432261149088541
184,0.8415120442708334
185,0.8355119493272569
186,0.8381330702039931
187,0.8389604356553819
188,0.8415154351128472
189,0.8461422390407987
190,0.8451283772786459
191,0.8440755208333334
192,0.8452216254340278
193,0.8431939019097222
194,0.8425496419270834
195,0.8410373263888888
196,0.84442138671875
197,0.8459998236762153
198,0.8470018174913194
199,0.8478529188368056
200,0.8486311170789931
201,0.8517235649956597
202,0.8521101209852431
203,0.8554128011067709
204,0.85406494140625
205,0.8525661892361112
206,0.8530629475911459
207,0.8583814832899306
208,0.8610483805338541
209,0.8602074517144097
210,0.8615095350477431
211,0.85675048828125
212,0.8587782118055556
213,0.8565453423394097
214,0.8568047417534722
215,0.8539462619357638
216,0.8523440890842013
217,0.8534003363715278
218,0.8522423638237847
219,0.8551228841145834
220,0.8560367160373263
221,0.8567606608072916
222,0.8560519748263888
223,0.8565470377604166
224,0.8583747016059028
225,0.8605414496527778
226,0.8638017442491319
227,0.8621504041883681
228,0.8652479383680556
229,0.8608754475911459
230,0.8599090576171875
231,0.8601972791883681
232,0.8589969211154513
233,0.8611907958984375
234,0.8610500759548612
235,0.8583390977647569
236,0.8619469536675347
237,0.8621470133463541
238,0.8603651258680556
239,0.8633100721571181
240,0.8611331515842013
241,0.8641137017144097
242,0.867584228515625
243,0.8635813395182291
244,0.8610687255859375
245,0.8555416531032987
246,0.8579796685112847
247,0.8568437364366319
248,0.8550211588541666
249,0.8555433485243056
250,0.8562045627170138
251,0.8554331461588541
252,0.8566911485460069
253,0.8606414794921875
254,0.8613043891059028
255,0.8643697102864584
256,0.8684607611762153
257,0.8684200710720487
258,0.8704918755425347
259,0.8709021674262153
260,0.8736589219835069
261,0.8735571967230903
262,0.8710683186848959
263,0.8733876546223959
264,0.8753577338324653
265,0.8730231391059028
266,0.8773481580946181
267,0.8767920600043403
268,0.8786722819010416
269,0.8780958387586806
270,0.8769310845269097
271,0.8782145182291666
272,0.8800862630208334
273,0.8812425401475694
274,0.8846350775824653
275,0.8837704128689237
276,0.8828362358940972
277,0.8797064887152778
278,0.8831159803602431
279,0.8845197889539931
280,0.8843875461154513
281,0.8849978976779513
282,0.8836720784505209
283,0.8836669921875
284,0.8853793674045138
285,0.8872324625651041
286,0.8894534640842013
287,0.8906453450520834
288,0.8886922200520834
289,0.8873223198784722
290,0.8931545681423612
291,0.8937784830729166
292,0.8931172688802084
293,0.8920694986979166
294,0.8910319010416666
295,0.8918507893880209
296,0.8923967149522569
297,0.8923085530598959
298,0.8949313693576388
299,0.8943990071614584
300,0.8945838080512153
301,0.8967336018880209
302,0.8964470757378472
303,0.8965861002604166
304,0.8969692654079862
305,0.8944820827907987
306,0.8963572184244791
307,0.8932071261935763
308,0.8928493923611112
309,0.8965284559461806
310,0.8965267605251737
311,0.8963300916883681
312,0.8965793185763888
313,0.8954196506076388
314,0.8970523410373263
315,0.896728515625
316,0.8964369032118056
317,0.8999260796440972
318,0.9000600179036459
319,0.9022623697916666
320,0.9027557373046875
321,0.9036509195963541
322,0.9047156439887153
323,0.9028506808810763
324,0.9059719509548612
325,0.9089440239800347
326,0.9096137152777778
327,0.9082539876302084
328,0.9079979790581597
329,0.9123721652560763
330,0.9127163357204862
331,0.9128655327690972
332,0.9134724934895834
333,0.9150221082899306
334,0.9171091715494791
335,0.9174669053819444
336,0.9156121148003472
337,0.9154459635416666
338,0.9146491156684028
339,0.9158884684244791
340,0.9153476291232638
341,0.9151577419704862
342,0.9154324001736112
343,0.917877197265625
344,0.9180789523654513
345,0.9171430799696181
346,0.9186893039279513
347,0.9177144368489584
348,0.91796875
349,0.9192894829644097
350,0.9192386203342013
351,0.9187266031901041
352,0.9164225260416666
353,0.920654296875
354,0.9203202989366319
355,0.9215155707465278
356,0.9228769938151041
357,0.9248708089192709
358,0.9250352647569444
359,0.9231855604383681
360,0.9233618842230903
361,0.9253692626953125
362,0.9270290798611112
363,0.9263559977213541
364,0.926361083984375
365,0.9296959771050347
366,0.9292738172743056
367,0.9286363389756944
368,0.9280327690972222
369,0.927886962890625
370,0.9289618598090278
371,0.9288313123914931
372,0.9302113850911459
373,0.9317915174696181
374,0.9326171875
375,0.932220458984375
376,0.934295654296875
377,0.9338751898871528
378,0.9348161485460069
379,0.9347788492838541
380,0.9343617757161459
381,0.9372490776909722
382,0.9371982150607638
383,0.9397701687282987
384,0.9406873914930556
385,0.9396040174696181
386,0.9386172824435763
387,0.937744140625
388,0.9387257893880209
389,0.9406246609157987
390,0.939971923828125
391,0.9431847466362847
392,0.9457685682508681
393,0.9471571180555556
394,0.9467417399088541
395,0.9471011691623263
396,0.9454888237847222
397,0.9456431070963541
398,0.9462958441840278
399,0.9470062255859375
400,0.9486033121744791
401,0.9475674099392362
402,0.9492696126302084
403,0.9501495361328125
404,0.9511617024739584
405,0.9514024522569444
406,0.9522755940755209
407,0.9530910915798612
408,0.9517788357204862
409,0.9520348442925347
410,0.9539591471354166
411,0.9538913302951388
412,0.9550899929470487
413,0.9544932047526041
414,0.9558020697699653
415,0.9576483832465278
416,0.9587877061631944
417,0.9591827392578125
418,0.9592776828342013
419,0.9593370225694444
420,0.9597524007161459
421,0.9594624837239584
422,0.95849609375
423,0.9576500786675347
424,0.9582078721788194
425,0.960540771484375
426,0.9617869059244791
427,0.962860107421875
428,0.9649641248914931
429,0.9644232855902778
430,0.9651506212022569
431,0.9657118055555556
432,0.9662068684895834
433,0.9654795328776041
434,0.9665306939019097
435,0.9675886366102431
436,0.96820068359375
437,0.9691738552517362
438,0.9692908393012153
439,0.9700826009114584
440,0.9713541666666666
441,0.9721018473307291
442,0.9727494981553819
443,0.9737447102864584
444,0.9736243353949653
445,0.9737684461805556
446,0.9744923909505209
447,0.9751027425130209
448,0.9758555094401041
449,0.9759792751736112
450,0.9761471218532987
451,0.9769388834635416
452,0.9771609836154513
453,0.9775339762369791
454,0.9776017930772569
455,0.9781731499565972
456,0.9788987901475694
457,0.9794599745008681
458,0.9806382921006944
459,0.9811520046657987
460,0.9820760091145834
461,0.9825320773654513
462,0.9831746419270834
463,0.9837070041232638
464,0.9841800265842013
465,0.9846411810980903
466,0.9855804443359375
467,0.9864841037326388
468,0.9871436225043403
469,0.9877946641710069
470,0.9881371392144097
471,0.9883948432074653
472,0.9885762532552084
473,0.9892137315538194
474,0.9903310139973959
475,0.9910125732421875
476,0.9917822943793403
477,0.9923316107855903
478,0.9930301242404513
479,0.9937625461154513
480,0.9941914876302084
481,0.9947374131944444
482,0.9951494004991319
483,0.9956715901692709
484,0.9962259928385416
485,0.9968922932942709
486,0.9976823594835069
