1,0.7740749782986112
2,0.7862124972873263
3,0.7917277018229166
4,0.7925533718532987
5,0.7948845757378472
6,0.7936384412977431
7,0.7910749647352431
8,0.7886030409071181
9,0.7865787082248263
10,0.7838066948784722
11,0.7839135064019097
12,0.7844390869140625
13,0.7871025933159722
14,0.7927347819010416
15,0.7972378200954862
16,0.7991231282552084
17,0.7995351155598959
18,0.7990230984157987
19,0.7966037326388888
20,0.7974819607204862
21,0.7985144721137153
22,0.8010186089409722
23,0.7998182508680556
24,0.7979210747612847
25,0.7948744032118056
26,0.7965749104817709
27,0.7995334201388888
28,0.8012847900390625
29,0.8027581108940972
30,0.8051011827256944
31,0.8036973741319444
32,0.8038397894965278
33,0.8028123643663194
34,0.8017951117621528
35,0.8021799723307291
36,0.8046095106336806
37,0.8053470187717013
38,0.8036532931857638
39,0.8053571912977431
40,0.8058742947048612
41,0.8065134684244791
42,0.8098771837022569
43,0.8103383382161459
44,0.8109690348307291
45,0.8121524386935763
46,0.8135952419704862
47,0.8150973849826388
48,0.81390380859375
49,0.8145175509982638
50,0.8129221598307291
51,0.8135833740234375
52,0.8138275146484375
53,0.8152058919270834
54,0.8127729627821181
55,0.8137749565972222
56,0.8120676676432291
57,0.8145090738932291
58,0.8151889377170138
59,0.8133867051866319
60,0.8121049669053819
61,0.8129102918836806
62,0.814849853515625
63,0.8168080647786459
64,0.8199174669053819
65,0.8224114312065972
66,0.8256140814887153
67,0.8283776177300347
68,0.8319108751085069
69,0.8345828586154513
70,0.8346845838758681
71,0.8357594807942709
72,0.8309122721354166
73,0.8272349039713541
74,0.826995849609375
75,0.8291252983940972
76,0.8324957953559028
77,0.8349287245008681
78,0.8356035020616319
79,0.8309393988715278
80,0.8291202121310763
81,0.8266720241970487
82,0.8230879041883681
83,0.8221350775824653
84,0.8205786810980903
85,0.8233778211805556
86,0.8255174424913194
87,0.8240000406901041
88,0.8237948947482638
89,0.8262532552083334
90,0.8288845486111112
91,0.8308071560329862
92,0.8293999565972222
93,0.8317684597439237
94,0.8295966254340278
95,0.8305782741970487
96,0.8300560845269097
97,0.8270704481336806
98,0.8261447482638888
99,0.8277960883246528
100,0.8324500189887153
101,0.8350813123914931
102,0.8355051676432291
103,0.8346303304036459
104,0.8337029351128472
105,0.8333282470703125
106,0.8334096272786459
107,0.8357950846354166
108,0.8359731038411459
109,0.8369225396050347
110,0.8358781602647569
111,0.8349626329210069
112,0.8358900282118056
113,0.8386722140842013
114,0.8394961886935763
115,0.8421902126736112
116,0.8423055013020834
117,0.8425174289279513
118,0.8410254584418403
119,0.8417239718967013
120,0.8407999674479166
121,0.8404201931423612
122,0.8416052924262153
123,0.8432430691189237
124,0.8426767985026041
125,0.8459404839409722
126,0.8473358154296875
127,0.8480343288845487
128,0.8468288845486112
129,0.8471493191189237
130,0.8482988145616319
131,0.8491448296440972
132,0.8506825764973959
133,0.8491244845920138
134,0.8464626736111112
135,0.8447299533420138
136,0.8439534505208334
137,0.8452606201171875
138,0.8472222222222222
139,0.8494890001085069
140,0.8481733534071181
141,0.8475697835286459
142,0.8458370632595487
143,0.8456166585286459
144,0.8474324544270834
145,0.8501637776692709
146,0.8498925103081597
147,0.8493194580078125
148,0.8488786485460069
149,0.8484022352430556
150,0.8473137749565972
151,0.8460676405164931
152,0.8469085693359375
153,0.8470255533854166
154,0.8487464057074653
155,0.8512132432725694
156,0.8518558078342013
157,0.8521745469835069
158,0.8516014946831597
159,0.8535207112630209
160,0.8539242214626737
161,0.8564910888671875
162,0.8579084608289931
163,0.8597802056206597
164,0.8587120903862847
165,0.8570437961154513
166,0.8539835611979166
167,0.8554772271050347
168,0.8554111056857638
169,0.857635498046875
170,0.859344482421875
171,0.8592868381076388
172,0.8590850830078125
173,0.8587917751736112
174,0.8598175048828125
175,0.8596360948350694
176,0.8599514431423612
177,0.8590528700086806
178,0.8607042100694444
179,0.8606635199652778
180,0.8620012071397569
181,0.8638085259331597
182,0.8636966281467013
183,0.8622877332899306
184,0.8597852918836806
185,0.8578592936197916
186,0.8594852023654513
187,0.8623470730251737
188,0.8627336290147569
189,0.8645460340711806
190,0.8643408881293403
191,0.8645748562282987
192,0.8635186089409722
193,0.8643697102864584
194,0.8667416042751737
195,0.8683064778645834
196,0.8676401774088541
197,0.8657446967230903
198,0.8640051947699653
199,0.8649054633246528
200,0.8650936550564237
201,0.8656751844618056
202,0.8663838704427084
203,0.8685099283854166
204,0.8686506483289931
205,0.8690829806857638
206,0.8697662353515625
207,0.8690965440538194
208,0.8705223931206597
209,0.8716295030381944
210,0.8717414008246528
211,0.8718905978732638
212,0.8720991346571181
213,0.8736148410373263
214,0.8754933675130209
215,0.8755442301432291
216,0.875030517578125
217,0.8757900661892362
218,0.8760409884982638
219,0.8758341471354166
220,0.8783162434895834
221,0.8784908718532987
222,0.8786044650607638
223,0.8814053005642362
224,0.8798845079210069
225,0.8799997965494791
226,0.8796013726128472
227,0.8790249294704862
228,0.8795267740885416
229,0.8804304334852431
230,0.8818325466579862
231,0.8824801974826388
232,0.8842942979600694
233,0.8814273410373263
234,0.8819766574435763
235,0.8815392388237847
236,0.8819512261284722
237,0.8839959038628472
238,0.8843061659071181
239,0.8856879340277778
240,0.88592529296875
241,0.8844655354817709
242,0.8843519422743056
243,0.8843197292751737
244,0.8837839762369791
245,0.8849673800998263
246,0.8865712483723959
247,0.8864203559027778
248,0.8861490885416666
249,0.8877444797092013
250,0.8882887098524306
251,0.8892788357204862
252,0.8877529568142362
253,0.8869493272569444
254,0.8868730333116319
255,0.8882056342230903
256,0.8894687228732638
257,0.8899315728081597
258,0.8920254177517362
259,0.8930511474609375
260,0.8936394585503472
261,0.8941107855902778
262,0.8927985297309028
263,0.8928510877821181
264,0.8920813666449653
265,0.8910471598307291
266,0.8927442762586806
267,0.8934105767144097
268,0.8968878851996528
269,0.8977288140190972
270,0.8979203965928819
271,0.8982153998480903
272,0.8984968397352431
273,0.8997158474392362
274,0.9016740587022569
275,0.9035203721788194
276,0.9039391411675347
277,0.9036305745442709
278,0.9030117458767362
279,0.9046393500434028
280,0.9053226047092013
281,0.9071214463975694
282,0.9068891737196181
283,0.9069061279296875
284,0.9069044325086806
285,0.9064687093098959
286,0.9060533311631944
287,0.9061194525824653
288,0.9062177870008681
289,0.9063958062065972
290,0.9079861111111112
291,0.9098883734809028
292,0.9095306396484375
293,0.9101104736328125
294,0.9104461669921875
295,0.9082929823133681
296,0.909393310546875
297,0.9101664225260416
298,0.9102054172092013
299,0.9132961697048612
300,0.9149712456597222
301,0.9154866536458334
302,0.9142896864149306
303,0.9145423041449653
304,0.9145406087239584
305,0.916168212890625
306,0.9151950412326388
307,0.9151543511284722
308,0.9163072374131944
309,0.9151085747612847
310,0.9154256184895834
311,0.9161275227864584
312,0.9169718424479166
313,0.9170973036024306
314,0.9177737765842013
315,0.9163547092013888
316,0.9173600938585069
317,0.9182807074652778
318,0.9189571804470487
319,0.9202016194661459
320,0.9202084011501737
321,0.9200490315755209
322,0.9202440049913194
323,0.9191996256510416
324,0.9197506374782987
325,0.9199625651041666
326,0.9205983479817709
327,0.9192555745442709
328,0.9203118218315972
329,0.9205101860894097
330,0.920989990234375
331,0.9221733940972222
332,0.9247283935546875
333,0.9257405598958334
334,0.9268137613932291
335,0.9270511203342013
336,0.9258829752604166
337,0.9252065022786459
338,0.9257405598958334
339,0.9261695014105903
340,0.9276953803168403
341,0.9283074273003472
342,0.9290924072265625
343,0.9296230740017362
344,0.9301876491970487
345,0.9326104058159722
346,0.9329393174913194
347,0.9335801866319444
348,0.9334496392144097
349,0.9326850043402778
350,0.9334055582682291
351,0.9334309895833334
352,0.9334208170572916
353,0.9356316460503472
354,0.9365319146050347
355,0.9375254313151041
356,0.9372338189019097
357,0.9379255506727431
358,0.9385087754991319
359,0.9389750162760416
360,0.9378628200954862
361,0.9380815294053819
362,0.9390631781684028
363,0.9394361707899306
364,0.9403516981336806
365,0.9409196641710069
366,0.9407670762803819
367,0.9407009548611112
368,0.9412553575303819
369,0.9424116346571181
370,0.9431050618489584
371,0.9437544080946181
372,0.9438290066189237
373,0.9443579779730903
374,0.9454549153645834
375,0.9457787407769097
376,0.9460330539279513
377,0.9470604790581597
378,0.9474589029947916
379,0.9479726155598959
380,0.9474843343098959
381,0.9478285047743056
382,0.9485066731770834
383,0.9493916829427084
384,0.9497918023003472
385,0.9498121473524306
386,0.9497273763020834
387,0.9507988823784722
388,0.9512871636284722
389,0.9515516493055556
390,0.951934814453125
391,0.9531419542100694
392,0.9532741970486112
393,0.9539777967664931
394,0.954132080078125
395,0.9542371961805556
396,0.9546678331163194
397,0.9550967746310763
398,0.9558783637152778
399,0.9566362169053819
400,0.9571516248914931
401,0.9576704237196181
402,0.9580213758680556
403,0.9589335123697916
404,0.9593132866753472
405,0.9595692952473959
406,0.9597744411892362
407,0.9601694742838541
408,0.9616021050347222
409,0.9618852403428819
410,0.9623548719618056
411,0.9625600179036459
412,0.9628770616319444
413,0.9632059733072916
414,0.9638417561848959
415,0.9638773600260416
416,0.9641910129123263
417,0.9643436008029513
418,0.9653303358289931
419,0.9657982720269097
420,0.9671173095703125
421,0.9676479763454862
422,0.9676683213975694
423,0.9677581787109375
424,0.9680107964409722
425,0.9695858425564237
426,0.9698537190755209
427,0.9700368245442709
428,0.9702707926432291
429,0.970611572265625
430,0.9719119601779513
431,0.9720357259114584
432,0.9724171956380209
433,0.9724239773220487
434,0.9731089274088541
435,0.97344970703125
436,0.9736887613932291
437,0.9741685655381944
438,0.9746754964192709
439,0.9752994113498263
440,0.9761691623263888
441,0.9767201741536459
442,0.9772169325086806
443,0.9772610134548612
444,0.9778510199652778
445,0.9784647623697916
446,0.9789835611979166
447,0.9796702067057291
448,0.9800669352213541
449,0.9803856743706597
450,0.9806535508897569
451,0.9809502495659722
452,0.9815724690755209
453,0.9820556640625
454,0.9826473659939237
455,0.9831153021918403
456,0.9836663140190972
457,0.9839358859592013
458,0.9847412109375
459,0.9851938883463541
460,0.9855889214409722
461,0.9861602783203125
462,0.9867451985677084
463,0.987274169921875
464,0.9880557590060763
465,0.9884101019965278
466,0.9888203938802084
467,0.9892222086588541
468,0.9896206325954862
469,0.9899698893229166
470,0.9903123643663194
471,0.9905836317274306
472,0.9912261962890625
473,0.991912841796875
474,0.9924418131510416
475,0.9928944905598959
476,0.9934488932291666
477,0.9936608208550347
478,0.9939236111111112
479,0.9945085313585069
480,0.99493408203125
481,0.9956342909071181
482,0.9961581759982638
483,0.9966057671440972
484,0.9970516628689237
485,0.9975145128038194
486,0.9979926215277778
