1,0.9295501708984375
2,0.9377763536241319
3,0.9423505995008681
4,0.9415825737847222
5,0.9428812662760416
6,0.9433135986328125
7,0.9439171685112847
8,0.9444936116536459
9,0.9435865614149306
10,0.943572998046875
11,0.9453074137369791
12,0.9449903700086806
13,0.9452463785807291
14,0.9456888834635416
15,0.9455447726779513
16,0.9464348687065972
17,0.9468451605902778
18,0.9480031331380209
19,0.9490932888454862
20,0.9484151204427084
21,0.9485558403862847
22,0.948760986328125
23,0.9482845730251737
24,0.948699951171875
25,0.9487118191189237
26,0.9489373101128472
27,0.9491153293185763
28,0.9490882025824653
29,0.9482048882378472
30,0.9485321044921875
31,0.9459737141927084
32,0.9447275797526041
33,0.9436594645182291
34,0.9441307915581597
35,0.9439171685112847
36,0.9444224039713541
37,0.9453718397352431
38,0.9464128282335069
39,0.9481879340277778
40,0.9479488796657987
41,0.9484998914930556
42,0.9486287434895834
43,0.9493306477864584
44,0.9490475124782987
45,0.9491594102647569
46,0.9488847520616319
47,0.9485422770182291
48,0.9484659830729166
49,0.9489034016927084
50,0.9486643473307291
51,0.9496493869357638
52,0.9490729437934028
53,0.9492017957899306
54,0.9491661919487847
55,0.9489915635850694
56,0.9499460856119791
57,0.9497036404079862
58,0.9496883816189237
59,0.9497545030381944
60,0.9507310655381944
61,0.9512396918402778
62,0.9509565565321181
63,0.9508989122178819
64,0.9522806803385416
65,0.9527435302734375
66,0.9522145589192709
67,0.9523790147569444
68,0.9536149766710069
69,0.9537319607204862
70,0.9531148274739584
71,0.9529995388454862
72,0.9528520372178819
73,0.9532538519965278
74,0.9530402289496528
75,0.9535912407769097
76,0.9533064100477431
77,0.9525095621744791
78,0.9534250895182291
79,0.9537455240885416
80,0.9545389811197916
81,0.9550018310546875
82,0.9551205105251737
83,0.9552680121527778
84,0.9552324083116319
85,0.9555545383029513
86,0.9543372260199653
87,0.9540388319227431
88,0.9535607231987847
89,0.9540540907118056
90,0.9534708658854166
91,0.9533047146267362
92,0.9528486463758681
93,0.9537794325086806
94,0.9549509684244791
95,0.9552561442057291
96,0.9550255669487847
97,0.9551357693142362
98,0.9548695882161459
99,0.9555070665147569
100,0.9556325276692709
101,0.9557223849826388
102,0.9563785129123263
103,0.9555206298828125
104,0.9557003445095487
105,0.9553680419921875
106,0.9554307725694444
107,0.9558631049262153
108,0.9561496310763888
109,0.9568294949001737
110,0.9574974907769097
111,0.9576212565104166
112,0.9566904703776041
113,0.95703125
114,0.9571770562065972
115,0.9572550455729166
116,0.9565955268012153
117,0.9570482042100694
118,0.9576416015625
119,0.9567548963758681
120,0.9561682807074653
121,0.9572787814670138
122,0.9575449625651041
123,0.9581671820746528
124,0.9584520128038194
125,0.95880126953125
126,0.9584554036458334
127,0.9580027262369791
128,0.9579010009765625
129,0.9583841959635416
130,0.9592759874131944
131,0.9599626329210069
132,0.9592098659939237
133,0.9582858615451388
134,0.9580349392361112
135,0.9581892225477431
136,0.9583858913845487
137,0.9577551947699653
138,0.9583808051215278
139,0.9579637315538194
140,0.9580400254991319
141,0.9596591525607638
142,0.9593709309895834
143,0.9595489501953125
144,0.9596659342447916
145,0.9600762261284722
146,0.96051025390625
147,0.9592319064670138
148,0.9590827094184028
149,0.9590182834201388
150,0.9581468370225694
151,0.9583231608072916
152,0.9581637912326388
153,0.9580451117621528
154,0.9580976698133681
155,0.9587521023220487
156,0.9592064751519097
157,0.9593488905164931
158,0.9592505560980903
159,0.9602169460720487
160,0.9605763753255209
161,0.9608239067925347
162,0.9611290825737847
163,0.9612630208333334
164,0.9618937174479166
165,0.9620005289713541
166,0.9609883626302084
167,0.9614071316189237
168,0.962005615234375
169,0.9624752468532987
170,0.9629533555772569
171,0.9633433024088541
172,0.9632568359375
173,0.9631093343098959
174,0.9635874430338541
175,0.9640926784939237
176,0.9643486870659722
177,0.96405029296875
178,0.9636908637152778
179,0.9633585611979166
180,0.9639739990234375
181,0.9640163845486112
182,0.9647640652126737
183,0.9644114176432291
184,0.9633144802517362
185,0.9634891086154513
186,0.9637858072916666
187,0.9647623697916666
188,0.9646725124782987
189,0.9652438693576388
190,0.9654066297743056
191,0.9649336073133681
192,0.9646030002170138
193,0.9658881293402778
194,0.9653371175130209
195,0.9651523166232638
196,0.9654388427734375
197,0.9646216498480903
198,0.9648234049479166
199,0.9649692111545138
200,0.9652693006727431
201,0.9653591579861112
202,0.9653998480902778
203,0.9658999972873263
204,0.9660288492838541
205,0.9660441080729166
206,0.966033935546875
207,0.9658949110243056
208,0.9665120442708334
209,0.9670461018880209
210,0.9670850965711806
211,0.967315673828125
212,0.9674360487196181
213,0.9683210584852431
214,0.9684668646918403
215,0.9677513970269097
216,0.9675445556640625
217,0.9677005343967013
218,0.9676988389756944
219,0.9676734076605903
220,0.9682718912760416
221,0.9685855441623263
222,0.96868896484375
223,0.968963623046875
224,0.9688822428385416
225,0.9693433973524306
226,0.9692823621961806
227,0.9695892333984375
228,0.9690314398871528
229,0.9685601128472222
230,0.9684600830078125
231,0.9693213568793403
232,0.9693925645616319
233,0.9697333441840278
234,0.9696824815538194
235,0.9696011013454862
236,0.9695926242404513
237,0.9697079128689237
238,0.9700893825954862
239,0.9707590738932291
240,0.9702775743272569
241,0.9708048502604166
242,0.9713609483506944
243,0.9709828694661459
244,0.9703860812717013
245,0.9704708523220487
246,0.9706319173177084
247,0.9711591932508681
248,0.9710930718315972
249,0.971466064453125
250,0.9718814425998263
251,0.9722256130642362
252,0.9718695746527778
253,0.9721866183810763
254,0.9721425374348959
255,0.9723307291666666
256,0.9722578260633681
257,0.9721527099609375
258,0.972747802734375
259,0.9726799858940972
260,0.9722374810112847
261,0.9721594916449653
262,0.9723002115885416
263,0.9728613959418403
264,0.9728427463107638
265,0.9726511637369791
266,0.9729461669921875
267,0.9732954237196181
268,0.9736751980251737
269,0.9734276665581597
270,0.9729970296223959
271,0.9733361138237847
272,0.9730919731987847
273,0.9732343885633681
274,0.9733039008246528
275,0.9740736219618056
276,0.974365234375
277,0.9742652045355903
278,0.9745229085286459
279,0.9747382269965278
280,0.9752688937717013
281,0.9751993815104166
282,0.9750094943576388
283,0.9744940863715278
284,0.9744703504774306
285,0.9747094048394097
286,0.974639892578125
287,0.9747517903645834
288,0.9751349555121528
289,0.9757113986545138
290,0.9758283827039931
291,0.9761403401692709
292,0.9759131537543403
293,0.9759979248046875
294,0.9764506022135416
295,0.9769354926215278
296,0.977020263671875
297,0.9765404595269097
298,0.9768185085720487
299,0.9766150580512153
300,0.9766777886284722
301,0.9766828748914931
302,0.976898193359375
303,0.9771931966145834
304,0.9772288004557291
305,0.9772898356119791
306,0.9773644341362847
307,0.9772966172960069
308,0.9770677354600694
309,0.9772711859809028
310,0.9778510199652778
311,0.9782545301649306
312,0.9783291286892362
313,0.9785139295789931
314,0.978729248046875
315,0.9789411756727431
316,0.9794074164496528
317,0.9792209201388888
318,0.9789683024088541
319,0.9791904025607638
320,0.9793429904513888
321,0.9794786241319444
322,0.9799533420138888
323,0.9803856743706597
324,0.9802907307942709
325,0.9801957872178819
326,0.9799821641710069
327,0.9800431993272569
328,0.9806501600477431
329,0.9808993869357638
330,0.9808875189887153
331,0.9806942409939237
332,0.9810621473524306
333,0.9812215169270834
334,0.9813079833984375
335,0.9815012613932291
336,0.9816487630208334
337,0.9818216959635416
338,0.9818556043836806
339,0.9818962944878472
340,0.9820641411675347
341,0.9821760389539931
342,0.9821251763237847
343,0.9824032253689237
344,0.9825049506293403
345,0.9831424289279513
346,0.9832628038194444
347,0.9835544162326388
348,0.9834221733940972
349,0.9833187527126737
350,0.9831373426649306
351,0.9834170871310763
352,0.9837019178602431
353,0.9842478434244791
354,0.9841325547960069
355,0.9842953152126737
356,0.9842105441623263
357,0.9839307996961806
358,0.9840053982204862
359,0.9842156304253472
360,0.9844716389973959
361,0.9843851725260416
362,0.9846547444661459
363,0.9847819010416666
364,0.9849667019314237
365,0.9848887125651041
366,0.9851548936631944
367,0.9852142333984375
368,0.9852684868706597
369,0.9853091769748263
370,0.9857059054904513
371,0.9858500162760416
372,0.9859263102213541
373,0.9858110215928819
374,0.9861568874782987
375,0.9861280653211806
376,0.986358642578125
377,0.9864603678385416
378,0.9865502251519097
379,0.9866706000434028
380,0.986846923828125
381,0.9868723551432291
382,0.9871097140842013
383,0.9873758951822916
384,0.9873860677083334
385,0.9877760145399306
386,0.9878370496961806
387,0.9877607557508681
388,0.9877760145399306
389,0.9877946641710069
390,0.9879252115885416
391,0.9881235758463541
392,0.9882286919487847
393,0.9881574842664931
394,0.9884931776258681
395,0.9884779188368056
396,0.9883236355251737
397,0.9886711968315972
398,0.9889289008246528
399,0.9891645643446181
400,0.9890764024522569
401,0.9894680447048612
402,0.9892612033420138
403,0.9893646240234375
404,0.9894070095486112
405,0.9897121853298612
406,0.9897884792751737
407,0.9899088541666666
408,0.9899546305338541
409,0.9901496039496528
410,0.9902801513671875
411,0.9902377658420138
412,0.9903750949435763
413,0.9904836018880209
414,0.9905327690972222
415,0.9905192057291666
416,0.9907752143012153
417,0.9911075168185763
418,0.9912957085503472
419,0.9912499321831597
420,0.9917093912760416
421,0.9919213189019097
422,0.9919535319010416
423,0.9919026692708334
424,0.9918602837456597
425,0.9919789632161459
426,0.9921552870008681
427,0.9922756618923612
428,0.9924774169921875
429,0.9928165011935763
430,0.9928605821397569
431,0.9928504096137153
432,0.9928927951388888
433,0.9931301540798612
434,0.9932827419704862
435,0.9933946397569444
436,0.993499755859375
437,0.9935777452256944
438,0.9935777452256944
439,0.9937879774305556
440,0.9940677218967013
441,0.9939931233723959
442,0.9941643608940972
443,0.9942559136284722
444,0.9944678412543403
445,0.9946356879340278
446,0.9947374131944444
447,0.9947458902994791
448,0.9949374728732638
449,0.995086669921875
450,0.9951036241319444
451,0.9952952067057291
452,0.9953477647569444
453,0.9953986273871528
454,0.995574951171875
455,0.9956868489583334
456,0.9957987467447916
457,0.9958902994791666
458,0.9961157904730903
459,0.9962259928385416
460,0.9962599012586806
461,0.9963972303602431
462,0.9964684380425347
463,0.9965955946180556
464,0.9967278374565972
465,0.9969024658203125
466,0.9970703125
467,0.9972466362847222
468,0.9973280164930556
469,0.9974263509114584
470,0.9975229899088541
471,0.9976230197482638
472,0.9977179633246528
473,0.9978824191623263
474,0.9980367024739584
475,0.9981757269965278
476,0.998291015625
477,0.9984147813585069
478,0.9985436333550347
479,0.9987080891927084
480,0.9988064236111112
481,0.9988894992404513
482,0.9990268283420138
483,0.9991438123914931
484,0.9992336697048612
485,0.9994286431206597
486,0.9995507134331597
