1,0.9568464491102431
2,0.9576348198784722
3,0.9608137342664931
4,0.9623989529079862
5,0.9635416666666666
6,0.9629720052083334
7,0.9645182291666666
8,0.9649658203125
9,0.9655015733506944
10,0.966705322265625
11,0.9669850667317709
12,0.96697998046875
13,0.967315673828125
14,0.9665900336371528
15,0.9675021701388888
16,0.9669511583116319
17,0.9674919976128472
18,0.9671376546223959
19,0.9670206705729166
20,0.9677666558159722
21,0.9682769775390625
22,0.9683261447482638
23,0.9689551459418403
24,0.9685770670572916
25,0.9682651095920138
26,0.9681023491753472
27,0.9680836995442709
28,0.9685109456380209
29,0.9690975613064237
30,0.9693196614583334
31,0.9680107964409722
32,0.968231201171875
33,0.9686703152126737
34,0.9691399468315972
35,0.9692518446180556
36,0.9696367051866319
37,0.9683380126953125
38,0.9682803683810763
39,0.9686313205295138
40,0.9682498508029513
41,0.9689500596788194
42,0.9688822428385416
43,0.9690975613064237
44,0.9691501193576388
45,0.9686516655815972
46,0.9683312310112847
47,0.9688907199435763
48,0.9687737358940972
49,0.96868896484375
50,0.9691246880425347
51,0.9695417616102431
52,0.9702606201171875
53,0.9697011311848959
54,0.9694112141927084
55,0.9690297444661459
56,0.9689432779947916
57,0.9690534803602431
58,0.9688975016276041
59,0.9692399766710069
60,0.9702317979600694
61,0.9701080322265625
62,0.9690806070963541
63,0.9690636528862847
64,0.9697113037109375
65,0.9697774251302084
66,0.9695638020833334
67,0.9693637424045138
68,0.96929931640625
69,0.9695095486111112
70,0.9690958658854166
71,0.9686855740017362
72,0.9687415228949653
73,0.9692467583550347
74,0.9691602918836806
75,0.9698808458116319
76,0.9695858425564237
77,0.9699198404947916
78,0.9699232313368056
79,0.9706149631076388
80,0.970245361328125
81,0.9706149631076388
82,0.9703097873263888
83,0.9709676106770834
84,0.9717305501302084
85,0.9713795979817709
86,0.9709523518880209
87,0.9704759385850694
88,0.9705284966362847
89,0.9707268608940972
90,0.9711032443576388
91,0.9710862901475694
92,0.9711235894097222
93,0.9717034233940972
94,0.9721171061197916
95,0.9716762966579862
96,0.97186279296875
97,0.9719356960720487
98,0.9721544053819444
99,0.9717373318142362
100,0.9713117811414931
101,0.9706302218967013
102,0.9705759684244791
103,0.9713863796657987
104,0.9718695746527778
105,0.9721594916449653
106,0.972442626953125
107,0.9722391764322916
108,0.9719509548611112
109,0.9717729356553819
110,0.9718390570746528
111,0.9723069932725694
112,0.9727817111545138
113,0.9732021755642362
114,0.9733157687717013
115,0.9732615152994791
116,0.9731072319878472
117,0.9742245144314237
118,0.9741329616970487
119,0.9741990831163194
120,0.9738650851779513
121,0.9734971788194444
122,0.9734683566623263
123,0.9739515516493056
124,0.9744025336371528
125,0.9746890597873263
126,0.9744771321614584
127,0.9745619032118056
128,0.9741685655381944
129,0.9739583333333334
130,0.9735836452907987
131,0.9737870958116319
132,0.9741041395399306
133,0.9742228190104166
134,0.9745296902126737
135,0.9744584825303819
136,0.9747806125217013
137,0.9748518202039931
138,0.9749196370442709
139,0.9753604465060763
140,0.9754672580295138
141,0.9756113688151041
142,0.9745347764756944
143,0.9749823676215278
144,0.9753909640842013
145,0.9752773708767362
146,0.9754486083984375
147,0.9746873643663194
148,0.974853515625
149,0.9750603569878472
150,0.9755147298177084
151,0.9750332302517362
152,0.9760572645399306
153,0.975799560546875
154,0.9763861762152778
155,0.9761759440104166
156,0.9764234754774306
157,0.9760555691189237
158,0.9764862060546875
159,0.9765591091579862
160,0.9766828748914931
161,0.9762403700086806
162,0.9759267171223959
163,0.9758995903862847
164,0.9758843315972222
165,0.9760691324869791
166,0.9764370388454862
167,0.9766574435763888
168,0.9770236545138888
169,0.9766337076822916
170,0.9765438503689237
171,0.9766811794704862
172,0.9767795138888888
173,0.9771779378255209
174,0.9769032796223959
175,0.9771152072482638
176,0.9770524766710069
177,0.9773474799262153
178,0.9775848388671875
179,0.9773712158203125
180,0.9778493245442709
181,0.9778628879123263
182,0.9782630072699653
183,0.9779018825954862
184,0.9779713948567709
185,0.9780290391710069
186,0.9778679741753472
187,0.9776746961805556
188,0.9773305257161459
189,0.9776814778645834
190,0.9779544406467013
191,0.9779324001736112
192,0.9782307942708334
193,0.9777323404947916
194,0.9780646430121528
195,0.9782019721137153
196,0.9786716037326388
197,0.9791293674045138
198,0.9792141384548612
199,0.9797346327039931
200,0.9793599446614584
201,0.9795752631293403
202,0.9794514973958334
203,0.9793006049262153
204,0.9795600043402778
205,0.9790666368272569
206,0.9790106879340278
207,0.9794294569227431
208,0.9795667860243056
209,0.9795379638671875
210,0.9798465304904513
211,0.9796837700737847
212,0.9800703260633681
213,0.9797685411241319
214,0.9799686008029513
215,0.9801025390625
216,0.9803415934244791
217,0.9805433485243056
218,0.9806467692057291
219,0.9806349012586806
220,0.9806111653645834
221,0.9807807074652778
222,0.9807010226779513
223,0.980743408203125
224,0.9806654188368056
225,0.9805467393663194
226,0.9804755316840278
227,0.9807840983072916
228,0.9807247585720487
229,0.9810570610894097
230,0.9815216064453125
231,0.9816538492838541
232,0.9810367160373263
233,0.9812520345052084
234,0.9814198811848959
235,0.9816250271267362
236,0.9817437065972222
237,0.9816216362847222
238,0.9816029866536459
239,0.9814554850260416
240,0.9815148247612847
241,0.9817403157552084
242,0.9818369547526041
243,0.9821421305338541
244,0.9824405246310763
245,0.9825659857855903
246,0.982421875
247,0.9827745225694444
248,0.9827372233072916
249,0.9825676812065972
250,0.9824201795789931
251,0.9822608100043403
252,0.9821523030598959
253,0.9826982286241319
254,0.9832797580295138
255,0.9830034044053819
256,0.9826507568359375
257,0.9828338623046875
258,0.9830305311414931
259,0.9828830295138888
260,0.9830237494574653
261,0.9831814236111112
262,0.9835544162326388
263,0.9835628933376737
264,0.9834967719184028
265,0.9837002224392362
266,0.9837086995442709
267,0.9838918050130209
268,0.9837392171223959
269,0.9837544759114584
270,0.9840410020616319
271,0.9840799967447916
272,0.9844479031032987
273,0.9843020968967013
274,0.9840630425347222
275,0.9839647081163194
276,0.9841189914279513
277,0.9839240180121528
278,0.9841783311631944
279,0.9842003716362847
280,0.9845360649956597
281,0.9843461778428819
282,0.9845258924696181
283,0.9846259223090278
284,0.9847802056206597
285,0.9849497477213541
286,0.9846208360460069
287,0.9851633707682291
288,0.9852261013454862
289,0.9853685167100694
290,0.9854041205512153
291,0.9849429660373263
292,0.9850972493489584
293,0.9851328531901041
294,0.9852684868706597
295,0.9855838351779513
296,0.9853888617621528
297,0.9855109320746528
298,0.9855075412326388
299,0.9854804144965278
300,0.9859381781684028
301,0.9858601888020834
302,0.9860331217447916
303,0.986053466796875
304,0.9862484402126737
305,0.9861653645833334
306,0.9862738715277778
307,0.9864281548394097
308,0.9864298502604166
309,0.9868384467230903
310,0.986907958984375
311,0.9869740804036459
312,0.9870808919270834
313,0.9870639377170138
314,0.9869435628255209
315,0.9871114095052084
316,0.9872012668185763
317,0.9870825873480903
318,0.9871266682942709
319,0.9872216118706597
320,0.9873436821831597
321,0.9875267876519097
322,0.9874250623914931
323,0.9874521891276041
324,0.9876335991753472
325,0.9879336886935763
326,0.9878506130642362
327,0.9881015353732638
328,0.9879743787977431
329,0.9880574544270834
330,0.9881083170572916
331,0.9879794650607638
332,0.9879811604817709
333,0.9880608452690972
334,0.9883015950520834
335,0.988372802734375
336,0.9884863959418403
337,0.9886864556206597
338,0.9886796739366319
339,0.9888576931423612
340,0.9888678656684028
341,0.9888695610894097
342,0.9890238444010416
343,0.9889678955078125
344,0.9889628092447916
345,0.9891476101345487
346,0.9891170925564237
347,0.9892578125
348,0.9892662896050347
349,0.9892968071831597
350,0.9893731011284722
351,0.9896816677517362
352,0.9896291097005209
353,0.9897138807508681
354,0.9899546305338541
355,0.989837646484375
356,0.9897850884331597
357,0.9901648627387153
358,0.9901275634765625
359,0.9901140001085069
360,0.9900021023220487
361,0.9901852077907987
362,0.9903344048394097
363,0.9902191162109375
364,0.9902665879991319
365,0.9904971652560763
366,0.9908582899305556
367,0.9908769395616319
368,0.9908769395616319
369,0.9909701877170138
370,0.9912143283420138
371,0.9914025200737847
372,0.9914991590711806
373,0.9913787841796875
374,0.9915584988064237
375,0.9914533827039931
376,0.9917585584852431
377,0.9918602837456597
378,0.9918297661675347
379,0.9919060601128472
380,0.9920552571614584
381,0.9919823540581597
382,0.9920128716362847
383,0.9918874104817709
384,0.9919620090060763
385,0.9922926161024306
386,0.9922739664713541
387,0.9923689100477431
388,0.9922044542100694
389,0.9923604329427084
390,0.9926198323567709
391,0.9925333658854166
392,0.9926537407769097
393,0.9927775065104166
394,0.9928046332465278
395,0.9928538004557291
396,0.9928300645616319
397,0.9930742051866319
398,0.9933115641276041
399,0.9932420518663194
400,0.9934098985460069
401,0.9935048421223959
402,0.9935540093315972
403,0.9936336941189237
404,0.9936608208550347
405,0.9935828314887153
406,0.9938252766927084
407,0.9939337836371528
408,0.9939286973741319
409,0.9940575493706597
410,0.9940761990017362
411,0.9940507676866319
412,0.9941541883680556
413,0.9942982991536459
414,0.9943203396267362
415,0.9943695068359375
416,0.9944288465711806
417,0.994476318359375
418,0.9945034450954862
419,0.9944542778862847
420,0.994659423828125
421,0.9948866102430556
422,0.9950358072916666
423,0.9950324164496528
424,0.9950612386067709
425,0.9951544867621528
426,0.9950358072916666
427,0.9951375325520834
428,0.9952273898654513
429,0.9954444037543403
430,0.9954003228081597
431,0.9955478244357638
432,0.9955664740668403
433,0.9958106146918403
434,0.9958648681640625
435,0.9959801567925347
436,0.9960174560546875
437,0.9961513943142362
438,0.9961513943142362
439,0.996337890625
440,0.9962988959418403
441,0.9963633219401041
442,0.9965159098307291
443,0.9964820014105903
444,0.9965752495659722
445,0.9966108534071181
446,0.9967617458767362
447,0.9967871771918403
448,0.9968465169270834
449,0.9970041910807291
450,0.9970567491319444
451,0.9970974392361112
452,0.9972279866536459
453,0.9973314073350694
454,0.9973500569661459
455,0.9974789089626737
456,0.9974856906467013
457,0.9975874159071181
458,0.9977298312717013
459,0.9977196587456597
460,0.9977959526909722
461,0.9978061252170138
462,0.9979044596354166
463,0.9979841444227431
464,0.9980689154730903
465,0.9981248643663194
466,0.9981452094184028
467,0.9982638888888888
468,0.9983639187282987
469,0.9984690348307291
470,0.9985436333550347
471,0.9985928005642362
472,0.9986707899305556
473,0.9987742106119791
474,0.9988352457682291
475,0.9989335801866319
476,0.9990285237630209
477,0.9990302191840278
478,0.9990929497612847
479,0.9992184109157987
480,0.9993116590711806
481,0.9994133843315972
482,0.9994625515407987
483,0.9995201958550347
484,0.9995964898003472
485,0.9996320936414931
486,0.9997151692708334
