1,0.9463687472873263
2,0.9502071804470487
3,0.9510582817925347
4,0.9517110188802084
5,0.9526401095920138
6,0.9530198838975694
7,0.9520077175564237
8,0.9516398111979166
9,0.9502343071831597
10,0.9492526584201388
11,0.9498392740885416
12,0.9502478705512153
13,0.9507853190104166
14,0.9520060221354166
15,0.9529266357421875
16,0.9537302652994791
17,0.9542931450737847
18,0.9541236029730903
19,0.9533504909939237
20,0.9540337456597222
21,0.9542049831814237
22,0.9543202718098959
23,0.9544660780164931
24,0.9545440673828125
25,0.9539150661892362
26,0.9542355007595487
27,0.9547102186414931
28,0.9547627766927084
29,0.9547559950086806
30,0.9558512369791666
31,0.9551662868923612
32,0.9553188747829862
33,0.9547509087456597
34,0.9544525146484375
35,0.9540184868706597
36,0.9546000162760416
37,0.9551645914713541
38,0.9548831515842013
39,0.9550306532118056
40,0.9552222357855903
41,0.9558207194010416
42,0.9569040934244791
43,0.9572007921006944
44,0.9570227728949653
45,0.9575890435112847
46,0.9577195909288194
47,0.9584587944878472
48,0.9581824408637153
49,0.9586503770616319
50,0.9578976101345487
51,0.9583570692274306
52,0.958099365234375
53,0.9583892822265625
54,0.9583977593315972
55,0.9590894911024306
56,0.9582434760199653
57,0.9586842854817709
58,0.9587622748480903
59,0.9583333333333334
60,0.9579128689236112
61,0.9583180745442709
62,0.9587164984809028
63,0.9588029649522569
64,0.959686279296875
65,0.9602830674913194
66,0.9606696234809028
67,0.9612935384114584
68,0.9622361924913194
69,0.9632941351996528
70,0.9632229275173612
71,0.9635755750868056
72,0.9621802435980903
73,0.9611155192057291
74,0.9613325330946181
75,0.9614478217230903
76,0.9620564778645834
77,0.9625922309027778
78,0.9623650444878472
79,0.9615936279296875
80,0.9615512424045138
81,0.9607204861111112
82,0.9602372911241319
83,0.9600236680772569
84,0.9594709608289931
85,0.9600999620225694
86,0.9610561794704862
87,0.9609629313151041
88,0.9610205756293403
89,0.9616173638237847
90,0.9621649848090278
91,0.9626091851128472
92,0.9620649549696181
93,0.9627685546875
94,0.962677001953125
95,0.9632110595703125
96,0.9627617730034722
97,0.9618716769748263
98,0.9612291124131944
99,0.9614105224609375
100,0.9624192979600694
101,0.9626973470052084
102,0.9629347059461806
103,0.9629194471571181
104,0.9628702799479166
105,0.9631432427300347
106,0.9633043077256944
107,0.963470458984375
108,0.9637366400824653
109,0.9638960096571181
110,0.9637451171875
111,0.9633992513020834
112,0.9636383056640625
113,0.9644215901692709
114,0.9652286105685763
115,0.9653845893012153
116,0.9653422037760416
117,0.9651641845703125
118,0.9652167426215278
119,0.9654676649305556
120,0.9655117458767362
121,0.9651811387803819
122,0.9660661485460069
123,0.9662356906467013
124,0.9659847683376737
125,0.9669325086805556
126,0.9668986002604166
127,0.9670223659939237
128,0.9669291178385416
129,0.9672529432508681
130,0.9677513970269097
131,0.9681447347005209
132,0.9681905110677084
133,0.9675021701388888
134,0.9665764702690972
135,0.9662187364366319
136,0.9662492540147569
137,0.9664323594835069
138,0.9671800401475694
139,0.9675208197699653
140,0.9674241807725694
141,0.9673851860894097
142,0.9669138590494791
143,0.9670969645182291
144,0.9673377143012153
145,0.9676988389756944
146,0.9676038953993056
147,0.9676293267144097
148,0.9675242106119791
149,0.9677463107638888
150,0.9678700764973959
151,0.9675445556640625
152,0.9672648111979166
153,0.9669104682074653
154,0.9673546685112847
155,0.9676530626085069
156,0.9682328965928819
157,0.9683973524305556
158,0.9685516357421875
159,0.9688161214192709
160,0.9688805474175347
161,0.9693349202473959
162,0.9697231716579862
163,0.9699520534939237
164,0.9698503282335069
165,0.9692620171440972
166,0.9690009223090278
167,0.9689805772569444
168,0.9689483642578125
169,0.9692501491970487
170,0.9695383707682291
171,0.9697977701822916
172,0.9697604709201388
173,0.9698248969184028
174,0.9699249267578125
175,0.9696214463975694
176,0.9697214762369791
177,0.9700385199652778
178,0.9706607394748263
179,0.9706149631076388
180,0.9706878662109375
181,0.9711049397786459
182,0.9710099962022569
183,0.9710778130425347
184,0.9703199598524306
185,0.9695366753472222
186,0.9700198703342013
187,0.9703759087456597
188,0.9709523518880209
189,0.9715966118706597
190,0.9719034830729166
191,0.9718831380208334
192,0.9716932508680556
193,0.9717271592881944
194,0.9719068739149306
195,0.9723883734809028
196,0.9718678792317709
197,0.9716762966579862
198,0.9716169569227431
199,0.9714508056640625
200,0.9717271592881944
201,0.9718288845486112
202,0.9716627332899306
203,0.9721120198567709
204,0.9724494086371528
205,0.972259521484375
206,0.9723527696397569
207,0.9723832872178819
208,0.9728037516276041
209,0.9731784396701388
210,0.9732716878255209
211,0.9736192491319444
212,0.9735565185546875
213,0.9737786187065972
214,0.9737633599175347
215,0.9737108018663194
216,0.9734920925564237
217,0.9736751980251737
218,0.9740007188585069
219,0.9738922119140625
220,0.9743533664279513
221,0.9743092854817709
222,0.9744110107421875
223,0.9747840033637153
224,0.9747721354166666
225,0.9749094645182291
226,0.9751925998263888
227,0.9750315348307291
228,0.9748721652560763
229,0.9748009575737847
230,0.9749569363064237
231,0.9753638373480903
232,0.9756351047092013
233,0.975189208984375
234,0.9753757052951388
235,0.9751264784071181
236,0.9751688639322916
237,0.9758978949652778
238,0.9761386447482638
239,0.9762318929036459
240,0.9763200547960069
241,0.9763420952690972
242,0.9763132731119791
243,0.9760657416449653
244,0.9759284125434028
245,0.9760504828559028
246,0.9760691324869791
247,0.9762895372178819
248,0.9763726128472222
249,0.9768320719401041
250,0.9768049452039931
251,0.9769863552517362
252,0.9765658908420138
253,0.9763997395833334
254,0.9764217800564237
255,0.976715087890625
256,0.9767083062065972
257,0.9766082763671875
258,0.9772593180338541
259,0.9775068495008681
260,0.9777475992838541
261,0.9780629475911459
262,0.9775678846571181
263,0.9776746961805556
264,0.9775984022352431
265,0.9774186876085069
266,0.9776289198133681
267,0.9777764214409722
268,0.9783240424262153
269,0.9785681830512153
270,0.9784732394748263
271,0.9788886176215278
272,0.9790530734592013
273,0.9792090521918403
274,0.9794701470269097
275,0.9798414442274306
276,0.9800042046440972
277,0.9798177083333334
278,0.9802076551649306
279,0.9802636040581597
280,0.9804161919487847
281,0.980621337890625
282,0.9803415934244791
283,0.9800754123263888
284,0.9802669949001737
285,0.9804416232638888
286,0.9804331461588541
287,0.9805823432074653
288,0.9806654188368056
289,0.9805145263671875
290,0.9808027479383681
291,0.9811570909288194
292,0.9811723497178819
293,0.9815470377604166
294,0.9814300537109375
295,0.9809417724609375
296,0.9815351698133681
297,0.9813283284505209
298,0.9813961452907987
299,0.9820488823784722
300,0.9821692572699653
301,0.982421875
302,0.9820285373263888
303,0.9821828206380209
304,0.9821285671657987
305,0.9822930230034722
306,0.9823015001085069
307,0.9823065863715278
308,0.9825541178385416
309,0.9826219346788194
310,0.982635498046875
311,0.98272705078125
312,0.9828779432508681
313,0.9828575981987847
314,0.9829321967230903
315,0.9828525119357638
316,0.9828779432508681
317,0.9831610785590278
318,0.9833526611328125
319,0.9836188422309028
320,0.9837849934895834
321,0.9836442735460069
322,0.9836798773871528
323,0.9835917154947916
324,0.9835764567057291
325,0.9836561414930556
326,0.9837934705946181
327,0.983734130859375
328,0.9838850233289931
329,0.9839630126953125
330,0.9838850233289931
331,0.9839697943793403
332,0.9844885932074653
333,0.9850328233506944
334,0.9852345784505209
335,0.9852006700303819
336,0.9850260416666666
337,0.9848310682508681
338,0.984710693359375
339,0.9848514133029513
340,0.9851955837673612
341,0.9854668511284722
342,0.9855940077039931
343,0.9856618245442709
344,0.9857279459635416
345,0.9860856797960069
346,0.9861501057942709
347,0.9863416883680556
348,0.9865739610460069
349,0.9863535563151041
350,0.9863382975260416
351,0.9863857693142362
352,0.9864417182074653
353,0.9869503445095487
354,0.9868689643012153
355,0.9869672987196181
356,0.9871758355034722
357,0.9872945149739584
358,0.9873674180772569
359,0.9875301784939237
360,0.9871792263454862
361,0.9874013264973959
362,0.9874504937065972
363,0.9875250922309028
364,0.9878336588541666
365,0.9878709581163194
366,0.9879218207465278
367,0.9879269070095487
368,0.9880218505859375
369,0.9882405598958334
370,0.9885152180989584
371,0.9884677463107638
372,0.9884101019965278
373,0.9887746175130209
374,0.9889865451388888
375,0.9889797634548612
376,0.9890204535590278
377,0.9891306559244791
378,0.9892001681857638
379,0.9893476698133681
380,0.9891137017144097
381,0.9893341064453125
382,0.9893781873914931
383,0.9893408881293403
384,0.9896308051215278
385,0.9896562364366319
386,0.9897087944878472
387,0.9898630777994791
388,0.9901089138454862
389,0.9900783962673612
390,0.9901072184244791
391,0.9904056125217013
392,0.9904819064670138
393,0.9907158745659722
394,0.9906972249348959
395,0.9907921685112847
396,0.9908481174045138
397,0.9908616807725694
398,0.9908175998263888
399,0.9910956488715278
400,0.9912601047092013
401,0.9914093017578125
402,0.9915856255425347
403,0.9916958279079862
404,0.9916229248046875
405,0.9918348524305556
406,0.9917941623263888
407,0.9917958577473959
408,0.9920247395833334
409,0.9921875
410,0.9923333062065972
411,0.9923265245225694
412,0.9923553466796875
413,0.9922960069444444
414,0.9924977620442709
415,0.9926808675130209
416,0.9927978515625
417,0.9928843180338541
418,0.9929945203993056
419,0.9930419921875
420,0.9933030870225694
421,0.9934149848090278
422,0.9934319390190972
423,0.9935065375434028
424,0.9934336344401041
425,0.9935980902777778
426,0.9939219156901041
427,0.9939914279513888
428,0.9939541286892362
429,0.9939643012152778
430,0.9942287868923612
431,0.9942643907335069
432,0.9943406846788194
433,0.9943644205729166
434,0.9945390489366319
435,0.9944271511501737
436,0.9946000840928819
437,0.9948001437717013
438,0.9948374430338541
439,0.9950018988715278
440,0.9951239691840278
441,0.9952426486545138
442,0.9952714708116319
443,0.9953104654947916
444,0.9953223334418403
445,0.9956241183810763
446,0.9956902398003472
447,0.9958479139539931
448,0.995941162109375
449,0.9961276584201388
450,0.9960852728949653
451,0.9961395263671875
452,0.9962141248914931
453,0.9963395860460069
454,0.9965074327256944
455,0.9965226915147569
456,0.9965718587239584
457,0.9967397054036459
458,0.9968193901909722
459,0.9969668918185763
460,0.9970380995008681
461,0.9972076416015625
462,0.9972720675998263
463,0.9974992540147569
464,0.9975535074869791
465,0.9976247151692709
466,0.9977773030598959
467,0.9977688259548612
468,0.9978315565321181
469,0.9979366726345487
470,0.9980214436848959
471,0.9980875651041666
472,0.9982554117838541
473,0.9983639187282987
474,0.9984486897786459
475,0.9985860188802084
476,0.9986928304036459
477,0.9987318250868056
478,0.9988233778211806
479,0.998931884765625
480,0.9990285237630209
481,0.9991641574435763
482,0.999237060546875
483,0.9993557400173612
484,0.9994455973307291
485,0.99951171875
486,0.9996253119574653
