1,0.8375023735894097
2,0.8392520480685763
3,0.8377516004774306
4,0.8406270345052084
5,0.8416561550564237
6,0.8430006239149306
7,0.8418850368923612
8,0.8466644287109375
9,0.8474307590060763
10,0.8491668701171875
11,0.8487481011284722
12,0.8507639567057291
13,0.8515184190538194
14,0.8491482204861112
15,0.8453555636935763
16,0.8436770968967013
17,0.8446417914496528
18,0.8477647569444444
19,0.8515964084201388
20,0.8494296603732638
21,0.8490261501736112
22,0.8494177924262153
23,0.8510793050130209
24,0.8533613416883681
25,0.8591020372178819
26,0.8587171766493056
27,0.8595106336805556
28,0.8608194986979166
29,0.8641984727647569
30,0.8662685818142362
31,0.8682640923394097
32,0.8700273301866319
33,0.8701053195529513
34,0.8693695068359375
35,0.8673333062065972
36,0.864654541015625
37,0.8632524278428819
38,0.8646952311197916
39,0.8626725938585069
40,0.8641340467664931
41,0.86273193359375
42,0.8637780083550347
43,0.863433837890625
44,0.8618214925130209
45,0.8632914225260416
46,0.8633490668402778
47,0.867462158203125
48,0.8693864610460069
49,0.8695933024088541
50,0.8722652859157987
51,0.8717736138237847
52,0.8744574652777778
53,0.87353515625
54,0.87030029296875
55,0.8672112358940972
56,0.8675503200954862
57,0.870147705078125
58,0.8735843234592013
59,0.8754628499348959
60,0.8750779893663194
61,0.8747422960069444
62,0.8749067518446181
63,0.8773718939887153
64,0.8779042561848959
65,0.8776974148220487
66,0.8769429524739584
67,0.8771921793619791
68,0.8753696017795138
69,0.8734029134114584
70,0.8738572862413194
71,0.8733028835720487
72,0.8754509819878472
73,0.8752509223090278
74,0.8781450059678819
75,0.8777313232421875
76,0.8769870334201388
77,0.8777364095052084
78,0.8780025906032987
79,0.8783060709635416
80,0.8789621988932291
81,0.8813764784071181
82,0.8828413221571181
83,0.8826921251085069
84,0.8819088406032987
85,0.8827718098958334
86,0.8828447129991319
87,0.8846299913194444
88,0.8843282063802084
89,0.8831244574652778
90,0.8829532199435763
91,0.8843807644314237
92,0.8872612847222222
93,0.8899366590711806
94,0.8904707166883681
95,0.8897637261284722
96,0.8899146185980903
97,0.8924560546875
98,0.8948889838324653
99,0.89727783203125
100,0.8981730143229166
101,0.8974490695529513
102,0.8985120985243056
103,0.8970455593532987
104,0.8974049886067709
105,0.8981509738498263
106,0.8992767333984375
107,0.8978051079644097
108,0.8961452907986112
109,0.8934970431857638
110,0.8940260145399306
111,0.8962317572699653
112,0.8967556423611112
113,0.8969743516710069
114,0.8959994845920138
115,0.8961283365885416
116,0.8971015082465278
117,0.8983086480034722
118,0.8987477620442709
119,0.8974948459201388
120,0.8960825602213541
121,0.8983527289496528
122,0.8966657850477431
123,0.8965691460503472
124,0.897705078125
125,0.8981882731119791
126,0.9007670084635416
127,0.9029897054036459
128,0.90386962890625
129,0.9054005940755209
130,0.9046274820963541
131,0.9039459228515625
132,0.9035729302300347
133,0.9052920871310763
134,0.9061296251085069
135,0.9064907497829862
136,0.9078860812717013
137,0.90618896484375
138,0.9059516059027778
139,0.9063771565755209
140,0.90692138671875
141,0.9078928629557291
142,0.9084099663628472
143,0.9090643988715278
144,0.9111107720269097
145,0.9116956922743056
146,0.9129553900824653
147,0.9140981038411459
148,0.9128960503472222
149,0.9136776394314237
150,0.9144304063585069
151,0.9149678548177084
152,0.9158782958984375
153,0.9164937337239584
154,0.9176008436414931
155,0.9187266031901041
156,0.9197218153211806
157,0.9197658962673612
158,0.9185858832465278
159,0.9193267822265625
160,0.9203236897786459
161,0.9203152126736112
162,0.9221598307291666
163,0.9221411810980903
164,0.92388916015625
165,0.92529296875
166,0.9243994818793403
167,0.9239891899956597
168,0.9230617947048612
169,0.9235365125868056
170,0.9247470431857638
171,0.9257253011067709
172,0.9271596272786459
173,0.9289194742838541
174,0.9295874701605903
175,0.9293721516927084
176,0.9302690294053819
177,0.9314914279513888
178,0.9303300645616319
179,0.9309794108072916
180,0.9314100477430556
181,0.9317253960503472
182,0.9319407145182291
183,0.9315473768446181
184,0.9313524034288194
185,0.9303402370876737
186,0.9309421115451388
187,0.9311167399088541
188,0.9320170084635416
189,0.9315982394748263
190,0.9327070448133681
191,0.9318966335720487
192,0.9313812255859375
193,0.9326205783420138
194,0.9341532389322916
195,0.9348263210720487
196,0.9348331027560763
197,0.9352552625868056
198,0.9360978868272569
199,0.9372422960069444
200,0.9371812608506944
201,0.9389495849609375
202,0.9400583902994791
203,0.9396260579427084
204,0.9402821858723959
205,0.9404195149739584
206,0.9403177897135416
207,0.9416876898871528
208,0.9422658284505209
209,0.9424709743923612
210,0.9426913791232638
211,0.9430050320095487
212,0.9437476264105903
213,0.944366455078125
214,0.9445122612847222
215,0.9459669325086806
216,0.9471774631076388
217,0.9470536973741319
218,0.9471571180555556
219,0.9480472140842013
220,0.9489729139539931
221,0.9483252631293403
222,0.9484659830729166
223,0.9484795464409722
224,0.9489050971137153
225,0.9498121473524306
226,0.9515177408854166
227,0.952117919921875
228,0.9517907036675347
229,0.9519636366102431
230,0.9525417751736112
231,0.9533555772569444
232,0.9550459120008681
233,0.95526123046875
234,0.9556630452473959
235,0.9550425211588541
236,0.9561326768663194
237,0.9564649793836806
238,0.9579230414496528
239,0.9588267008463541
240,0.9585096571180556
241,0.9586673312717013
242,0.9595998128255209
243,0.9602067735460069
244,0.9601508246527778
245,0.9601508246527778
246,0.9596286349826388
247,0.9598558213975694
248,0.9606696234809028
249,0.9622124565972222
250,0.9631245930989584
251,0.9632229275173612
252,0.9638383653428819
253,0.9640384250217013
254,0.9639502631293403
255,0.9650624593098959
256,0.9658152262369791
257,0.9660559760199653
258,0.9662068684895834
259,0.9665289984809028
260,0.9668358696831597
261,0.9672698974609375
262,0.9675496419270834
263,0.9682566324869791
264,0.9687788221571181
265,0.9691670735677084
266,0.9702741834852431
267,0.9708658854166666
268,0.9722391764322916
269,0.9730394151475694
270,0.9734598795572916
271,0.9742177327473959
272,0.9741533067491319
273,0.9741973876953125
274,0.9745025634765625
275,0.9751366509331597
276,0.9759707980685763
277,0.9763217502170138
278,0.9764590793185763
279,0.976165771484375
280,0.9765608045789931
281,0.9774729410807291
282,0.9779866536458334
283,0.9787546793619791
284,0.9788547092013888
285,0.9793158637152778
286,0.9801177978515625
287,0.9813045925564237
288,0.9816301133897569
289,0.9821268717447916
290,0.9829440646701388
291,0.9832712809244791
292,0.9838680691189237
293,0.9839257134331597
294,0.9844868977864584
295,0.9853464762369791
296,0.9855617947048612
297,0.9863196478949653
298,0.9866994222005209
299,0.9874623616536459
300,0.9876522488064237
301,0.9878929985894097
302,0.9883558485243056
303,0.9887491861979166
304,0.989471435546875
305,0.989990234375
306,0.9905548095703125
307,0.9914296468098959
308,0.9915568033854166
309,0.9919162326388888
310,0.9924706353081597
311,0.9929046630859375
312,0.9934048122829862
313,0.9938134087456597
314,0.9941965738932291
315,0.994720458984375
316,0.9953019883897569
317,0.9958953857421875
318,0.9964277479383681
319,0.9969702826605903
320,0.9973500569661459
321,0.9977467854817709
322,0.9981875949435763
323,0.9986809624565972
