1,0.9625413682725694
2,0.9631805419921875
3,0.9638570149739584
4,0.9645402696397569
5,0.9653116861979166
6,0.9662611219618056
7,0.9663916693793403
8,0.9667341444227431
9,0.9658593071831597
10,0.9659288194444444
11,0.9656626383463541
12,0.9663306342230903
13,0.9667341444227431
14,0.9667833116319444
15,0.9666765001085069
16,0.9662255181206597
17,0.9668070475260416
18,0.9673750135633681
19,0.9677768283420138
20,0.9683905707465278
21,0.9685940212673612
22,0.9686347113715278
23,0.9685295952690972
24,0.9687093098958334
25,0.9691908094618056
26,0.9695841471354166
27,0.9700792100694444
28,0.9698689778645834
29,0.969482421875
30,0.9693857828776041
31,0.9687822129991319
32,0.9690873887803819
33,0.9695485432942709
34,0.9702301025390625
35,0.9703538682725694
36,0.97052001953125
37,0.9700775146484375
38,0.9696909586588541
39,0.9690823025173612
40,0.9696740044487847
41,0.9693349202473959
42,0.9689551459418403
43,0.9689822726779513
44,0.9690975613064237
45,0.9696146647135416
46,0.9699503580729166
47,0.970428466796875
48,0.9703962537977431
49,0.9705234103732638
50,0.9708947075737847
51,0.9714779324001737
52,0.9717610677083334
53,0.9714999728732638
54,0.972015380859375
55,0.9718237982855903
56,0.9723188612196181
57,0.9726647271050347
58,0.9732937282986112
59,0.973480224609375
60,0.9731038411458334
61,0.9732886420355903
62,0.9733632405598959
63,0.9734429253472222
64,0.9734971788194444
65,0.9737989637586806
66,0.9740176730685763
67,0.9742838541666666
68,0.9742821587456597
69,0.9740108913845487
70,0.9747280544704862
71,0.9747585720486112
72,0.9748179117838541
73,0.9744432237413194
74,0.9743703206380209
75,0.9747907850477431
76,0.9749976264105903
77,0.9756096733940972
78,0.9750196668836806
79,0.9752485487196181
80,0.9755062527126737
81,0.9756486680772569
82,0.9757622612847222
83,0.9754723442925347
84,0.9750247531467013
85,0.9751671685112847
86,0.9750179714626737
87,0.9751909044053819
88,0.9750942654079862
89,0.975067138671875
90,0.9751739501953125
91,0.9752858479817709
92,0.9758758544921875
93,0.9763827853732638
94,0.9761420355902778
95,0.9762725830078125
96,0.9760572645399306
97,0.9760538736979166
98,0.9763895670572916
99,0.9766048855251737
100,0.9766981336805556
101,0.9765947129991319
102,0.9762030707465278
103,0.9762251112196181
104,0.9766014946831597
105,0.9766438802083334
106,0.9768490261501737
107,0.9770287407769097
108,0.9773661295572916
109,0.9777679443359375
110,0.9774441189236112
111,0.9775390625
112,0.9777730305989584
113,0.9779069688585069
114,0.9779476589626737
115,0.9779052734375
116,0.9773135715060763
117,0.9772898356119791
118,0.9774610731336806
119,0.9775644938151041
120,0.9777035183376737
121,0.9774576822916666
122,0.9778561062282987
123,0.9780002170138888
124,0.9779595269097222
125,0.9781155056423612
126,0.9779408772786459
127,0.9779205322265625
128,0.9781917995876737
129,0.9785274929470487
130,0.9783681233723959
131,0.9787173800998263
132,0.9788089328342013
133,0.9789750840928819
134,0.9791751437717013
135,0.9791971842447916
136,0.9792327880859375
137,0.9796515570746528
138,0.9796329074435763
139,0.9798024495442709
140,0.9800703260633681
141,0.9800788031684028
142,0.9799753824869791
143,0.9798414442274306
144,0.9801093207465278
145,0.9804738362630209
146,0.9805179172092013
147,0.9811045328776041
148,0.9813300238715278
149,0.9814283582899306
150,0.9814436170789931
151,0.9813774956597222
152,0.9818149142795138
153,0.9820421006944444
154,0.9818861219618056
155,0.9818132188585069
156,0.9814470079210069
157,0.9815656873914931
158,0.9813249376085069
159,0.9809231228298612
160,0.9812723795572916
161,0.9812978108723959
162,0.9817979600694444
163,0.9819200303819444
164,0.9824812147352431
165,0.9828728569878472
166,0.9828525119357638
167,0.9828355577256944
168,0.9828915066189237
169,0.982818603515625
170,0.9829932318793403
171,0.9829305013020834
172,0.9831390380859375
173,0.9836849636501737
174,0.9836273193359375
175,0.9839680989583334
176,0.9839240180121528
177,0.9842071533203125
178,0.9842122395833334
179,0.9846123589409722
180,0.9849022759331597
181,0.9848853217230903
182,0.9849260118272569
183,0.9850904676649306
184,0.9854278564453125
185,0.9850989447699653
186,0.9851548936631944
187,0.9851667616102431
188,0.9854397243923612
189,0.9856380886501737
190,0.9858856201171875
191,0.9859975179036459
192,0.9860738118489584
193,0.9861534966362847
194,0.9861416286892362
195,0.9866417778862847
196,0.9867095947265625
197,0.9865129258897569
198,0.9869825575086806
199,0.9873538547092013
200,0.9875166151258681
201,0.9875200059678819
202,0.9874081081814237
203,0.9873521592881944
204,0.9875149197048612
205,0.9875166151258681
206,0.9876149495442709
207,0.9876454671223959
208,0.9876844618055556
209,0.9877573649088541
210,0.9877641465928819
211,0.9879659016927084
212,0.9880659315321181
213,0.9883049858940972
214,0.9881744384765625
215,0.9882066514756944
216,0.9884779188368056
217,0.9886711968315972
218,0.9892171223958334
219,0.9893120659722222
220,0.9892035590277778
221,0.9891238742404513
222,0.9892730712890625
223,0.9891645643446181
224,0.9895307752821181
225,0.989715576171875
226,0.9898817274305556
227,0.9898495144314237
228,0.9900987413194444
229,0.9902157253689237
230,0.9901377360026041
231,0.9903208414713541
232,0.9906141493055556
233,0.9903428819444444
234,0.9905649820963541
235,0.9905954996744791
236,0.9906565348307291
237,0.9909905327690972
238,0.9910142686631944
239,0.9911583794487847
240,0.9912550184461806
241,0.9910871717664931
242,0.9912668863932291
243,0.9911736382378472
244,0.9912550184461806
245,0.9914805094401041
246,0.9917195638020834
247,0.9919145372178819
248,0.9920908610026041
249,0.9922078450520834
250,0.9922366672092013
251,0.9923858642578125
252,0.9924435085720487
253,0.9924638536241319
254,0.9927486843532987
255,0.9926910400390625
256,0.9927622477213541
257,0.9927385118272569
258,0.9927046034071181
259,0.9929758707682291
260,0.9932030571831597
261,0.9931793212890625
262,0.9932522243923612
263,0.9933912489149306
264,0.9936370849609375
265,0.9936845567491319
266,0.9937540690104166
267,0.99395751953125
268,0.9940524631076388
269,0.9942626953125
270,0.9942660861545138
271,0.9941931830512153
272,0.9941558837890625
273,0.9943644205729166
274,0.9943033854166666
275,0.9947408040364584
276,0.9946356879340278
277,0.9948238796657987
278,0.9949459499782987
279,0.9952121310763888
280,0.9953172471788194
281,0.9953850640190972
282,0.9954817030164931
283,0.9956919352213541
284,0.9958072238498263
285,0.995849609375
286,0.9958530002170138
287,0.9959292941623263
288,0.9962158203125
289,0.9962395562065972
290,0.9963751898871528
291,0.9963717990451388
292,0.9966244167751737
293,0.9967464870876737
294,0.9968600802951388
295,0.9969262017144097
296,0.9969075520833334
297,0.9970364040798612
298,0.9971296522352431
299,0.9972398546006944
300,0.9973314073350694
301,0.9974551730685763
302,0.9975145128038194
303,0.9975348578559028
304,0.9976586235894097
305,0.9978213840060763
306,0.9980061848958334
307,0.9980248345269097
308,0.9981638590494791
309,0.9982706705729166
310,0.9984096950954862
311,0.9984520806206597
312,0.9985300699869791
313,0.9986911349826388
314,0.9987691243489584
315,0.9988488091362847
316,0.9989810519748263
317,0.9990658230251737
318,0.9991929796006944
319,0.9993370903862847
320,0.9994269476996528
321,0.9995151095920138
322,0.999603271484375
323,0.9997321234809028
