1,0.8106197781032987
2,0.8173556857638888
3,0.8155364990234375
4,0.8143157958984375
5,0.8113471137152778
6,0.8132527669270834
7,0.8159400092230903
8,0.8194715711805556
9,0.8214026557074653
10,0.8256615532769097
11,0.8275909423828125
12,0.8312615288628472
13,0.8298017713758681
14,0.8281114366319444
15,0.8254614935980903
16,0.8274976942274306
17,0.8291269938151041
18,0.8322245279947916
19,0.8327568901909722
20,0.8308393690321181
21,0.8297305636935763
22,0.8238813612196181
23,0.8204701741536459
24,0.8250969780815972
25,0.8253902859157987
26,0.8277333577473959
27,0.8259853786892362
28,0.8272959391276041
29,0.8273196750217013
30,0.8296067979600694
31,0.8311903211805556
32,0.8333706325954862
33,0.8366241455078125
34,0.8390892876519097
35,0.8409457736545138
36,0.8389994303385416
37,0.8406049940321181
38,0.8433617485894097
39,0.8444078233506944
40,0.8456844753689237
41,0.8405778672960069
42,0.8408101399739584
43,0.8384975857204862
44,0.8390096028645834
45,0.8410424126519097
46,0.8419172498914931
47,0.8469577365451388
48,0.8504842122395834
49,0.8505605061848959
50,0.8525187174479166
51,0.8512454562717013
52,0.8530426025390625
53,0.8501095241970487
54,0.8491685655381944
55,0.8449486626519097
56,0.8437313503689237
57,0.8452334933810763
58,0.8475019666883681
59,0.8463626437717013
60,0.8448486328125
61,0.8441009521484375
62,0.8437076144748263
63,0.8473476833767362
64,0.8488532172309028
65,0.8505350748697916
66,0.8470187717013888
67,0.8450588650173612
68,0.8472120496961806
69,0.8474527994791666
70,0.8497060139973959
71,0.8511216905381944
72,0.8533850775824653
73,0.8514675564236112
74,0.852264404296875
75,0.8557044135199653
76,0.8603515625
77,0.8606245252821181
78,0.8644358317057291
79,0.8646036783854166
80,0.8679538302951388
81,0.8658074273003472
82,0.8654530843098959
83,0.8608822292751737
84,0.8605160183376737
85,0.8586747911241319
86,0.8569556342230903
87,0.8591427273220487
88,0.8597530788845487
89,0.8627590603298612
90,0.8630998399522569
91,0.8601548936631944
92,0.8589257134331597
93,0.8605380588107638
94,0.8618333604600694
95,0.8627200656467013
96,0.8633253309461806
97,0.8663431803385416
98,0.8679996066623263
99,0.8714531792534722
100,0.8693762885199653
101,0.8675893147786459
102,0.8670467800564237
103,0.8668297661675347
104,0.8683098687065972
105,0.8693661159939237
106,0.8707970513237847
107,0.8701612684461806
108,0.86767578125
109,0.8664601643880209
110,0.8667619493272569
111,0.8687591552734375
112,0.8690643310546875
113,0.8710123697916666
114,0.8702053493923612
115,0.8680911593967013
116,0.8692050509982638
117,0.8718075222439237
118,0.8720126681857638
119,0.8753441704644097
120,0.8748457166883681
121,0.8758782280815972
122,0.8778533935546875
123,0.8780653211805556
124,0.8798963758680556
125,0.8803253173828125
126,0.8797471788194444
127,0.8799218071831597
128,0.8780517578125
129,0.8799048529730903
130,0.88201904296875
131,0.8842892116970487
132,0.8852929009331597
133,0.8853268093532987
134,0.8861067030164931
135,0.8858879937065972
136,0.8877376980251737
137,0.8879191080729166
138,0.8874884711371528
139,0.8893619113498263
140,0.8886803521050347
141,0.8893042670355903
142,0.8918067084418403
143,0.8923441569010416
144,0.8919270833333334
145,0.8921542697482638
146,0.8927595350477431
147,0.8931647406684028
148,0.8936767578125
149,0.893218994140625
150,0.8918982611762153
151,0.8913964165581597
152,0.8932529025607638
153,0.8954416910807291
154,0.8973253038194444
155,0.895904541015625
156,0.89813232421875
157,0.9000040690104166
158,0.8987019856770834
159,0.8992886013454862
160,0.8998599582248263
161,0.9006551106770834
162,0.9019012451171875
163,0.9025319417317709
164,0.901885986328125
165,0.9030880398220487
166,0.903350830078125
167,0.9060177273220487
168,0.9059109157986112
169,0.9074995252821181
170,0.9073621961805556
171,0.9079216851128472
172,0.9065382215711806
173,0.9080386691623263
174,0.9083370632595487
175,0.9079861111111112
176,0.907958984375
177,0.9091118706597222
178,0.9084150526258681
179,0.9093237982855903
180,0.9092797173394097
181,0.9117685953776041
182,0.9124908447265625
183,0.9130164252387153
184,0.9133673773871528
185,0.9117533365885416
186,0.9117702907986112
187,0.9109395345052084
188,0.9126553005642362
189,0.9155934651692709
190,0.9156561957465278
191,0.9153679741753472
192,0.9148084852430556
193,0.9159172905815972
194,0.9174906412760416
195,0.9186452229817709
196,0.9191792805989584
197,0.9202134874131944
198,0.9215969509548612
199,0.9227837456597222
200,0.9241061740451388
201,0.9242468939887153
202,0.9248182508680556
203,0.9253726535373263
204,0.9260626898871528
205,0.9278428819444444
206,0.9297705756293403
207,0.9305504692925347
208,0.9306403266059028
209,0.9322441948784722
210,0.9325307210286459
211,0.93218994140625
212,0.9319034152560763
213,0.9298146565755209
214,0.9301113552517362
215,0.9307403564453125
216,0.9320153130425347
217,0.9300011528862847
218,0.9295789930555556
219,0.9315151638454862
220,0.9339684380425347
221,0.9334937201605903
222,0.9354587131076388
223,0.9364047580295138
224,0.9351620144314237
225,0.9343549940321181
226,0.9353569878472222
227,0.9358876546223959
228,0.9372711181640625
229,0.9389122856987847
230,0.9399770100911459
231,0.9405771891276041
232,0.9414554172092013
233,0.9432491726345487
234,0.9430575900607638
235,0.9418165418836806
236,0.9428541395399306
237,0.9438544379340278
238,0.9449327256944444
239,0.9449225531684028
240,0.9454074435763888
241,0.9455735948350694
242,0.9463365342881944
243,0.9465009901258681
244,0.9473436143663194
245,0.9475351969401041
246,0.9488406711154513
247,0.9494205050998263
248,0.9511142306857638
249,0.9520314534505209
250,0.9529283311631944
251,0.9527740478515625
252,0.9527418348524306
253,0.9535997178819444
254,0.9537845187717013
255,0.9548899332682291
256,0.955169677734375
257,0.9555765787760416
258,0.955780029296875
259,0.9572787814670138
260,0.9572380913628472
261,0.9575653076171875
262,0.9587978786892362
263,0.958709716796875
264,0.9584689670138888
265,0.9589284261067709
266,0.9602457682291666
267,0.9617546929253472
268,0.9629974365234375
269,0.9646063910590278
270,0.9653489854600694
271,0.9667595757378472
272,0.9660508897569444
273,0.9669172498914931
274,0.967071533203125
275,0.9675089518229166
276,0.9683464898003472
277,0.9691433376736112
278,0.9697825113932291
279,0.9702589246961806
280,0.9704216851128472
281,0.9706183539496528
282,0.9709065755208334
283,0.970855712890625
284,0.9727155897352431
285,0.9730495876736112
286,0.9739193386501737
287,0.9743279351128472
288,0.9754469129774306
289,0.9767727322048612
290,0.9775712754991319
291,0.9778798421223959
292,0.9788106282552084
293,0.9787682427300347
294,0.97906494140625
295,0.9797448052300347
296,0.9803195529513888
297,0.9812164306640625
298,0.9823744032118056
299,0.9830746120876737
300,0.9837510850694444
301,0.9842071533203125
302,0.9846310085720487
303,0.9855244954427084
304,0.9860788981119791
305,0.98681640625
306,0.9877811008029513
307,0.9885982937282987
308,0.9886966281467013
309,0.9890577528211806
310,0.9895290798611112
311,0.9903496636284722
312,0.9910091824001737
313,0.9914652506510416
314,0.9924231635199653
315,0.9930301242404513
316,0.9937795003255209
317,0.9943983289930556
318,0.9950493706597222
319,0.9959513346354166
320,0.9966668023003472
321,0.9971652560763888
322,0.997711181640625
323,0.9981757269965278
