1,0.9616885715060763
2,0.9627922905815972
3,0.9636688232421875
4,0.9649861653645834
5,0.9658016628689237
6,0.9664289686414931
7,0.9664883083767362
8,0.9668646918402778
9,0.9661492241753472
10,0.9655897352430556
11,0.9655795627170138
12,0.9662000868055556
13,0.9668223063151041
14,0.9666917588975694
15,0.9672563340928819
16,0.9670206705729166
17,0.9672512478298612
18,0.9678819444444444
19,0.9684007432725694
20,0.9688212076822916
21,0.9690585666232638
22,0.9685601128472222
23,0.9687398274739584
24,0.9686041937934028
25,0.9692314995659722
26,0.9693840874565972
27,0.9699181450737847
28,0.9695960150824653
29,0.9690619574652778
30,0.9693094889322916
31,0.9691111246744791
32,0.9693942599826388
33,0.9697621663411459
34,0.9701775444878472
35,0.9700893825954862
36,0.9700707329644097
37,0.9697706434461806
38,0.9693501790364584
39,0.9693569607204862
40,0.9697621663411459
41,0.9693942599826388
42,0.9692094590928819
43,0.9691501193576388
44,0.9691348605685763
45,0.9697859022352431
46,0.9702131483289931
47,0.9707590738932291
48,0.9706098768446181
49,0.9708353678385416
50,0.9708285861545138
51,0.9712744818793403
52,0.9722256130642362
53,0.971710205078125
54,0.9720628526475694
55,0.9716983371310763
56,0.9719204372829862
57,0.9724239773220487
58,0.9724629720052084
59,0.9727613661024306
60,0.9728969997829862
61,0.9731207953559028
62,0.9733564588758681
63,0.9732106526692709
64,0.9731903076171875
65,0.9735209147135416
66,0.9737718370225694
67,0.9738345675998263
68,0.9739006890190972
69,0.9740939670138888
70,0.9745568169487847
71,0.9747026231553819
72,0.974822998046875
73,0.9741075303819444
74,0.9744737413194444
75,0.9746331108940972
76,0.9747975667317709
77,0.9753434922960069
78,0.9746127658420138
79,0.9746246337890625
80,0.9747551812065972
81,0.9748450385199653
82,0.9753943549262153
83,0.9748857286241319
84,0.9745246039496528
85,0.9743448893229166
86,0.9744042290581597
87,0.9745568169487847
88,0.9747144911024306
89,0.9744517008463541
90,0.9744923909505209
91,0.9748484293619791
92,0.9753943549262153
93,0.9759148491753472
94,0.9755333794487847
95,0.9753163655598959
96,0.9753858778211806
97,0.9755401611328125
98,0.9760521782769097
99,0.9764387342664931
100,0.9763420952690972
101,0.9757571750217013
102,0.9754231770833334
103,0.9753350151909722
104,0.9755113389756944
105,0.9757215711805556
106,0.9760504828559028
107,0.9764421251085069
108,0.9767862955729166
109,0.9769185384114584
110,0.9768507215711806
111,0.9769863552517362
112,0.9770304361979166
113,0.9773966471354166
114,0.9769812689887153
115,0.9769812689887153
116,0.9767676459418403
117,0.9762403700086806
118,0.9764353434244791
119,0.9770694308810763
120,0.9771643744574653
121,0.9769151475694444
122,0.9773949517144097
123,0.9776204427083334
124,0.9773033989800347
125,0.9773915608723959
126,0.9771525065104166
127,0.9772508409288194
128,0.9777967664930556
129,0.9777933756510416
130,0.9778510199652778
131,0.9784868028428819
132,0.9783664279513888
133,0.9785037570529513
134,0.9785325792100694
135,0.9788699679904513
136,0.9790429009331597
137,0.9787784152560763
138,0.9790056016710069
139,0.9794108072916666
140,0.9794023301866319
141,0.9794684516059028
142,0.9797465006510416
143,0.9796634250217013
144,0.9798075358072916
145,0.9800279405381944
146,0.9799974229600694
147,0.9807078043619791
148,0.9807874891493056
149,0.9807824028862847
150,0.9812350802951388
151,0.9810468885633681
152,0.9813418918185763
153,0.9816606309678819
154,0.9817403157552084
155,0.9816114637586806
156,0.981170654296875
157,0.9811723497178819
158,0.9809027777777778
159,0.9808146158854166
160,0.9810011121961806
161,0.9808553059895834
162,0.9814097086588541
163,0.9816945393880209
164,0.9819793701171875
165,0.9822998046875
166,0.9823269314236112
167,0.9822353786892362
168,0.9825371636284722
169,0.9823828803168403
170,0.9827202690972222
171,0.9829728868272569
172,0.9832441541883681
173,0.9834340413411459
174,0.9836934407552084
175,0.9836815728081597
176,0.9837849934895834
177,0.9837476942274306
178,0.9838901095920138
179,0.9842342800564237
180,0.9846666124131944
181,0.9847530788845487
182,0.9848870171440972
183,0.9850531684027778
184,0.9851311577690972
185,0.9850040011935763
186,0.9847174750434028
187,0.9848073323567709
188,0.9850277370876737
189,0.9853736029730903
190,0.9856058756510416
191,0.9858347574869791
192,0.9859534369574653
193,0.9861636691623263
194,0.9860822889539931
195,0.9864247639973959
196,0.9865366617838541
197,0.9863179524739584
198,0.9868604871961806
199,0.9871910942925347
200,0.9873555501302084
201,0.9870808919270834
202,0.9869791666666666
203,0.9870062934027778
204,0.9870283338758681
205,0.9874437120225694
206,0.9873148600260416
207,0.9873046875
208,0.9873318142361112
209,0.9876166449652778
210,0.9877268473307291
211,0.9879540337456597
212,0.9880506727430556
213,0.9880286322699653
214,0.9881507025824653
215,0.9881829155815972
216,0.9885711669921875
217,0.9885813395182291
218,0.9889407687717013
219,0.989166259765625
220,0.9890764024522569
221,0.9889407687717013
222,0.9890034993489584
223,0.9888746473524306
224,0.9891526963975694
225,0.9895273844401041
226,0.9894951714409722
227,0.9895358615451388
228,0.9897494845920138
229,0.989990234375
230,0.9898478190104166
231,0.9900529649522569
232,0.9901343451605903
233,0.990081787109375
234,0.9904259575737847
235,0.9903004964192709
236,0.9904615614149306
237,0.9909040662977431
238,0.9908735487196181
239,0.9908837212456597
240,0.9910549587673612
241,0.9909634060329862
242,0.9910464816623263
243,0.9909634060329862
244,0.9911702473958334
245,0.9913347032335069
246,0.9915991889105903
247,0.9917043050130209
248,0.9917212592230903
249,0.9918535020616319
250,0.9920518663194444
251,0.9922587076822916
252,0.9925401475694444
253,0.9924079047309028
254,0.9926740858289931
255,0.9925774468315972
256,0.9925062391493056
257,0.9926130506727431
258,0.9925994873046875
259,0.9930046929253472
260,0.9931352403428819
261,0.9932132297092013
262,0.9932335747612847
263,0.9934488932291666
264,0.9935285780164931
265,0.9935251871744791
266,0.9937150743272569
267,0.9938388400607638
268,0.9939744737413194
269,0.9941592746310763
270,0.9942881266276041
271,0.9943949381510416
272,0.9942915174696181
273,0.9944983588324653
274,0.9944847954644097
275,0.9946272108289931
276,0.9946424696180556
277,0.9947933620876737
278,0.9948204888237847
279,0.9949832492404513
280,0.9950832790798612
281,0.9953291151258681
282,0.9955325656467013
283,0.9957139756944444
284,0.9957817925347222
285,0.9957648383246528
286,0.9957868787977431
287,0.9959615071614584
288,0.9960615370008681
289,0.9962378607855903
290,0.9963395860460069
291,0.9963955349392362
292,0.9965074327256944
293,0.9967074924045138
294,0.9967397054036459
295,0.9968431260850694
296,0.9968905978732638
297,0.9969312879774306
298,0.9969872368706597
299,0.9971822102864584
300,0.9973280164930556
301,0.9973534478081597
302,0.9973992241753472
303,0.9974517822265625
304,0.9976247151692709
305,0.9977196587456597
306,0.9979773627387153
307,0.9980672200520834
308,0.9981909857855903
309,0.9982333713107638
310,0.9983435736762153
311,0.9984910753038194
312,0.9986063639322916
313,0.9986673990885416
314,0.9988386366102431
315,0.99896240234375
316,0.9990607367621528
317,0.9991387261284722
318,0.9992692735460069
319,0.9993862575954862
320,0.9994591606987847
321,0.9995608859592013
322,0.9996422661675347
323,0.9997151692708334
