1,0.9802280002170138
2,0.9807349310980903
3,0.9809451633029513
4,0.9813741048177084
5,0.9817572699652778
6,0.9819675021701388
7,0.981964111328125
8,0.9820200602213541
9,0.9818776448567709
10,0.9819590250651041
11,0.9822574191623263
12,0.9826863606770834
13,0.9829932318793403
14,0.9831017388237847
15,0.9829237196180556
16,0.9827660454644097
17,0.9829661051432291
18,0.9830780029296875
19,0.9833814832899306
20,0.9832034640842013
21,0.9830135769314237
22,0.9829508463541666
23,0.9829779730902778
24,0.9833560519748263
25,0.9838239881727431
26,0.9841240776909722
27,0.9842478434244791
28,0.9844021267361112
29,0.9842631022135416
30,0.9843054877387153
31,0.984100341796875
32,0.9842258029513888
33,0.9839714898003472
34,0.9840257432725694
35,0.9840799967447916
36,0.9839528401692709
37,0.9838731553819444
38,0.9840037027994791
39,0.9839155409071181
40,0.9841427273220487
41,0.9838748508029513
42,0.9840969509548612
43,0.9840732150607638
44,0.9841359456380209
45,0.9847429063585069
46,0.9848904079861112
47,0.9844648573133681
48,0.9841986762152778
49,0.9843580457899306
50,0.9846615261501737
51,0.9852328830295138
52,0.9853549533420138
53,0.9851328531901041
54,0.9852650960286459
55,0.9853023952907987
56,0.9853346082899306
57,0.9853532579210069
58,0.9854227701822916
59,0.9857211642795138
60,0.9856686062282987
61,0.9854973687065972
62,0.9858211941189237
63,0.9859805636935763
64,0.9858296712239584
65,0.9858262803819444
66,0.9859229193793403
67,0.9860042995876737
68,0.9861026340060763
69,0.9860263400607638
70,0.9861738416883681
71,0.986053466796875
72,0.9858500162760416
73,0.9856686062282987
74,0.9858161078559028
75,0.9858432345920138
76,0.9860822889539931
77,0.9863908555772569
78,0.9863416883680556
79,0.9860738118489584
80,0.9863518608940972
81,0.9865536159939237
82,0.9869893391927084
83,0.9870249430338541
84,0.9866739908854166
85,0.9866960313585069
86,0.9868350558810763
87,0.9866587320963541
88,0.9865349663628472
89,0.9867062038845487
90,0.9866248236762153
91,0.9868520100911459
92,0.9869452582465278
93,0.9872877332899306
94,0.9872216118706597
95,0.9872266981336806
96,0.9871385362413194
97,0.9869944254557291
98,0.9872182210286459
99,0.9875132242838541
100,0.9876776801215278
101,0.9876607259114584
102,0.9874860975477431
103,0.987457275390625
104,0.9876149495442709
105,0.9875132242838541
106,0.9878862169053819
107,0.9878811306423612
108,0.9880710177951388
109,0.9878370496961806
110,0.98779296875
111,0.9878862169053819
112,0.9877709282769097
113,0.9880167643229166
114,0.9881015353732638
115,0.9882626003689237
116,0.9884965684678819
117,0.9882337782118056
118,0.9884745279947916
119,0.9882609049479166
120,0.9884745279947916
121,0.9883914523654513
122,0.9887407090928819
123,0.9888543023003472
124,0.9886627197265625
125,0.988525390625
126,0.9884931776258681
127,0.9886050754123263
128,0.9884999593098959
129,0.9883304172092013
130,0.9886016845703125
131,0.9886440700954862
132,0.9889933268229166
133,0.9890797932942709
134,0.9891170925564237
135,0.9892476399739584
136,0.9893764919704862
137,0.9892595079210069
138,0.9894273546006944
139,0.9894646538628472
140,0.9894476996527778
141,0.9895646837022569
142,0.9897698296440972
143,0.9899631076388888
144,0.990020751953125
145,0.9900021023220487
146,0.9898834228515625
147,0.9898478190104166
148,0.9899444580078125
149,0.9899664984809028
150,0.9902665879991319
151,0.9905971950954862
152,0.9908803304036459
153,0.9908548990885416
154,0.9905954996744791
155,0.9904920789930556
156,0.9904937744140625
157,0.9904530843098959
158,0.9904123942057291
159,0.9901784261067709
160,0.9902055528428819
161,0.9903225368923612
162,0.9904632568359375
163,0.9907803005642362
164,0.990814208984375
165,0.9906226264105903
166,0.9907260470920138
167,0.9907701280381944
168,0.9909193250868056
169,0.9909888373480903
170,0.9911109076605903
171,0.9912075466579862
172,0.9913753933376737
173,0.9915178087022569
174,0.9916703965928819
175,0.9916941324869791
176,0.9914991590711806
177,0.9914754231770834
178,0.9916212293836806
179,0.9918043348524306
180,0.9918772379557291
181,0.9920637342664931
182,0.992340087890625
183,0.9920654296875
184,0.9921841091579862
185,0.9924231635199653
186,0.9924333360460069
187,0.9926283094618056
188,0.99249267578125
189,0.9925113254123263
190,0.9925299750434028
191,0.9925621880425347
192,0.9926825629340278
193,0.9926537407769097
194,0.9926062689887153
195,0.9926622178819444
196,0.9927452935112847
197,0.9927707248263888
198,0.9930657280815972
199,0.9931047227647569
200,0.9933844672309028
201,0.9934098985460069
202,0.9932691786024306
203,0.9931572808159722
204,0.9932623969184028
205,0.9933200412326388
206,0.9934098985460069
207,0.9933556450737847
208,0.9933047824435763
209,0.9934726291232638
210,0.9936896430121528
211,0.9937388102213541
212,0.9938371446397569
213,0.9937455919053819
214,0.9936540391710069
215,0.9938422309027778
216,0.9938167995876737
217,0.9939490424262153
218,0.9941474066840278
219,0.9943169487847222
220,0.9943661159939237
221,0.9942237006293403
222,0.9942203097873263
223,0.994232177734375
224,0.9942796495225694
225,0.9944559733072916
226,0.9944797092013888
227,0.9946221245659722
228,0.9947068956163194
229,0.9947187635633681
230,0.9946933322482638
231,0.9947933620876737
232,0.9948442247178819
233,0.9948713514539931
234,0.9949001736111112
235,0.9950154622395834
236,0.9952121310763888
237,0.9951731363932291
238,0.995269775390625
239,0.9951629638671875
240,0.9953986273871528
241,0.9952731662326388
242,0.9952155219184028
243,0.99517822265625
244,0.9952104356553819
245,0.9953511555989584
246,0.9955919053819444
247,0.9956800672743056
248,0.9958123101128472
249,0.9958292643229166
250,0.9959259033203125
251,0.99603271484375
252,0.9960598415798612
253,0.9960717095269097
254,0.9961412217881944
255,0.9961751302083334
256,0.9962666829427084
257,0.9963463677300347
258,0.9962327745225694
259,0.9962582058376737
260,0.9963582356770834
261,0.9963701036241319
262,0.9964023166232638
263,0.996429443359375
264,0.9966566297743056
265,0.9966244167751737
266,0.9966549343532987
267,0.9967329237196181
268,0.9968244764539931
269,0.9969804551866319
270,0.9969143337673612
271,0.9969465467664931
272,0.9969075520833334
273,0.9970431857638888
274,0.9971533881293403
275,0.9971822102864584
276,0.99713134765625
277,0.9971499972873263
278,0.9971889919704862
279,0.9972974989149306
280,0.9973737928602431
281,0.9974178738064237
282,0.9974687364366319
283,0.9975670708550347
284,0.9975687662760416
285,0.9977823893229166
286,0.9976687961154513
287,0.9977043999565972
288,0.9978264702690972
289,0.9978569878472222
290,0.9980502658420138
291,0.9981214735243056
292,0.9981926812065972
293,0.9981740315755209
294,0.998291015625
295,0.9982672797309028
296,0.9983723958333334
297,0.9984520806206597
298,0.9984825981987847
299,0.9985334608289931
300,0.9985470241970487
301,0.9985622829861112
302,0.9986826578776041
303,0.9986572265625
304,0.9987640380859375
305,0.9988962809244791
306,0.9989488389756944
307,0.9989776611328125
308,0.9990454779730903
309,0.9991217719184028
310,0.9990895589192709
311,0.9991811116536459
312,0.9992726643880209
313,0.9993184407552084
314,0.9993794759114584
315,0.9994439019097222
316,0.9995015462239584
317,0.9995168050130209
318,0.9995897081163194
319,0.9996795654296875
320,0.9997117784288194
321,0.9997524685329862
322,0.9998067220052084
323,0.9998558892144097
