1,0.9537590874565972
2,0.9556511773003472
3,0.9566548665364584
4,0.9581214057074653
5,0.9589775933159722
6,0.9594099256727431
7,0.9597066243489584
8,0.9599999321831597
9,0.9597608778211806
10,0.9595574273003472
11,0.9593149820963541
12,0.9597642686631944
13,0.9595184326171875
14,0.9600999620225694
15,0.9590030246310763
16,0.9594540066189237
17,0.9601457383897569
18,0.9607137044270834
19,0.9617411295572916
20,0.9614308675130209
21,0.9614512125651041
22,0.9621717664930556
23,0.9622056749131944
24,0.9628838433159722
25,0.9638621012369791
26,0.9631381564670138
27,0.9630720350477431
28,0.9631025526258681
29,0.9625667995876737
30,0.9627702501085069
31,0.9625227186414931
32,0.9628923204210069
33,0.963348388671875
34,0.9642978244357638
35,0.9637451171875
36,0.9642062717013888
37,0.9630482991536459
38,0.9632636176215278
39,0.963165283203125
40,0.9634653727213541
41,0.9631941053602431
42,0.9630364312065972
43,0.9623328314887153
44,0.9626329210069444
45,0.9633229573567709
46,0.9633975558810763
47,0.9641842312282987
48,0.9646267361111112
49,0.9649997287326388
50,0.9647488064236112
51,0.9652811686197916
52,0.9662356906467013
53,0.9659932454427084
54,0.9661627875434028
55,0.9659101698133681
56,0.9661627875434028
57,0.9662458631727431
58,0.9667782253689237
59,0.9668867323133681
60,0.9669579399956597
61,0.9667375352647569
62,0.9664967854817709
63,0.9671529134114584
64,0.9670681423611112
65,0.9673394097222222
66,0.9671359592013888
67,0.9670918782552084
68,0.9669087727864584
69,0.9667205810546875
70,0.9672682020399306
71,0.967254638671875
72,0.9678836398654513
73,0.9676005045572916
74,0.9678192138671875
75,0.9689771864149306
76,0.9691738552517362
77,0.9688890245225694
78,0.9685550265842013
79,0.9683210584852431
80,0.9692518446180556
81,0.9692637125651041
82,0.9695010715060763
83,0.9689670138888888
84,0.9691585964626737
85,0.9694959852430556
86,0.9695654975043403
87,0.9698299831814237
88,0.9703097873263888
89,0.9706607394748263
90,0.9708506266276041
91,0.971282958984375
92,0.9717932807074653
93,0.9719797770182291
94,0.9722442626953125
95,0.9722459581163194
96,0.9721815321180556
97,0.9722306993272569
98,0.9724324544270834
99,0.9726104736328125
100,0.9724256727430556
101,0.9723765055338541
102,0.9726138644748263
103,0.9723985460069444
104,0.9730072021484375
105,0.9731089274088541
106,0.9731970893012153
107,0.9728139241536459
108,0.9723697238498263
109,0.9721662733289931
110,0.9718373616536459
111,0.9722239176432291
112,0.9726070827907987
113,0.9726918538411459
114,0.9721815321180556
115,0.9723798963758681
116,0.9723273383246528
117,0.9726291232638888
118,0.9728020562065972
119,0.9730546739366319
120,0.9725613064236112
121,0.9728173149956597
122,0.9729953342013888
123,0.9737379286024306
124,0.9737006293402778
125,0.9736565483940972
126,0.9737582736545138
127,0.9736412896050347
128,0.9736870659722222
129,0.9745568169487847
130,0.9745330810546875
131,0.9745992024739584
132,0.9745330810546875
133,0.9752824571397569
134,0.9750756157769097
135,0.9751264784071181
136,0.9751044379340278
137,0.9752655029296875
138,0.9753977457682291
139,0.9758504231770834
140,0.9760708279079862
141,0.9765285915798612
142,0.9769185384114584
143,0.9762946234809028
144,0.9764879014756944
145,0.9765421549479166
146,0.9766930474175347
147,0.9767049153645834
148,0.9766998291015625
149,0.9770185682508681
150,0.9769914415147569
151,0.9772135416666666
152,0.9773474799262153
153,0.9775441487630209
154,0.9776577419704862
155,0.9778289794921875
156,0.9781375461154513
157,0.9783409966362847
158,0.9783749050564237
159,0.9787139892578125
160,0.9786427815755209
161,0.9788631863064237
162,0.9790920681423612
163,0.9791327582465278
164,0.9795684814453125
165,0.9795769585503472
166,0.979827880859375
167,0.9798160129123263
168,0.9793328179253472
169,0.9795583089192709
170,0.9798855251736112
171,0.9798227945963541
172,0.9798770480685763
173,0.9801161024305556
174,0.9802144368489584
175,0.9808298746744791
176,0.9806450737847222
177,0.9805382622612847
178,0.9807451036241319
179,0.9811842176649306
180,0.9812181260850694
181,0.9814588758680556
182,0.9813469780815972
183,0.98138427734375
184,0.9817352294921875
185,0.981903076171875
186,0.981781005859375
187,0.9819183349609375
188,0.9818522135416666
189,0.9823777940538194
190,0.9823642306857638
191,0.9823133680555556
192,0.9822777642144097
193,0.9822726779513888
194,0.9827473958333334
195,0.9830457899305556
196,0.983154296875
197,0.9831915961371528
198,0.9835086398654513
199,0.9841444227430556
200,0.9840681287977431
201,0.9841868082682291
202,0.9844682481553819
203,0.9841749403211806
204,0.9840359157986112
205,0.9843275282118056
206,0.9846276177300347
207,0.9846632215711806
208,0.9846343994140625
209,0.9850650363498263
210,0.9848548041449653
211,0.9853769938151041
212,0.9853617350260416
213,0.9852888319227431
214,0.98541259765625
215,0.9855312771267362
216,0.9858211941189237
217,0.9858500162760416
218,0.986083984375
219,0.9864230685763888
220,0.9863671196831597
221,0.9863942464192709
222,0.9868299696180556
223,0.9867926703559028
224,0.9872216118706597
225,0.987274169921875
226,0.9872758653428819
227,0.9873267279730903
228,0.9873250325520834
229,0.9875539143880209
230,0.9876047770182291
231,0.9876149495442709
232,0.9878573947482638
233,0.9880964491102431
234,0.988433837890625
235,0.9879421657986112
236,0.9880388047960069
237,0.9884389241536459
238,0.9887763129340278
239,0.9890458848741319
240,0.9892425537109375
241,0.9891391330295138
242,0.9892222086588541
243,0.9893578423394097
244,0.9896036783854166
245,0.9895595974392362
246,0.9896799723307291
247,0.9897393120659722
248,0.9898579915364584
249,0.9903394911024306
250,0.9904886881510416
251,0.9906226264105903
252,0.9907514784071181
253,0.9909396701388888
254,0.9910769992404513
255,0.9912295871310763
256,0.9913550482855903
257,0.9914737277560763
258,0.9915890163845487
259,0.9916144476996528
260,0.991729736328125
261,0.9918619791666666
262,0.9918178982204862
263,0.9918433295355903
264,0.9921502007378472
265,0.9920908610026041
266,0.9923909505208334
267,0.9924808078342013
268,0.9928165011935763
269,0.9931284586588541
270,0.9932725694444444
271,0.9935116238064237
272,0.9933658175998263
273,0.9934370252821181
274,0.9934878879123263
275,0.9936404758029513
276,0.9936303032769097
277,0.9937506781684028
278,0.9939134385850694
279,0.9940066867404513
280,0.9942050509982638
281,0.9942779541015625
282,0.9943830702039931
283,0.9944831000434028
284,0.9946645100911459
285,0.9948154025607638
286,0.9948527018229166
287,0.9948815239800347
288,0.9951256646050347
289,0.9952680799696181
290,0.9955342610677084
291,0.9955613878038194
292,0.9957004123263888
293,0.9957665337456597
294,0.9959275987413194
295,0.9961174858940972
296,0.9960971408420138
297,0.9963209364149306
298,0.9964243570963541
299,0.9965362548828125
300,0.9966973198784722
301,0.9968312581380209
302,0.9968600802951388
303,0.9969855414496528
304,0.9972144232855903
305,0.9973381890190972
306,0.9975738525390625
307,0.9976365831163194
308,0.9976467556423612
309,0.9978061252170138
310,0.9980383978949653
311,0.9982096354166666
312,0.9983673095703125
313,0.9984113905164931
314,0.9985504150390625
315,0.9986402723524306
316,0.9987691243489584
317,0.9989454481336806
318,0.9990522596571181
319,0.9991573757595487
320,0.9993320041232638
321,0.9994167751736112
322,0.9995625813802084
323,0.9996303982204862
