1,0.9597066243489584
2,0.9611443413628472
3,0.9624803331163194
4,0.9631398518880209
5,0.9638960096571181
6,0.9644622802734375
7,0.9643792046440972
8,0.9641571044921875
9,0.9635823567708334
10,0.9643012152777778
11,0.9642605251736112
12,0.9654541015625
13,0.9655083550347222
14,0.9660678439670138
15,0.9656660291883681
16,0.9655863444010416
17,0.9653252495659722
18,0.9656304253472222
19,0.9660780164930556
20,0.9656338161892362
21,0.9656965467664931
22,0.9660356309678819
23,0.9662306043836806
24,0.9664221869574653
25,0.9675496419270834
26,0.9679497612847222
27,0.9681481255425347
28,0.9688635932074653
29,0.9682752821180556
30,0.968414306640625
31,0.9678310818142362
32,0.9678836398654513
33,0.9670664469401041
34,0.9679056803385416
35,0.9684770372178819
36,0.9683142768012153
37,0.9682379828559028
38,0.9684414333767362
39,0.9683685302734375
40,0.9687601725260416
41,0.9687211778428819
42,0.9687822129991319
43,0.9684719509548612
44,0.9682786729600694
45,0.9697909884982638
46,0.9701046413845487
47,0.9698774549696181
48,0.9696875678168403
49,0.9694179958767362
50,0.9699435763888888
51,0.9705827501085069
52,0.9711405436197916
53,0.9707387288411459
54,0.9706810845269097
55,0.9705861409505209
56,0.9708624945746528
57,0.9709421793619791
58,0.9708218044704862
59,0.9713372124565972
60,0.9712134467230903
61,0.9710879855685763
62,0.9710235595703125
63,0.9716508653428819
64,0.9719882541232638
65,0.9720408121744791
66,0.9718729654947916
67,0.9722985161675347
68,0.9717780219184028
69,0.9717678493923612
70,0.9722222222222222
71,0.9719441731770834
72,0.9718119303385416
73,0.9716559516059028
74,0.9718204074435763
75,0.9720865885416666
76,0.9723493787977431
77,0.9727834065755209
78,0.9720815022786459
79,0.9715457492404513
80,0.9726206461588541
81,0.9726172553168403
82,0.9732632107204862
83,0.9732903374565972
84,0.9731530083550347
85,0.9725663926866319
86,0.9726376003689237
87,0.9720204671223959
88,0.9727817111545138
89,0.9727494981553819
90,0.9728902180989584
91,0.9732581244574653
92,0.9734819200303819
93,0.9740431043836806
94,0.9739108615451388
95,0.9737599690755209
96,0.9736446804470487
97,0.9735921223958334
98,0.9741312662760416
99,0.9750230577256944
100,0.9753485785590278
101,0.9755062527126737
102,0.9749518500434028
103,0.9745771620008681
104,0.9750722249348959
105,0.9752332899305556
106,0.9758521185980903
107,0.9756605360243056
108,0.975677490234375
109,0.975311279296875
110,0.9750807020399306
111,0.9750807020399306
112,0.9750705295138888
113,0.9756944444444444
114,0.9755706787109375
115,0.9762132432725694
116,0.976104736328125
117,0.9758724636501737
118,0.9759267171223959
119,0.9764048258463541
120,0.9770050048828125
121,0.9767795138888888
122,0.9770016140407987
123,0.9774271647135416
124,0.9768761528862847
125,0.9772966172960069
126,0.9769354926215278
127,0.9770050048828125
128,0.9769371880425347
129,0.9769117567274306
130,0.9768778483072916
131,0.9773033989800347
132,0.9775950113932291
133,0.977630615234375
134,0.9779154459635416
135,0.9779171413845487
136,0.9781409369574653
137,0.9786800808376737
138,0.9786461724175347
139,0.9782613118489584
140,0.9782918294270834
141,0.9789598253038194
142,0.9795193142361112
143,0.9796735975477431
144,0.9799380832248263
145,0.9801347520616319
146,0.9796430799696181
147,0.9794040256076388
148,0.9796193440755209
149,0.9799380832248263
150,0.9802890353732638
151,0.9807603624131944
152,0.9811265733506944
153,0.9809536404079862
154,0.9808756510416666
155,0.9808027479383681
156,0.9805942111545138
157,0.9805874294704862
158,0.9807044135199653
159,0.980194091796875
160,0.9806722005208334
161,0.9807620578342013
162,0.9807247585720487
163,0.9812062581380209
164,0.9812503390842013
165,0.9814249674479166
166,0.9813910590277778
167,0.9813673231336806
168,0.981689453125
169,0.9815707736545138
170,0.9819064670138888
171,0.9818996853298612
172,0.9821183946397569
173,0.9823760986328125
174,0.9826812744140625
175,0.9827524820963541
176,0.9827694363064237
177,0.9827999538845487
178,0.9831136067708334
179,0.9835001627604166
180,0.9838222927517362
181,0.9838138156467013
182,0.9839104546440972
183,0.9836578369140625
184,0.9838731553819444
185,0.9844835069444444
186,0.9844512939453125
187,0.9847344292534722
188,0.9846615261501737
189,0.9848175048828125
190,0.9847666422526041
191,0.9847089979383681
192,0.9850701226128472
193,0.9852006700303819
194,0.9850904676649306
195,0.9850819905598959
196,0.9854024251302084
197,0.9852718777126737
198,0.9859517415364584
199,0.9861161973741319
200,0.9862823486328125
201,0.9864824083116319
202,0.9862603081597222
203,0.9864552815755209
204,0.9862535264756944
205,0.9863942464192709
206,0.9865468343098959
207,0.9866570366753472
208,0.9868401421440972
209,0.9868994818793403
210,0.9871283637152778
211,0.98712158203125
212,0.9872979058159722
213,0.9876454671223959
214,0.9875742594401041
215,0.9879302978515625
216,0.9878031412760416
217,0.9879845513237847
218,0.9884117974175347
219,0.9887949625651041
220,0.9887169731987847
221,0.9884609646267362
222,0.9882931179470487
223,0.9882236056857638
224,0.9885847303602431
225,0.9886898464626737
226,0.9889933268229166
227,0.9891238742404513
228,0.9892255995008681
229,0.9894070095486112
230,0.9893476698133681
231,0.989227294921875
232,0.9895494249131944
233,0.9897037082248263
234,0.9898868136935763
235,0.9898834228515625
236,0.9900699191623263
237,0.9900953504774306
238,0.9901021321614584
239,0.9902309841579862
240,0.9904395209418403
241,0.9903344048394097
242,0.9903632269965278
243,0.9904225667317709
244,0.9902581108940972
245,0.9906667073567709
246,0.9910905626085069
247,0.9912295871310763
248,0.9912974039713541
249,0.9915211995442709
250,0.9916890462239584
251,0.9916890462239584
252,0.9918772379557291
253,0.9918365478515625
254,0.9919925265842013
255,0.9921162923177084
256,0.9923061794704862
257,0.9923960367838541
258,0.9924638536241319
259,0.9924180772569444
260,0.9928012424045138
261,0.9928215874565972
262,0.9928944905598959
263,0.9930996365017362
264,0.9932607014973959
265,0.9932352701822916
266,0.9933844672309028
267,0.9934861924913194
268,0.9936591254340278
269,0.9938015407986112
270,0.9938913981119791
271,0.9939965142144097
272,0.9939609103732638
273,0.9942033555772569
274,0.9943491617838541
275,0.9942576090494791
276,0.9943322075737847
277,0.9943169487847222
278,0.9944322374131944
279,0.9946797688802084
280,0.9948527018229166
281,0.9948866102430556
282,0.994964599609375
283,0.9951883951822916
284,0.9953392876519097
285,0.9954477945963541
286,0.9954274495442709
287,0.9954071044921875
288,0.9955461290147569
289,0.9958580864800347
290,0.9960496690538194
291,0.9961344401041666
292,0.9961971706814237
293,0.9963785807291666
294,0.9964887830946181
295,0.996612548828125
296,0.9968159993489584
297,0.9968617757161459
298,0.9969363742404513
299,0.9970974392361112
300,0.9971635606553819
301,0.9972381591796875
302,0.997344970703125
303,0.9973534478081597
304,0.9975314670138888
305,0.9977230495876737
306,0.9978603786892362
307,0.9979909261067709
308,0.9981350368923612
309,0.9981774224175347
310,0.9982961018880209
311,0.9984486897786459
312,0.99853515625
313,0.9986029730902778
314,0.9987046983506944
315,0.9988623725043403
316,0.9989098442925347
317,0.9990336100260416
318,0.9992048475477431
319,0.9992794460720487
320,0.9993743896484375
321,0.9995032416449653
322,0.9996151394314237
323,0.9997236463758681
