1,0.8216061062282987
2,0.8256734212239584
3,0.8301917182074653
4,0.8325703938802084
5,0.8366444905598959
6,0.8388671875
7,0.8381466335720487
8,0.8367529975043403
9,0.8365342881944444
10,0.8373904758029513
11,0.8400353325737847
12,0.8427564832899306
13,0.8424462212456597
14,0.8448198106553819
15,0.8434482150607638
16,0.8432956271701388
17,0.8431294759114584
18,0.8444654676649306
19,0.8446892632378472
20,0.8434668646918403
21,0.8431430392795138
22,0.8442450629340278
23,0.8449334038628472
24,0.8464575873480903
25,0.8497229682074653
26,0.8523017035590278
27,0.8524102105034722
28,0.8552517361111112
29,0.8542836507161459
30,0.8542056613498263
31,0.8529883490668403
32,0.8524831136067709
33,0.8496348063151041
34,0.8532460530598959
35,0.8541649712456597
36,0.8526034884982638
37,0.8521830240885416
38,0.8527052137586806
39,0.8539038764105903
40,0.8561909993489584
41,0.8553127712673612
42,0.8559892442491319
43,0.8549109564887153
44,0.855194091796875
45,0.8603922526041666
46,0.8611365424262153
47,0.8597954644097222
48,0.8591478135850694
49,0.8587086995442709
50,0.8607279459635416
51,0.8630879720052084
52,0.8647087944878472
53,0.8637101915147569
54,0.8642764621310763
55,0.8638203938802084
56,0.8640831841362847
57,0.8648054334852431
58,0.8643171522352431
59,0.8657514784071181
60,0.8653513590494791
61,0.8656022813585069
62,0.8663652208116319
63,0.868072509765625
64,0.8695644802517362
65,0.8687676323784722
66,0.8690846761067709
67,0.8701748318142362
68,0.8689931233723959
69,0.8675214979383681
70,0.869598388671875
71,0.8697052001953125
72,0.86895751953125
73,0.8680589463975694
74,0.8687167697482638
75,0.8694712320963541
76,0.8706563313802084
77,0.8730553521050347
78,0.8692966037326388
79,0.8679911295572916
80,0.8711920844184028
81,0.8707461886935763
82,0.8738945855034722
83,0.8737640380859375
84,0.8733181423611112
85,0.8720855712890625
86,0.8724907769097222
87,0.8698374430338541
88,0.8727043999565972
89,0.8720041910807291
90,0.8725738525390625
91,0.8749372694227431
92,0.8759952121310763
93,0.8784552680121528
94,0.8773176405164931
95,0.8764156765407987
96,0.8766767713758681
97,0.8752848307291666
98,0.8788553873697916
99,0.88134765625
100,0.8826785617404513
101,0.8842247856987847
102,0.8813374837239584
103,0.8813222249348959
104,0.882598876953125
105,0.8824072943793403
106,0.8848232693142362
107,0.8846181233723959
108,0.8851691351996528
109,0.8833092583550347
110,0.8831736246744791
111,0.8820224338107638
112,0.8828854031032987
113,0.8850792778862847
114,0.8847215440538194
115,0.8871612548828125
116,0.8868391248914931
117,0.8851759168836806
118,0.8867594401041666
119,0.8874579535590278
120,0.8894602457682291
121,0.8891194661458334
122,0.8902045355902778
123,0.8915167914496528
124,0.8903706868489584
125,0.891143798828125
126,0.8910420735677084
127,0.8909912109375
128,0.8909216986762153
129,0.8908301459418403
130,0.8916066487630209
131,0.8919609917534722
132,0.8933088514539931
133,0.8943108452690972
134,0.8950839572482638
135,0.8960944281684028
136,0.8962724473741319
137,0.8976372612847222
138,0.8976253933376737
139,0.8971405029296875
140,0.8965182834201388
141,0.8990715874565972
142,0.9012451171875
143,0.902252197265625
144,0.9037272135416666
145,0.9034644232855903
146,0.9037407769097222
147,0.9021131727430556
148,0.9018452962239584
149,0.9042900933159722
150,0.9059939914279513
151,0.9069993760850694
152,0.9084269205729166
153,0.9092305501302084
154,0.9085744222005209
155,0.9080725775824653
156,0.9069925944010416
157,0.9070790608723959
158,0.9070281982421875
159,0.9050665961371528
160,0.9066212972005209
161,0.9076300726996528
162,0.9076656765407987
163,0.9094204372829862
164,0.9100240071614584
165,0.9100986056857638
166,0.9101206461588541
167,0.9099544949001737
168,0.9115312364366319
169,0.910675048828125
170,0.9122602674696181
171,0.9128875732421875
172,0.9141303168402778
173,0.9152492947048612
174,0.9165242513020834
175,0.9172634548611112
176,0.9170905219184028
177,0.9167514377170138
178,0.9176771375868056
179,0.9195387098524306
180,0.9211052788628472
181,0.9208628336588541
182,0.9211324055989584
183,0.9205864800347222
184,0.9223581949869791
185,0.9244045681423612
186,0.9249793158637153
187,0.9258660210503472
188,0.9248250325520834
189,0.9254675971137153
190,0.9254404703776041
191,0.9256371392144097
192,0.9272240532769097
193,0.9281870524088541
194,0.9279920789930556
195,0.9284634060329862
196,0.9290059407552084
197,0.9285057915581597
198,0.9310217963324653
199,0.9320882161458334
200,0.9332546657986112
201,0.9340413411458334
202,0.9331309000651041
203,0.9339667426215278
204,0.9333038330078125
205,0.933929443359375
206,0.9347517225477431
207,0.9346499972873263
208,0.9357384575737847
209,0.9364403618706597
210,0.9373796251085069
211,0.9368201361762153
212,0.9385748969184028
213,0.9387715657552084
214,0.9391818576388888
215,0.9403449164496528
216,0.9402075873480903
217,0.9412655300564237
218,0.9429134792751737
219,0.9441358778211806
220,0.9442003038194444
221,0.9433712429470487
222,0.9429372151692709
223,0.9421861436631944
224,0.9441867404513888
225,0.9440256754557291
226,0.9459923638237847
227,0.9468265109592013
228,0.9471944173177084
229,0.9478268093532987
230,0.9475724962022569
231,0.9475606282552084
232,0.9487830268012153
233,0.9496392144097222
234,0.9500545925564237
235,0.9498511420355903
236,0.9511142306857638
237,0.9514380560980903
238,0.9520229763454862
239,0.9521094428168403
240,0.9526384141710069
241,0.9521535237630209
242,0.9522993299696181
243,0.9527113172743056
244,0.9525332980685763
245,0.9546763102213541
246,0.9558970133463541
247,0.9569583468967013
248,0.9574652777777778
249,0.9583248562282987
250,0.9588673909505209
251,0.9593488905164931
252,0.9602593315972222
253,0.9601881239149306
254,0.9612189398871528
255,0.9618445502387153
256,0.9623887803819444
257,0.9623480902777778
258,0.9628533257378472
259,0.9627448187934028
260,0.9643181694878472
261,0.9646657307942709
262,0.9647471110026041
263,0.9655795627170138
264,0.9660203721788194
265,0.9670088026258681
266,0.9675038655598959
267,0.9679667154947916
268,0.9686414930555556
269,0.9697672526041666
270,0.9700453016493056
271,0.9702504475911459
272,0.9700826009114584
273,0.9709930419921875
274,0.9717746310763888
275,0.9718000623914931
276,0.9714168972439237
277,0.9717932807074653
278,0.9722679985894097
279,0.9734293619791666
280,0.9741685655381944
281,0.974578857421875
282,0.9754197862413194
283,0.9763454861111112
284,0.9767523871527778
285,0.9774017333984375
286,0.977203369140625
287,0.9775187174479166
288,0.9786546495225694
289,0.9794464111328125
290,0.980682373046875
291,0.9811825222439237
292,0.9818301730685763
293,0.9821590847439237
294,0.9825914171006944
295,0.9831593831380209
296,0.9838494194878472
297,0.9844818115234375
298,0.9849412706163194
299,0.9852430555555556
300,0.98577880859375
301,0.9860009087456597
302,0.9866824679904513
303,0.9871571858723959
304,0.9878285725911459
305,0.9886288113064237
306,0.9892425537109375
307,0.9900580512152778
308,0.9904717339409722
309,0.9909006754557291
310,0.9915178087022569
311,0.9922383626302084
312,0.9927402072482638
313,0.992950439453125
314,0.9935557047526041
315,0.9940914577907987
316,0.9945882161458334
317,0.9950917561848959
318,0.9958343505859375
319,0.9963870578342013
320,0.9968905978732638
321,0.9975229899088541
322,0.9979977077907987
323,0.9986029730902778
