1,0.9633924696180556
2,0.9648929172092013
3,0.9653642442491319
4,0.9665493435329862
5,0.9669528537326388
6,0.9677700466579862
7,0.9677259657118056
8,0.9674936930338541
9,0.9676411946614584
10,0.9674530029296875
11,0.9669019911024306
12,0.9675564236111112
13,0.9673682318793403
14,0.9678276909722222
15,0.9673902723524306
16,0.9672393798828125
17,0.9671732584635416
18,0.9679955376519097
19,0.9693959554036459
20,0.9692196316189237
21,0.9691399468315972
22,0.9688805474175347
23,0.9686211480034722
24,0.9690907796223959
25,0.9696214463975694
26,0.9693315294053819
27,0.9693145751953125
28,0.9694230821397569
29,0.9700096978081597
30,0.9704471164279513
31,0.9706268310546875
32,0.9707658555772569
33,0.9709693060980903
34,0.9708947075737847
35,0.9703453911675347
36,0.9700741238064237
37,0.9697418212890625
38,0.9698316786024306
39,0.9697994656032987
40,0.9695078531901041
41,0.9701215955946181
42,0.9706980387369791
43,0.9708268907335069
44,0.9707268608940972
45,0.9709625244140625
46,0.9717644585503472
47,0.9721493191189237
48,0.9724578857421875
49,0.9721950954861112
50,0.97216796875
51,0.9724392361111112
52,0.9721900092230903
53,0.9722069634331597
54,0.9717017279730903
55,0.9715983072916666
56,0.9718797471788194
57,0.9719000922309028
58,0.9721628824869791
59,0.9727867974175347
60,0.9729868570963541
61,0.9732649061414931
62,0.9737124972873263
63,0.9745754665798612
64,0.9748213026258681
65,0.9749501546223959
66,0.9751383463541666
67,0.9742329915364584
68,0.9736802842881944
69,0.9739464653862847
70,0.9743160671657987
71,0.9746568467881944
72,0.9746195475260416
73,0.97442626953125
74,0.9745890299479166
75,0.9743720160590278
76,0.9742312961154513
77,0.9742024739583334
78,0.9743177625868056
79,0.9741651746961806
80,0.9748806423611112
81,0.9753434922960069
82,0.9760996500651041
83,0.9760725233289931
84,0.9764133029513888
85,0.9758826361762153
86,0.9758131239149306
87,0.9759470621744791
88,0.9759114583333334
89,0.9759470621744791
90,0.9759657118055556
91,0.9761284722222222
92,0.9762946234809028
93,0.9762793646918403
94,0.9766693115234375
95,0.9768761528862847
96,0.9768490261501737
97,0.9772304958767362
98,0.977783203125
99,0.9780205620659722
100,0.9780086941189237
101,0.9782223171657987
102,0.9781104193793403
103,0.9781358506944444
104,0.9785953097873263
105,0.9787394205729166
106,0.9792124430338541
107,0.9794769287109375
108,0.9793226453993056
109,0.9787699381510416
110,0.9783935546875
111,0.9785020616319444
112,0.9787936740451388
113,0.9789649115668403
114,0.9785207112630209
115,0.9786444769965278
116,0.9785715738932291
117,0.9782731797960069
118,0.978118896484375
119,0.9781477186414931
120,0.9779459635416666
121,0.9782443576388888
122,0.9780934651692709
123,0.9782002766927084
124,0.9786529541015625
125,0.9788903130425347
126,0.9789106580946181
127,0.9794447157118056
128,0.9793328179253472
129,0.9792616102430556
130,0.979766845703125
131,0.9798923068576388
132,0.9799482557508681
133,0.9801483154296875
134,0.9801177978515625
135,0.9802754720052084
136,0.9802483452690972
137,0.9805450439453125
138,0.9803602430555556
139,0.9807535807291666
140,0.9811164008246528
141,0.9813741048177084
142,0.9819607204861112
143,0.9823506673177084
144,0.9825236002604166
145,0.9823777940538194
146,0.9822235107421875
147,0.9820302327473959
148,0.9820014105902778
149,0.9824795193142362
150,0.9826219346788194
151,0.9826456705729166
152,0.9826880560980903
153,0.9824879964192709
154,0.9825083414713541
155,0.9824269612630209
156,0.9828406439887153
157,0.9832984076605903
158,0.9832390679253472
159,0.9833255343967013
160,0.9830390082465278
161,0.9832916259765625
162,0.9835730658637153
163,0.9837120903862847
164,0.9841732449001737
165,0.9842291937934028
166,0.9841189914279513
167,0.9838155110677084
168,0.9839901394314237
169,0.9840443929036459
170,0.9843241373697916
171,0.9845920138888888
172,0.9849158393012153
173,0.9849955240885416
174,0.9849056667751737
175,0.9849514431423612
176,0.9853685167100694
177,0.9853278266059028
178,0.9853074815538194
179,0.9855584038628472
180,0.9858635796440972
181,0.9858635796440972
182,0.9858059353298612
183,0.9856516520182291
184,0.9856092664930556
185,0.9859432644314237
186,0.9858652750651041
187,0.9858754475911459
188,0.9863857693142362
189,0.9865688747829862
190,0.9865587022569444
191,0.986572265625
192,0.9867638481987847
193,0.9868723551432291
194,0.9869876437717013
195,0.9870402018229166
196,0.9870198567708334
197,0.9870198567708334
198,0.9873385959201388
199,0.9874657524956597
200,0.9873012966579862
201,0.9874979654947916
202,0.9877658420138888
203,0.9877098931206597
204,0.9875861273871528
205,0.9879642062717013
206,0.9879472520616319
207,0.9883982340494791
208,0.9886932373046875
209,0.9888627794053819
210,0.9887525770399306
211,0.9890526665581597
212,0.9892747667100694
213,0.9893697102864584
214,0.9892985026041666
215,0.9891730414496528
216,0.9891408284505209
217,0.9892968071831597
218,0.9893324110243056
219,0.9897087944878472
220,0.9897630479600694
221,0.9898800320095487
222,0.9900631374782987
223,0.9900733100043403
224,0.9899800618489584
225,0.9899529351128472
226,0.9900224473741319
227,0.9901156955295138
228,0.9900800916883681
229,0.9902496337890625
230,0.9904836018880209
231,0.9907141791449653
232,0.9909379747178819
233,0.9909447564019097
234,0.9910905626085069
235,0.9909294976128472
236,0.9909532335069444
237,0.9910719129774306
238,0.9911312527126737
239,0.9910888671875
240,0.9914567735460069
241,0.9917551676432291
242,0.9918348524305556
243,0.9917941623263888
244,0.991668701171875
245,0.9918314615885416
246,0.9919806586371528
247,0.9920450846354166
248,0.9921756320529513
249,0.9924282497829862
250,0.9925944010416666
251,0.9928402370876737
252,0.9929267035590278
253,0.9928317599826388
254,0.9930097791883681
255,0.9930165608723959
256,0.9931708441840278
257,0.9932674831814237
258,0.9934048122829862
259,0.9936692979600694
260,0.9937184651692709
261,0.9936184353298612
262,0.9935980902777778
263,0.9937557644314237
264,0.9938761393229166
265,0.9939727783203125
266,0.9940185546875
267,0.9940931532118056
268,0.9943576388888888
269,0.9946322970920138
270,0.9946746826171875
271,0.9948476155598959
272,0.9949374728732638
273,0.9948442247178819
274,0.9950069851345487
275,0.9950968424479166
276,0.9951426188151041
277,0.9953816731770834
278,0.9952969021267362
279,0.9954155815972222
280,0.9954817030164931
281,0.9956529405381944
282,0.9956139458550347
283,0.9958818223741319
284,0.9959699842664931
285,0.9959309895833334
286,0.9961056179470487
287,0.9962242974175347
288,0.9963175455729166
289,0.9963667127821181
290,0.9964887830946181
291,0.9966515435112847
292,0.9967363145616319
293,0.9968126085069444
294,0.9968380398220487
295,0.9970330132378472
296,0.9971279568142362
297,0.9971788194444444
298,0.9973602294921875
299,0.9974178738064237
300,0.9973975287543403
301,0.9975857204861112
302,0.9976450602213541
303,0.9977264404296875
304,0.9978485107421875
305,0.9980010986328125
306,0.9981333414713541
307,0.9981486002604166
308,0.9982265896267362
309,0.9983469645182291
310,0.998504638671875
311,0.9986216227213541
312,0.9987589518229166
313,0.9987453884548612
314,0.9989217122395834
315,0.9990437825520834
316,0.9991048177083334
317,0.9992251925998263
318,0.9993082682291666
319,0.9994066026475694
320,0.9995151095920138
321,0.9995897081163194
322,0.9996744791666666
323,0.9997660319010416
