1,0.8405303955078125
2,0.8430870903862847
3,0.8392215304904513
4,0.8438347710503472
5,0.8440110948350694
6,0.845458984375
7,0.8454793294270834
8,0.847808837890625
9,0.84832763671875
10,0.8497873942057291
11,0.8505282931857638
12,0.8518524169921875
13,0.8517405192057291
14,0.8491448296440972
15,0.8453708224826388
16,0.8435329861111112
17,0.84539794921875
18,0.8481970893012153
19,0.8521287706163194
20,0.8508165147569444
21,0.85009765625
22,0.8503977457682291
23,0.8512454562717013
24,0.8518795437282987
25,0.8573828803168403
26,0.8569793701171875
27,0.8587171766493056
28,0.8604278564453125
29,0.8633812798394097
30,0.8656989203559028
31,0.8683319091796875
32,0.8698527018229166
33,0.8715905083550347
34,0.8709615071614584
35,0.8688456217447916
36,0.8661515977647569
37,0.8646731906467013
38,0.8663296169704862
39,0.8656700981987847
40,0.8660668267144097
41,0.8635813395182291
42,0.8649037679036459
43,0.864013671875
44,0.8645307752821181
45,0.8649427625868056
46,0.8651580810546875
47,0.868682861328125
48,0.8708953857421875
49,0.8699442545572916
50,0.8724534776475694
51,0.8725670708550347
52,0.874755859375
53,0.874267578125
54,0.8721279568142362
55,0.8691524929470487
56,0.8688880072699653
57,0.8704257541232638
58,0.8726247151692709
59,0.8748948838975694
60,0.8748253716362847
61,0.8746676974826388
62,0.8744303385416666
63,0.8772922092013888
64,0.8784891764322916
65,0.8788859049479166
66,0.8789876302083334
67,0.8787553575303819
68,0.8759307861328125
69,0.8745608859592013
70,0.8744303385416666
71,0.8751848008897569
72,0.8777516682942709
73,0.8771158854166666
74,0.8783365885416666
75,0.8789520263671875
76,0.8786248101128472
77,0.8792182074652778
78,0.8798946804470487
79,0.8817189534505209
80,0.8823716905381944
81,0.8828955756293403
82,0.8842739529079862
83,0.8835432264539931
84,0.8826090494791666
85,0.8832906087239584
86,0.8826463487413194
87,0.8842892116970487
88,0.8859049479166666
89,0.8841552734375
90,0.8852708604600694
91,0.8864220513237847
92,0.8879886203342013
93,0.890380859375
94,0.8911217583550347
95,0.8909589979383681
96,0.8907674153645834
97,0.8931766086154513
98,0.8951127794053819
99,0.8982323540581597
100,0.8987850613064237
101,0.8987155490451388
102,0.898773193359375
103,0.8974982367621528
104,0.8976609971788194
105,0.8997429741753472
106,0.9008365207248263
107,0.8984239366319444
108,0.8962300618489584
109,0.8947397867838541
110,0.8953060574001737
111,0.8973626030815972
112,0.8972405327690972
113,0.8976372612847222
114,0.8968404134114584
115,0.8968980577256944
116,0.8979526095920138
117,0.8986155192057291
118,0.8995073106553819
119,0.8987528483072916
120,0.8973829481336806
121,0.8998752170138888
122,0.8984290228949653
123,0.8980187310112847
124,0.8986901177300347
125,0.8976203070746528
126,0.8995123969184028
127,0.9027676052517362
128,0.9043799506293403
129,0.9057498508029513
130,0.9048326280381944
131,0.9035237630208334
132,0.9027760823567709
133,0.9047902425130209
134,0.9063093397352431
135,0.9064992268880209
136,0.9069586859809028
137,0.9058091905381944
138,0.9066992865668403
139,0.9076758490668403
140,0.9088846842447916
141,0.9092729356553819
142,0.9098120795355903
143,0.9102562798394097
144,0.9109056260850694
145,0.9120568169487847
146,0.9134707980685763
147,0.9140133327907987
148,0.9130503336588541
149,0.9134572347005209
150,0.9149898952907987
151,0.9161495632595487
152,0.9164954291449653
153,0.916534423828125
154,0.9174957275390625
155,0.9194895426432291
156,0.9198320176866319
157,0.9198099772135416
158,0.9191623263888888
159,0.9197184244791666
160,0.9206288655598959
161,0.9212883843315972
162,0.9229278564453125
163,0.9225396050347222
164,0.9237704806857638
165,0.9251827663845487
166,0.9239603678385416
167,0.9242265489366319
168,0.923492431640625
169,0.9240756564670138
170,0.9256100124782987
171,0.9267306857638888
172,0.9280683729383681
173,0.9294552273220487
174,0.9307996961805556
175,0.9292178683810763
176,0.9298638237847222
177,0.9314897325303819
178,0.9301893446180556
179,0.9310031467013888
180,0.9310997856987847
181,0.9317372639973959
182,0.9319644504123263
183,0.9326171875
184,0.9320220947265625
185,0.9313981797960069
186,0.9314185248480903
187,0.9314626057942709
188,0.9316440158420138
189,0.9318525526258681
190,0.9329325358072916
191,0.9331546359592013
192,0.9321662055121528
193,0.9330376519097222
194,0.9345652262369791
195,0.9352366129557291
196,0.9359012179904513
197,0.9362674289279513
198,0.9368116590711806
199,0.9374186197916666
200,0.9376746283637153
201,0.9397379557291666
202,0.9399142795138888
203,0.9398345947265625
204,0.9400956895616319
205,0.9405280219184028
206,0.9413028293185763
207,0.9424828423394097
208,0.9430508083767362
209,0.9433678521050347
210,0.9424268934461806
211,0.943450927734375
212,0.9439036051432291
213,0.9444817437065972
214,0.9446750217013888
215,0.9463534884982638
216,0.9469367133246528
217,0.9472639295789931
218,0.9480862087673612
219,0.9487236870659722
220,0.9491441514756944
221,0.9485134548611112
222,0.9484151204427084
223,0.9488016764322916
224,0.9496392144097222
225,0.950592041015625
226,0.9516991509331597
227,0.9525926378038194
228,0.9524909125434028
229,0.9523654513888888
230,0.9527859157986112
231,0.9534437391493056
232,0.9548526340060763
233,0.9551459418402778
234,0.9550764295789931
235,0.9553985595703125
236,0.9563819037543403
237,0.9565717909071181
238,0.9576551649305556
239,0.9587368435329862
240,0.9587148030598959
241,0.9588097466362847
242,0.9598642985026041
243,0.9602830674913194
244,0.9609561496310763
245,0.9607035319010416
246,0.9599100748697916
247,0.9602406819661459
248,0.9612494574652778
249,0.9620157877604166
250,0.9631449381510416
251,0.9635976155598959
252,0.9641299777560763
253,0.9646843804253472
254,0.9645300971137153
255,0.9655948215060763
256,0.9665391710069444
257,0.9669036865234375
258,0.9668969048394097
259,0.9674580891927084
260,0.9676988389756944
261,0.9677005343967013
262,0.9677632649739584
263,0.9682752821180556
264,0.9687008327907987
265,0.9693603515625
266,0.9701317681206597
267,0.9707285563151041
268,0.9716237386067709
269,0.9728274875217013
270,0.9734090169270834
271,0.9745229085286459
272,0.9744228786892362
273,0.9746432834201388
274,0.9749026828342013
275,0.9750077989366319
276,0.9755961100260416
277,0.9764455159505209
278,0.9763810899522569
279,0.9762183295355903
280,0.9767591688368056
281,0.9774356418185763
282,0.9780985514322916
283,0.9787767198350694
284,0.9790140787760416
285,0.9794040256076388
286,0.9801652696397569
287,0.9811130099826388
288,0.9812503390842013
289,0.9817114935980903
290,0.9826168484157987
291,0.9832543267144097
292,0.9839816623263888
293,0.9840053982204862
294,0.9845106336805556
295,0.9850735134548612
296,0.9853990342881944
297,0.9861195882161459
298,0.9865400526258681
299,0.9870554606119791
300,0.9874335394965278
301,0.9878200954861112
302,0.98822021484375
303,0.9887644449869791
304,0.9892917209201388
305,0.9899342854817709
306,0.990509033203125
307,0.9910532633463541
308,0.9914822048611112
309,0.9917500813802084
310,0.9922587076822916
311,0.9928453233506944
312,0.9932674831814237
313,0.9936099582248263
314,0.994140625
315,0.9945899115668403
316,0.9952206081814237
317,0.9959089491102431
318,0.9963717990451388
319,0.9967770046657987
320,0.997314453125
321,0.9977756076388888
322,0.9981977674696181
323,0.9986148410373263
