1,0.9464043511284722
2,0.9483201768663194
3,0.94989013671875
4,0.9504479302300347
5,0.9507548014322916
6,0.9508124457465278
7,0.9502122667100694
8,0.9508344862196181
9,0.9500223795572916
10,0.9507649739583334
11,0.9511633978949653
12,0.9522518581814237
13,0.9526418050130209
14,0.9531148274739584
15,0.9533030192057291
16,0.9533335367838541
17,0.9534233940972222
18,0.9535030788845487
19,0.9539252387152778
20,0.9546356201171875
21,0.9536607530381944
22,0.9538336859809028
23,0.9545576307508681
24,0.9554256863064237
25,0.9561225043402778
26,0.9569786919487847
27,0.9572211371527778
28,0.9580315483940972
29,0.9583112928602431
30,0.9588402642144097
31,0.9586046006944444
32,0.9584435356987847
33,0.9583418104383681
34,0.9590250651041666
35,0.9581247965494791
36,0.9579484727647569
37,0.95684814453125
38,0.9561343722873263
39,0.9563564724392362
40,0.9565904405381944
41,0.9563242594401041
42,0.9562123616536459
43,0.9556189643012153
44,0.955596923828125
45,0.9565056694878472
46,0.9571617974175347
47,0.9578772650824653
48,0.9573296440972222
49,0.9576466878255209
50,0.9586554633246528
51,0.9591606987847222
52,0.9600406222873263
53,0.9597303602430556
54,0.9591742621527778
55,0.9588267008463541
56,0.95989990234375
57,0.9604661729600694
58,0.9610409206814237
59,0.9611426459418403
60,0.9603966606987847
61,0.9605509440104166
62,0.9604068332248263
63,0.9614376491970487
64,0.9618157280815972
65,0.9621293809678819
66,0.9621209038628472
67,0.9624532063802084
68,0.9629720052083334
69,0.9629974365234375
70,0.9641198052300347
71,0.9642300075954862
72,0.9637790256076388
73,0.9627448187934028
74,0.9625006781684028
75,0.9632297092013888
76,0.9640418158637153
77,0.9644283718532987
78,0.9642130533854166
79,0.9643232557508681
80,0.9646775987413194
81,0.9653472900390625
82,0.9664764404296875
83,0.9656405978732638
84,0.9650726318359375
85,0.9651726616753472
86,0.9652845594618056
87,0.9656439887152778
88,0.9659949408637153
89,0.9658270941840278
90,0.9655863444010416
91,0.9657067192925347
92,0.9663357204861112
93,0.9664900037977431
94,0.9663068983289931
95,0.9654710557725694
96,0.9651302761501737
97,0.9654608832465278
98,0.9659305148654513
99,0.9660373263888888
100,0.9662695990668403
101,0.9668087429470487
102,0.9668324788411459
103,0.9667205810546875
104,0.9665900336371528
105,0.9666832817925347
106,0.9671173095703125
107,0.96734619140625
108,0.9679548475477431
109,0.9682261149088541
110,0.9675530327690972
111,0.9674648708767362
112,0.9677581787109375
113,0.9676683213975694
114,0.9670664469401041
115,0.9674631754557291
116,0.9673139784071181
117,0.9669596354166666
118,0.9673428005642362
119,0.9673648410373263
120,0.9682973225911459
121,0.9683702256944444
122,0.9691602918836806
123,0.9693654378255209
124,0.9689144558376737
125,0.9690127902560763
126,0.96905517578125
127,0.9697045220269097
128,0.9700113932291666
129,0.9699486626519097
130,0.9693620469835069
131,0.9694892035590278
132,0.9694959852430556
133,0.9703216552734375
134,0.9708387586805556
135,0.9704759385850694
136,0.9703555636935763
137,0.9701402452256944
138,0.9709608289930556
139,0.9708116319444444
140,0.9714779324001737
141,0.9716169569227431
142,0.9720272488064237
143,0.9719950358072916
144,0.9724765353732638
145,0.9723425971137153
146,0.9727427164713541
147,0.9727461073133681
148,0.9724256727430556
149,0.9726850721571181
150,0.9732462565104166
151,0.9732547336154513
152,0.9734530978732638
153,0.9736548529730903
154,0.9736277262369791
155,0.9735836452907987
156,0.9740549723307291
157,0.9745195176866319
158,0.9743550618489584
159,0.9742719862196181
160,0.9743601481119791
161,0.9743279351128472
162,0.9748128255208334
163,0.9749501546223959
164,0.9754774305555556
165,0.9757181803385416
166,0.9756825764973959
167,0.9755893283420138
168,0.9755706787109375
169,0.9752553304036459
170,0.9753350151909722
171,0.9756842719184028
172,0.976043701171875
173,0.9768032497829862
174,0.9770643446180556
175,0.9774424235026041
176,0.9773135715060763
177,0.9770117865668403
178,0.976776123046875
179,0.9773356119791666
180,0.9778900146484375
181,0.9784223768446181
182,0.9784952799479166
183,0.9782036675347222
184,0.9780120849609375
185,0.9781036376953125
186,0.9785207112630209
187,0.9789225260416666
188,0.9790564643012153
189,0.9796735975477431
190,0.9797007242838541
191,0.9798923068576388
192,0.9799516465928819
193,0.9802381727430556
194,0.9802602132161459
195,0.9806145562065972
196,0.9806908501519097
197,0.980377197265625
198,0.9809214274088541
199,0.9811960856119791
200,0.9813656277126737
201,0.9815300835503472
202,0.9813283284505209
203,0.9814436170789931
204,0.9812706841362847
205,0.9819132486979166
206,0.9818335639105903
207,0.9817555745442709
208,0.9821353488498263
209,0.9824846055772569
210,0.9823693169487847
211,0.9824083116319444
212,0.9829305013020834
213,0.9828982883029513
214,0.9828118218315972
215,0.9829898410373263
216,0.9830457899305556
217,0.9831814236111112
218,0.9836391872829862
219,0.9841783311631944
220,0.9842970106336806
221,0.9844902886284722
222,0.9843987358940972
223,0.9842664930555556
224,0.984954833984375
225,0.9852244059244791
226,0.9854600694444444
227,0.9855533175998263
228,0.9856228298611112
229,0.9858161078559028
230,0.9859246148003472
231,0.9859670003255209
232,0.9861161973741319
233,0.9860890706380209
234,0.9862704806857638
235,0.9861382378472222
236,0.9863959418402778
237,0.9867265489366319
238,0.9871826171875
239,0.9872385660807291
240,0.9873148600260416
241,0.9872182210286459
242,0.9873809814453125
243,0.9875233968098959
244,0.9876878526475694
245,0.9879709879557291
246,0.9881388346354166
247,0.988433837890625
248,0.9884745279947916
249,0.9887118869357638
250,0.9889441596137153
251,0.9891153971354166
252,0.9893018934461806
253,0.9891696506076388
254,0.9895273844401041
255,0.9895189073350694
256,0.9896952311197916
257,0.9898461235894097
258,0.9899512396918403
259,0.9901614718967013
260,0.9903801812065972
261,0.9905683729383681
262,0.9904852973090278
263,0.9905582004123263
264,0.9907396104600694
265,0.9908345540364584
266,0.9911905924479166
267,0.9912228054470487
268,0.9915703667534722
269,0.99188232421875
270,0.9918229844835069
271,0.9921383327907987
272,0.9921230740017362
273,0.9922960069444444
274,0.9924977620442709
275,0.9925469292534722
276,0.992706298828125
277,0.9929334852430556
278,0.9928673638237847
279,0.9929267035590278
280,0.9929707845052084
281,0.9932149251302084
282,0.9935217963324653
283,0.9937625461154513
284,0.9936591254340278
285,0.993865966796875
286,0.9941372341579862
287,0.9942677815755209
288,0.9944915771484375
289,0.9946424696180556
290,0.9947764078776041
291,0.9949103461371528
292,0.9951561821831597
293,0.9952189127604166
294,0.9953952365451388
295,0.9955020480685763
296,0.9956275092230903
297,0.9957987467447916
298,0.9960157606336806
299,0.9961107042100694
300,0.9962514241536459
301,0.9963667127821181
302,0.9964701334635416
303,0.9966311984592013
304,0.9967549641927084
305,0.9969482421875
306,0.9972330729166666
307,0.9973924424913194
308,0.9974738226996528
309,0.9976111518012153
310,0.997711181640625
311,0.9979434543185763
312,0.99810791015625
313,0.9982384575737847
314,0.9983673095703125
315,0.9985249837239584
316,0.9986657036675347
317,0.9987860785590278
318,0.9990149603949653
319,0.9991200764973959
320,0.9991845024956597
321,0.9993879530164931
322,0.9995066324869791
323,0.9996490478515625
